2017-11-03 11:43:20,006 INFO  (pool-1-thread-11) [instancei-0ed81d776cb2ee5e3(writeToLogger:232)] Instance started, waiting to enter a running state
2017-11-03 11:43:36,078 INFO  (pool-1-thread-11) [instancei-0ed81d776cb2ee5e3(writeToLogger:232)] Instance has started. Will add an IP to it.
2017-11-03 11:43:36,359 INFO  (pool-1-thread-11) [instancei-0ed81d776cb2ee5e3(writeToLogger:232)] Have paired the ElasticIP to this instance. Creating an SSH connecton object for it.
2017-11-03 11:44:23,554 INFO  (pool-1-thread-11) [instancei-0ed81d776cb2ee5e3(terminateThisInstance:160)] Closing the SSH connection
2017-11-03 11:44:23,554 INFO  (pool-1-thread-11) [instancei-0ed81d776cb2ee5e3(terminateThisInstance:162)] SSH Connection closed
2017-11-03 11:44:23,554 INFO  (pool-1-thread-11) [instancei-0ed81d776cb2ee5e3(terminateThisInstance:175)] Terminating the EC2 instance
2017-11-03 11:44:23,788 INFO  (pool-1-thread-11) [instancei-0ed81d776cb2ee5e3(terminateThisInstance:190)] EC2 instance terminated
2017-11-03 11:44:23,788 INFO  (pool-1-thread-11) [instancei-0ed81d776cb2ee5e3(terminateThisInstance:191)] Terminating Instance
 - Instance: i-0ed81d776cb2ee5e3
 - Current State: {Code: 32,Name: shutting-down}

2017-11-03 11:44:23,788 INFO  (pool-1-thread-11) [instancei-0ed81d776cb2ee5e3(terminateThisInstance:215)] Removing this instance from the resource pool
