2017-11-03 00:29:02,489 INFO  (pool-1-thread-3) [instancei-014288e2da6238833(writeToLogger:232)] Instance started, waiting to enter a running state
2017-11-03 00:29:18,363 INFO  (pool-1-thread-3) [instancei-014288e2da6238833(writeToLogger:232)] Instance has started. Will add an IP to it.
2017-11-03 00:29:18,564 INFO  (pool-1-thread-3) [instancei-014288e2da6238833(writeToLogger:232)] Have paired the ElasticIP to this instance. Creating an SSH connecton object for it.
2017-11-03 00:29:30,395 INFO  (pool-1-thread-3) [instancei-014288e2da6238833(writeToLogger:232)] SSH object attached successfully. Instance successfully created.
2017-11-03 00:29:30,395 INFO  (pool-1-thread-3) [instancei-014288e2da6238833(writeToLogger:232)] Adding VM instance #i-014288e2da6238833 to the Resource Manager
2017-11-03 00:29:30,396 INFO  (pool-1-thread-3) [instancei-014288e2da6238833(writeToLogger:232)] VM instance #i-014288e2da6238833 has been successfully added to the Resource Manager
2017-11-03 00:33:43,643 INFO  (pool-2-thread-1) [instancei-014288e2da6238833(writeToLogger:232)] I have been disassociated from job #30
2017-11-03 00:37:31,941 INFO  (pool-2-thread-11) [instancei-014288e2da6238833(writeToLogger:232)] I have been disassociated from job #30
2017-11-03 00:38:03,529 INFO  (Thread-1) [instancei-014288e2da6238833(terminateThisInstance:160)] Closing the SSH connection
2017-11-03 00:38:03,529 INFO  (Thread-1) [instancei-014288e2da6238833(terminateThisInstance:162)] SSH Connection closed
2017-11-03 00:38:03,529 INFO  (Thread-1) [instancei-014288e2da6238833(terminateThisInstance:175)] Terminating the EC2 instance
2017-11-03 00:38:04,427 INFO  (Thread-1) [instancei-014288e2da6238833(terminateThisInstance:190)] EC2 instance terminated
2017-11-03 00:38:04,427 INFO  (Thread-1) [instancei-014288e2da6238833(terminateThisInstance:191)] Terminating Instance
 - Instance: i-014288e2da6238833
 - Current State: {Code: 32,Name: shutting-down}

2017-11-03 00:38:04,427 INFO  (Thread-1) [instancei-014288e2da6238833(terminateThisInstance:203)] My total runtime was: 508710
My active runtime was: 480068
Fractino active: 0.943697
2017-11-03 00:38:04,427 INFO  (Thread-1) [instancei-014288e2da6238833(terminateThisInstance:215)] Removing this instance from the resource pool
