2017-11-02 20:36:26,894 INFO  (pool-1-thread-5) [instancei-04346e3618b7ad8ef(writeToLogger:232)] Instance started, waiting to enter a running state
2017-11-02 20:36:37,532 INFO  (pool-1-thread-5) [instancei-04346e3618b7ad8ef(writeToLogger:232)] Instance has started. Will add an IP to it.
2017-11-02 20:36:38,728 INFO  (pool-1-thread-5) [instancei-04346e3618b7ad8ef(writeToLogger:232)] Have paired the ElasticIP to this instance. Creating an SSH connecton object for it.
2017-11-02 20:36:51,939 INFO  (pool-1-thread-5) [instancei-04346e3618b7ad8ef(writeToLogger:232)] SSH object attached successfully. Instance successfully created.
2017-11-02 20:36:51,939 INFO  (pool-1-thread-5) [instancei-04346e3618b7ad8ef(writeToLogger:232)] Adding VM instance #i-04346e3618b7ad8ef to the Resource Manager
2017-11-02 20:36:51,940 INFO  (pool-1-thread-5) [instancei-04346e3618b7ad8ef(writeToLogger:232)] VM instance #i-04346e3618b7ad8ef has been successfully added to the Resource Manager
2017-11-02 20:36:52,157 INFO  (pool-2-thread-1) [instancei-04346e3618b7ad8ef(writeToLogger:232)] I have been disassociated from job #1
2017-11-02 20:36:52,322 INFO  (pool-2-thread-1) [instancei-04346e3618b7ad8ef(writeToLogger:232)] I have been disassociated from job #1
2017-11-02 20:36:52,468 INFO  (pool-2-thread-1) [instancei-04346e3618b7ad8ef(writeToLogger:232)] I have been disassociated from job #1
2017-11-02 20:36:52,637 INFO  (pool-2-thread-1) [instancei-04346e3618b7ad8ef(writeToLogger:232)] I have been disassociated from job #1
2017-11-02 20:36:52,786 INFO  (pool-2-thread-1) [instancei-04346e3618b7ad8ef(writeToLogger:232)] I have been disassociated from job #1
2017-11-02 20:36:52,937 INFO  (pool-2-thread-1) [instancei-04346e3618b7ad8ef(writeToLogger:232)] I have been disassociated from job #1
2017-11-02 20:36:53,088 INFO  (pool-2-thread-1) [instancei-04346e3618b7ad8ef(writeToLogger:232)] I have been disassociated from job #1
2017-11-02 20:36:53,243 INFO  (pool-2-thread-1) [instancei-04346e3618b7ad8ef(writeToLogger:232)] I have been disassociated from job #1
2017-11-02 20:36:53,387 INFO  (pool-2-thread-1) [instancei-04346e3618b7ad8ef(writeToLogger:232)] I have been disassociated from job #1
2017-11-02 20:36:53,537 INFO  (pool-2-thread-1) [instancei-04346e3618b7ad8ef(writeToLogger:232)] I have been disassociated from job #1
2017-11-02 20:36:53,753 INFO  (pool-2-thread-1) [instancei-04346e3618b7ad8ef(writeToLogger:232)] I have been disassociated from job #1
2017-11-02 20:36:53,905 INFO  (pool-2-thread-1) [instancei-04346e3618b7ad8ef(writeToLogger:232)] I have been disassociated from job #1
2017-11-02 20:36:54,105 INFO  (pool-2-thread-1) [instancei-04346e3618b7ad8ef(writeToLogger:232)] I have been disassociated from job #1
2017-11-02 20:36:54,294 INFO  (pool-2-thread-1) [instancei-04346e3618b7ad8ef(writeToLogger:232)] I have been disassociated from job #1
2017-11-02 20:36:54,438 INFO  (pool-2-thread-1) [instancei-04346e3618b7ad8ef(writeToLogger:232)] I have been disassociated from job #1
2017-11-02 20:36:54,583 INFO  (pool-2-thread-1) [instancei-04346e3618b7ad8ef(writeToLogger:232)] I have been disassociated from job #1
2017-11-02 20:36:54,724 INFO  (pool-2-thread-1) [instancei-04346e3618b7ad8ef(writeToLogger:232)] I have been disassociated from job #1
2017-11-02 20:36:54,929 INFO  (pool-2-thread-1) [instancei-04346e3618b7ad8ef(writeToLogger:232)] I have been disassociated from job #1
2017-11-02 20:36:55,097 INFO  (pool-2-thread-1) [instancei-04346e3618b7ad8ef(writeToLogger:232)] I have been disassociated from job #1
2017-11-02 20:36:55,244 INFO  (pool-2-thread-1) [instancei-04346e3618b7ad8ef(writeToLogger:232)] I have been disassociated from job #1
2017-11-02 20:36:55,397 INFO  (pool-2-thread-1) [instancei-04346e3618b7ad8ef(writeToLogger:232)] I have been disassociated from job #1
2017-11-02 20:36:55,549 INFO  (pool-2-thread-1) [instancei-04346e3618b7ad8ef(writeToLogger:232)] I have been disassociated from job #1
2017-11-02 20:36:55,707 INFO  (pool-2-thread-1) [instancei-04346e3618b7ad8ef(writeToLogger:232)] I have been disassociated from job #1
2017-11-02 20:36:55,851 INFO  (pool-2-thread-1) [instancei-04346e3618b7ad8ef(writeToLogger:232)] I have been disassociated from job #1
2017-11-02 20:36:55,997 INFO  (pool-2-thread-1) [instancei-04346e3618b7ad8ef(writeToLogger:232)] I have been disassociated from job #1
2017-11-02 20:36:56,140 INFO  (pool-2-thread-1) [instancei-04346e3618b7ad8ef(writeToLogger:232)] I have been disassociated from job #1
2017-11-02 20:36:56,285 INFO  (pool-2-thread-1) [instancei-04346e3618b7ad8ef(writeToLogger:232)] I have been disassociated from job #1
2017-11-02 20:36:56,429 INFO  (pool-2-thread-1) [instancei-04346e3618b7ad8ef(writeToLogger:232)] I have been disassociated from job #1
2017-11-02 20:36:56,574 INFO  (pool-2-thread-1) [instancei-04346e3618b7ad8ef(writeToLogger:232)] I have been disassociated from job #1
2017-11-02 20:36:56,721 INFO  (pool-2-thread-1) [instancei-04346e3618b7ad8ef(writeToLogger:232)] I have been disassociated from job #1
2017-11-02 20:36:56,874 INFO  (pool-2-thread-1) [instancei-04346e3618b7ad8ef(writeToLogger:232)] I have been disassociated from job #1
2017-11-02 20:36:57,017 INFO  (pool-2-thread-1) [instancei-04346e3618b7ad8ef(writeToLogger:232)] I have been disassociated from job #1
2017-11-02 20:36:57,162 INFO  (pool-2-thread-1) [instancei-04346e3618b7ad8ef(writeToLogger:232)] I have been disassociated from job #1
2017-11-02 20:36:57,306 INFO  (pool-2-thread-1) [instancei-04346e3618b7ad8ef(writeToLogger:232)] I have been disassociated from job #1
2017-11-02 20:36:57,451 INFO  (pool-2-thread-1) [instancei-04346e3618b7ad8ef(writeToLogger:232)] I have been disassociated from job #1
2017-11-02 20:36:57,598 INFO  (pool-2-thread-1) [instancei-04346e3618b7ad8ef(writeToLogger:232)] I have been disassociated from job #1
2017-11-02 20:36:57,741 INFO  (pool-2-thread-1) [instancei-04346e3618b7ad8ef(writeToLogger:232)] I have been disassociated from job #1
2017-11-02 20:36:57,899 INFO  (pool-2-thread-1) [instancei-04346e3618b7ad8ef(writeToLogger:232)] I have been disassociated from job #1
2017-11-02 20:36:58,041 INFO  (pool-2-thread-1) [instancei-04346e3618b7ad8ef(writeToLogger:232)] I have been disassociated from job #1
2017-11-02 20:36:58,186 INFO  (pool-2-thread-1) [instancei-04346e3618b7ad8ef(writeToLogger:232)] I have been disassociated from job #1
2017-11-02 20:36:58,327 INFO  (pool-2-thread-1) [instancei-04346e3618b7ad8ef(writeToLogger:232)] I have been disassociated from job #1
2017-11-02 20:36:58,478 INFO  (pool-2-thread-1) [instancei-04346e3618b7ad8ef(writeToLogger:232)] I have been disassociated from job #1
2017-11-02 20:36:58,631 INFO  (pool-2-thread-1) [instancei-04346e3618b7ad8ef(writeToLogger:232)] I have been disassociated from job #1
2017-11-02 20:36:58,778 INFO  (pool-2-thread-1) [instancei-04346e3618b7ad8ef(writeToLogger:232)] I have been disassociated from job #1
2017-11-02 20:36:58,923 INFO  (pool-2-thread-1) [instancei-04346e3618b7ad8ef(writeToLogger:232)] I have been disassociated from job #1
2017-11-02 20:36:59,068 INFO  (pool-2-thread-1) [instancei-04346e3618b7ad8ef(writeToLogger:232)] I have been disassociated from job #1
2017-11-02 20:36:59,209 INFO  (pool-2-thread-1) [instancei-04346e3618b7ad8ef(writeToLogger:232)] I have been disassociated from job #1
2017-11-02 20:36:59,353 INFO  (pool-2-thread-1) [instancei-04346e3618b7ad8ef(writeToLogger:232)] I have been disassociated from job #2
2017-11-02 20:36:59,725 INFO  (pool-2-thread-1) [instancei-04346e3618b7ad8ef(writeToLogger:232)] I have been disassociated from job #2
2017-11-02 20:37:00,160 INFO  (pool-2-thread-1) [instancei-04346e3618b7ad8ef(writeToLogger:232)] I have been disassociated from job #2
2017-11-02 20:37:00,540 INFO  (pool-2-thread-1) [instancei-04346e3618b7ad8ef(writeToLogger:232)] I have been disassociated from job #2
2017-11-02 20:37:01,013 INFO  (pool-2-thread-1) [instancei-04346e3618b7ad8ef(writeToLogger:232)] I have been disassociated from job #2
2017-11-02 20:37:01,302 INFO  (pool-2-thread-1) [instancei-04346e3618b7ad8ef(writeToLogger:232)] I have been disassociated from job #2
2017-11-02 20:37:01,585 INFO  (pool-2-thread-1) [instancei-04346e3618b7ad8ef(writeToLogger:232)] I have been disassociated from job #2
2017-11-02 20:37:01,872 INFO  (pool-2-thread-1) [instancei-04346e3618b7ad8ef(writeToLogger:232)] I have been disassociated from job #2
2017-11-02 20:37:02,337 INFO  (pool-2-thread-1) [instancei-04346e3618b7ad8ef(writeToLogger:232)] I have been disassociated from job #2
2017-11-02 20:37:02,617 INFO  (pool-2-thread-1) [instancei-04346e3618b7ad8ef(writeToLogger:232)] I have been disassociated from job #2
2017-11-02 20:37:02,915 INFO  (pool-2-thread-1) [instancei-04346e3618b7ad8ef(writeToLogger:232)] I have been disassociated from job #2
2017-11-02 20:37:03,205 INFO  (pool-2-thread-1) [instancei-04346e3618b7ad8ef(writeToLogger:232)] I have been disassociated from job #2
2017-11-02 20:37:03,493 INFO  (pool-2-thread-1) [instancei-04346e3618b7ad8ef(writeToLogger:232)] I have been disassociated from job #2
2017-11-02 20:37:03,780 INFO  (pool-2-thread-1) [instancei-04346e3618b7ad8ef(writeToLogger:232)] I have been disassociated from job #2
2017-11-02 20:37:04,076 INFO  (pool-2-thread-1) [instancei-04346e3618b7ad8ef(writeToLogger:232)] I have been disassociated from job #2
2017-11-02 20:37:04,360 INFO  (pool-2-thread-1) [instancei-04346e3618b7ad8ef(writeToLogger:232)] I have been disassociated from job #3
2017-11-02 20:37:04,656 INFO  (pool-2-thread-1) [instancei-04346e3618b7ad8ef(writeToLogger:232)] I have been disassociated from job #3
2017-11-02 20:37:04,952 INFO  (pool-2-thread-1) [instancei-04346e3618b7ad8ef(writeToLogger:232)] I have been disassociated from job #3
2017-11-02 20:37:05,292 INFO  (pool-2-thread-1) [instancei-04346e3618b7ad8ef(writeToLogger:232)] I have been disassociated from job #3
2017-11-02 20:37:05,584 INFO  (pool-2-thread-1) [instancei-04346e3618b7ad8ef(writeToLogger:232)] I have been disassociated from job #4
2017-11-02 20:37:05,874 INFO  (pool-2-thread-1) [instancei-04346e3618b7ad8ef(writeToLogger:232)] I have been disassociated from job #4
2017-11-02 20:37:06,151 INFO  (pool-2-thread-1) [instancei-04346e3618b7ad8ef(writeToLogger:232)] I have been disassociated from job #4
2017-11-02 20:37:06,442 INFO  (pool-2-thread-1) [instancei-04346e3618b7ad8ef(writeToLogger:232)] I have been disassociated from job #4
2017-11-02 20:37:06,981 INFO  (pool-2-thread-1) [instancei-04346e3618b7ad8ef(writeToLogger:232)] I have been disassociated from job #4
2017-11-02 20:37:07,264 INFO  (pool-2-thread-1) [instancei-04346e3618b7ad8ef(writeToLogger:232)] I have been disassociated from job #4
2017-11-02 20:37:07,544 INFO  (pool-2-thread-1) [instancei-04346e3618b7ad8ef(writeToLogger:232)] I have been disassociated from job #4
2017-11-02 20:37:07,854 INFO  (pool-2-thread-1) [instancei-04346e3618b7ad8ef(writeToLogger:232)] I have been disassociated from job #4
2017-11-02 20:37:08,205 INFO  (pool-2-thread-1) [instancei-04346e3618b7ad8ef(writeToLogger:232)] I have been disassociated from job #4
2017-11-02 20:37:08,499 INFO  (pool-2-thread-1) [instancei-04346e3618b7ad8ef(writeToLogger:232)] I have been disassociated from job #4
2017-11-02 20:37:08,797 INFO  (pool-2-thread-1) [instancei-04346e3618b7ad8ef(writeToLogger:232)] I have been disassociated from job #4
2017-11-02 20:37:09,081 INFO  (pool-2-thread-1) [instancei-04346e3618b7ad8ef(writeToLogger:232)] I have been disassociated from job #4
2017-11-02 20:37:09,824 INFO  (pool-2-thread-1) [instancei-04346e3618b7ad8ef(writeToLogger:232)] I have been disassociated from job #4
2017-11-02 20:37:10,111 INFO  (pool-2-thread-1) [instancei-04346e3618b7ad8ef(writeToLogger:232)] I have been disassociated from job #4
2017-11-02 20:37:10,395 INFO  (pool-2-thread-1) [instancei-04346e3618b7ad8ef(writeToLogger:232)] I have been disassociated from job #4
2017-11-02 20:37:10,706 INFO  (pool-2-thread-1) [instancei-04346e3618b7ad8ef(writeToLogger:232)] I have been disassociated from job #4
2017-11-02 20:37:10,999 INFO  (pool-2-thread-1) [instancei-04346e3618b7ad8ef(writeToLogger:232)] I have been disassociated from job #4
2017-11-02 20:37:11,284 INFO  (pool-2-thread-1) [instancei-04346e3618b7ad8ef(writeToLogger:232)] I have been disassociated from job #4
2017-11-02 20:37:11,576 INFO  (pool-2-thread-1) [instancei-04346e3618b7ad8ef(writeToLogger:232)] I have been disassociated from job #4
2017-11-02 20:37:11,869 INFO  (pool-2-thread-1) [instancei-04346e3618b7ad8ef(writeToLogger:232)] I have been disassociated from job #4
2017-11-02 20:37:12,155 INFO  (pool-2-thread-1) [instancei-04346e3618b7ad8ef(writeToLogger:232)] I have been disassociated from job #4
2017-11-02 20:37:12,468 INFO  (pool-2-thread-1) [instancei-04346e3618b7ad8ef(writeToLogger:232)] I have been disassociated from job #4
2017-11-02 20:37:12,781 INFO  (pool-2-thread-1) [instancei-04346e3618b7ad8ef(writeToLogger:232)] I have been disassociated from job #4
2017-11-02 20:37:13,083 INFO  (pool-2-thread-1) [instancei-04346e3618b7ad8ef(writeToLogger:232)] I have been disassociated from job #4
2017-11-02 20:37:13,401 INFO  (pool-2-thread-1) [instancei-04346e3618b7ad8ef(writeToLogger:232)] I have been disassociated from job #4
2017-11-02 20:37:13,944 INFO  (pool-2-thread-1) [instancei-04346e3618b7ad8ef(writeToLogger:232)] I have been disassociated from job #4
2017-11-02 20:37:14,229 INFO  (pool-2-thread-1) [instancei-04346e3618b7ad8ef(writeToLogger:232)] I have been disassociated from job #4
2017-11-02 20:37:14,567 INFO  (pool-2-thread-1) [instancei-04346e3618b7ad8ef(writeToLogger:232)] I have been disassociated from job #4
2017-11-02 20:37:14,859 INFO  (pool-2-thread-1) [instancei-04346e3618b7ad8ef(writeToLogger:232)] I have been disassociated from job #4
2017-11-02 20:37:15,152 INFO  (pool-2-thread-1) [instancei-04346e3618b7ad8ef(writeToLogger:232)] I have been disassociated from job #4
2017-11-02 20:37:15,435 INFO  (pool-2-thread-1) [instancei-04346e3618b7ad8ef(writeToLogger:232)] I have been disassociated from job #4
2017-11-02 20:37:15,735 INFO  (pool-2-thread-1) [instancei-04346e3618b7ad8ef(writeToLogger:232)] I have been disassociated from job #4
2017-11-02 20:37:16,033 INFO  (pool-2-thread-1) [instancei-04346e3618b7ad8ef(writeToLogger:232)] I have been disassociated from job #4
2017-11-02 20:37:16,319 INFO  (pool-2-thread-1) [instancei-04346e3618b7ad8ef(writeToLogger:232)] I have been disassociated from job #4
2017-11-02 20:37:16,603 INFO  (pool-2-thread-1) [instancei-04346e3618b7ad8ef(writeToLogger:232)] I have been disassociated from job #4
2017-11-02 20:37:17,086 INFO  (pool-2-thread-1) [instancei-04346e3618b7ad8ef(writeToLogger:232)] I have been disassociated from job #4
2017-11-02 20:37:17,363 INFO  (pool-2-thread-1) [instancei-04346e3618b7ad8ef(writeToLogger:232)] I have been disassociated from job #4
2017-11-02 20:37:17,648 INFO  (pool-2-thread-1) [instancei-04346e3618b7ad8ef(writeToLogger:232)] I have been disassociated from job #4
2017-11-02 20:37:17,941 INFO  (pool-2-thread-1) [instancei-04346e3618b7ad8ef(writeToLogger:232)] I have been disassociated from job #4
2017-11-02 20:37:18,225 INFO  (pool-2-thread-1) [instancei-04346e3618b7ad8ef(writeToLogger:232)] I have been disassociated from job #4
2017-11-02 20:37:18,514 INFO  (pool-2-thread-1) [instancei-04346e3618b7ad8ef(writeToLogger:232)] I have been disassociated from job #4
2017-11-02 20:37:19,587 INFO  (pool-2-thread-1) [instancei-04346e3618b7ad8ef(writeToLogger:232)] I have been disassociated from job #4
2017-11-02 20:37:19,870 INFO  (pool-2-thread-1) [instancei-04346e3618b7ad8ef(writeToLogger:232)] I have been disassociated from job #4
2017-11-02 20:37:20,167 INFO  (pool-2-thread-1) [instancei-04346e3618b7ad8ef(writeToLogger:232)] I have been disassociated from job #4
2017-11-02 20:37:20,455 INFO  (pool-2-thread-1) [instancei-04346e3618b7ad8ef(writeToLogger:232)] I have been disassociated from job #4
2017-11-02 20:37:20,758 INFO  (pool-2-thread-1) [instancei-04346e3618b7ad8ef(writeToLogger:232)] I have been disassociated from job #4
2017-11-02 20:37:21,120 INFO  (pool-2-thread-1) [instancei-04346e3618b7ad8ef(writeToLogger:232)] I have been disassociated from job #4
2017-11-02 20:37:21,407 INFO  (pool-2-thread-1) [instancei-04346e3618b7ad8ef(writeToLogger:232)] I have been disassociated from job #5
2017-11-02 20:37:21,701 INFO  (pool-2-thread-1) [instancei-04346e3618b7ad8ef(writeToLogger:232)] I have been disassociated from job #5
2017-11-02 20:37:21,994 INFO  (pool-2-thread-1) [instancei-04346e3618b7ad8ef(writeToLogger:232)] I have been disassociated from job #5
2017-11-02 20:37:22,286 INFO  (pool-2-thread-1) [instancei-04346e3618b7ad8ef(writeToLogger:232)] I have been disassociated from job #5
2017-11-02 20:37:22,578 INFO  (pool-2-thread-1) [instancei-04346e3618b7ad8ef(writeToLogger:232)] I have been disassociated from job #5
2017-11-02 20:37:22,889 INFO  (pool-2-thread-1) [instancei-04346e3618b7ad8ef(writeToLogger:232)] I have been disassociated from job #5
2017-11-02 20:37:23,180 INFO  (pool-2-thread-1) [instancei-04346e3618b7ad8ef(writeToLogger:232)] I have been disassociated from job #5
2017-11-02 20:37:23,492 INFO  (pool-2-thread-1) [instancei-04346e3618b7ad8ef(writeToLogger:232)] I have been disassociated from job #5
2017-11-02 20:37:23,785 INFO  (pool-2-thread-1) [instancei-04346e3618b7ad8ef(writeToLogger:232)] I have been disassociated from job #5
2017-11-02 20:37:24,077 INFO  (pool-2-thread-1) [instancei-04346e3618b7ad8ef(writeToLogger:232)] I have been disassociated from job #5
2017-11-02 20:37:24,395 INFO  (pool-2-thread-1) [instancei-04346e3618b7ad8ef(writeToLogger:232)] I have been disassociated from job #5
2017-11-02 20:37:24,722 INFO  (pool-2-thread-1) [instancei-04346e3618b7ad8ef(writeToLogger:232)] I have been disassociated from job #5
2017-11-02 20:37:25,014 INFO  (pool-2-thread-1) [instancei-04346e3618b7ad8ef(writeToLogger:232)] I have been disassociated from job #5
2017-11-02 20:37:25,310 INFO  (pool-2-thread-1) [instancei-04346e3618b7ad8ef(writeToLogger:232)] I have been disassociated from job #5
2017-11-02 20:37:25,597 INFO  (pool-2-thread-1) [instancei-04346e3618b7ad8ef(writeToLogger:232)] I have been disassociated from job #5
2017-11-02 20:37:26,015 INFO  (pool-2-thread-1) [instancei-04346e3618b7ad8ef(writeToLogger:232)] I have been disassociated from job #5
2017-11-02 20:37:27,819 INFO  (pool-2-thread-1) [instancei-04346e3618b7ad8ef(writeToLogger:232)] I have been disassociated from job #5
2017-11-02 20:37:28,117 INFO  (pool-2-thread-1) [instancei-04346e3618b7ad8ef(writeToLogger:232)] I have been disassociated from job #5
2017-11-02 20:37:28,423 INFO  (pool-2-thread-1) [instancei-04346e3618b7ad8ef(writeToLogger:232)] I have been disassociated from job #5
2017-11-02 20:37:28,713 INFO  (pool-2-thread-1) [instancei-04346e3618b7ad8ef(writeToLogger:232)] I have been disassociated from job #5
2017-11-02 20:37:29,000 INFO  (pool-2-thread-1) [instancei-04346e3618b7ad8ef(writeToLogger:232)] I have been disassociated from job #5
2017-11-02 20:37:29,290 INFO  (pool-2-thread-1) [instancei-04346e3618b7ad8ef(writeToLogger:232)] I have been disassociated from job #5
2017-11-02 20:37:29,781 INFO  (pool-2-thread-1) [instancei-04346e3618b7ad8ef(writeToLogger:232)] I have been disassociated from job #5
2017-11-02 20:37:30,085 INFO  (pool-2-thread-1) [instancei-04346e3618b7ad8ef(writeToLogger:232)] I have been disassociated from job #5
2017-11-02 20:37:30,398 INFO  (pool-2-thread-1) [instancei-04346e3618b7ad8ef(writeToLogger:232)] I have been disassociated from job #5
2017-11-02 20:37:30,699 INFO  (pool-2-thread-1) [instancei-04346e3618b7ad8ef(writeToLogger:232)] I have been disassociated from job #5
2017-11-02 20:37:30,991 INFO  (pool-2-thread-1) [instancei-04346e3618b7ad8ef(writeToLogger:232)] I have been disassociated from job #5
2017-11-02 20:37:31,274 INFO  (pool-2-thread-1) [instancei-04346e3618b7ad8ef(writeToLogger:232)] I have been disassociated from job #5
2017-11-02 20:37:31,564 INFO  (pool-2-thread-1) [instancei-04346e3618b7ad8ef(writeToLogger:232)] I have been disassociated from job #5
2017-11-02 20:37:31,935 INFO  (pool-2-thread-1) [instancei-04346e3618b7ad8ef(writeToLogger:232)] I have been disassociated from job #5
2017-11-02 20:37:32,240 INFO  (pool-2-thread-1) [instancei-04346e3618b7ad8ef(writeToLogger:232)] I have been disassociated from job #5
2017-11-02 20:37:32,549 INFO  (pool-2-thread-1) [instancei-04346e3618b7ad8ef(writeToLogger:232)] I have been disassociated from job #5
2017-11-02 20:37:32,849 INFO  (pool-2-thread-1) [instancei-04346e3618b7ad8ef(writeToLogger:232)] I have been disassociated from job #5
2017-11-02 20:37:33,140 INFO  (pool-2-thread-1) [instancei-04346e3618b7ad8ef(writeToLogger:232)] I have been disassociated from job #5
2017-11-02 20:37:33,430 INFO  (pool-2-thread-1) [instancei-04346e3618b7ad8ef(writeToLogger:232)] I have been disassociated from job #5
2017-11-02 20:37:33,733 INFO  (pool-2-thread-1) [instancei-04346e3618b7ad8ef(writeToLogger:232)] I have been disassociated from job #5
2017-11-02 20:37:34,018 INFO  (pool-2-thread-1) [instancei-04346e3618b7ad8ef(writeToLogger:232)] I have been disassociated from job #5
2017-11-02 20:37:34,300 INFO  (pool-2-thread-1) [instancei-04346e3618b7ad8ef(writeToLogger:232)] I have been disassociated from job #5
2017-11-02 20:37:34,795 INFO  (pool-2-thread-1) [instancei-04346e3618b7ad8ef(writeToLogger:232)] I have been disassociated from job #5
2017-11-02 20:37:35,099 INFO  (pool-2-thread-1) [instancei-04346e3618b7ad8ef(writeToLogger:232)] I have been disassociated from job #5
2017-11-02 20:37:35,429 INFO  (pool-2-thread-1) [instancei-04346e3618b7ad8ef(writeToLogger:232)] I have been disassociated from job #5
2017-11-02 20:37:35,722 INFO  (pool-2-thread-1) [instancei-04346e3618b7ad8ef(writeToLogger:232)] I have been disassociated from job #5
2017-11-02 20:37:36,037 INFO  (pool-2-thread-1) [instancei-04346e3618b7ad8ef(writeToLogger:232)] I have been disassociated from job #5
2017-11-02 20:37:36,321 INFO  (pool-2-thread-1) [instancei-04346e3618b7ad8ef(writeToLogger:232)] I have been disassociated from job #5
2017-11-02 20:37:37,140 INFO  (pool-2-thread-1) [instancei-04346e3618b7ad8ef(writeToLogger:232)] I have been disassociated from job #5
2017-11-02 20:37:37,441 INFO  (pool-2-thread-1) [instancei-04346e3618b7ad8ef(writeToLogger:232)] I have been disassociated from job #5
2017-11-02 20:37:37,731 INFO  (pool-2-thread-1) [instancei-04346e3618b7ad8ef(writeToLogger:232)] I have been disassociated from job #5
2017-11-02 20:37:38,071 INFO  (pool-2-thread-1) [instancei-04346e3618b7ad8ef(writeToLogger:232)] I have been disassociated from job #5
2017-11-02 20:37:38,366 INFO  (pool-2-thread-1) [instancei-04346e3618b7ad8ef(writeToLogger:232)] I have been disassociated from job #5
2017-11-02 20:37:38,652 INFO  (pool-2-thread-1) [instancei-04346e3618b7ad8ef(writeToLogger:232)] I have been disassociated from job #5
2017-11-02 20:37:38,951 INFO  (pool-2-thread-1) [instancei-04346e3618b7ad8ef(writeToLogger:232)] I have been disassociated from job #5
2017-11-02 20:37:39,268 INFO  (pool-2-thread-1) [instancei-04346e3618b7ad8ef(writeToLogger:232)] I have been disassociated from job #5
2017-11-02 20:37:39,565 INFO  (pool-2-thread-1) [instancei-04346e3618b7ad8ef(writeToLogger:232)] I have been disassociated from job #5
2017-11-02 20:37:39,871 INFO  (pool-2-thread-1) [instancei-04346e3618b7ad8ef(writeToLogger:232)] I have been disassociated from job #5
2017-11-02 20:37:40,180 INFO  (pool-2-thread-1) [instancei-04346e3618b7ad8ef(writeToLogger:232)] I have been disassociated from job #5
2017-11-02 20:37:40,502 INFO  (pool-2-thread-1) [instancei-04346e3618b7ad8ef(writeToLogger:232)] I have been disassociated from job #5
2017-11-02 20:37:40,807 INFO  (pool-2-thread-1) [instancei-04346e3618b7ad8ef(writeToLogger:232)] I have been disassociated from job #5
2017-11-02 20:37:41,142 INFO  (pool-2-thread-1) [instancei-04346e3618b7ad8ef(writeToLogger:232)] I have been disassociated from job #5
2017-11-02 20:37:41,464 INFO  (pool-2-thread-1) [instancei-04346e3618b7ad8ef(writeToLogger:232)] I have been disassociated from job #5
2017-11-02 20:37:41,890 INFO  (pool-2-thread-1) [instancei-04346e3618b7ad8ef(writeToLogger:232)] I have been disassociated from job #5
2017-11-02 20:37:42,268 INFO  (pool-2-thread-1) [instancei-04346e3618b7ad8ef(writeToLogger:232)] I have been disassociated from job #5
2017-11-02 20:37:42,567 INFO  (pool-2-thread-1) [instancei-04346e3618b7ad8ef(writeToLogger:232)] I have been disassociated from job #5
2017-11-02 20:37:42,869 INFO  (pool-2-thread-1) [instancei-04346e3618b7ad8ef(writeToLogger:232)] I have been disassociated from job #5
2017-11-02 20:37:43,166 INFO  (pool-2-thread-1) [instancei-04346e3618b7ad8ef(writeToLogger:232)] I have been disassociated from job #5
2017-11-02 20:37:43,474 INFO  (pool-2-thread-1) [instancei-04346e3618b7ad8ef(writeToLogger:232)] I have been disassociated from job #5
2017-11-02 20:37:43,797 INFO  (pool-2-thread-1) [instancei-04346e3618b7ad8ef(writeToLogger:232)] I have been disassociated from job #5
2017-11-02 20:37:44,099 INFO  (pool-2-thread-1) [instancei-04346e3618b7ad8ef(writeToLogger:232)] I have been disassociated from job #5
2017-11-02 20:37:44,394 INFO  (pool-2-thread-1) [instancei-04346e3618b7ad8ef(writeToLogger:232)] I have been disassociated from job #5
2017-11-02 20:37:44,718 INFO  (pool-2-thread-1) [instancei-04346e3618b7ad8ef(writeToLogger:232)] I have been disassociated from job #5
2017-11-02 20:37:45,224 INFO  (pool-2-thread-1) [instancei-04346e3618b7ad8ef(writeToLogger:232)] I have been disassociated from job #5
2017-11-02 20:37:45,550 INFO  (pool-2-thread-1) [instancei-04346e3618b7ad8ef(writeToLogger:232)] I have been disassociated from job #5
2017-11-02 20:37:45,941 INFO  (pool-2-thread-1) [instancei-04346e3618b7ad8ef(writeToLogger:232)] I have been disassociated from job #5
2017-11-02 20:37:46,239 INFO  (pool-2-thread-1) [instancei-04346e3618b7ad8ef(writeToLogger:232)] I have been disassociated from job #5
2017-11-02 20:37:46,394 INFO  (pool-2-thread-1) [instancei-04346e3618b7ad8ef(writeToLogger:232)] I have been disassociated from job #5
2017-11-02 20:37:46,685 INFO  (pool-2-thread-1) [instancei-04346e3618b7ad8ef(writeToLogger:232)] I have been disassociated from job #5
2017-11-02 20:37:47,012 INFO  (pool-2-thread-1) [instancei-04346e3618b7ad8ef(writeToLogger:232)] I have been disassociated from job #5
2017-11-02 20:37:47,308 INFO  (pool-2-thread-1) [instancei-04346e3618b7ad8ef(writeToLogger:232)] I have been disassociated from job #5
2017-11-02 20:37:47,603 INFO  (pool-2-thread-1) [instancei-04346e3618b7ad8ef(writeToLogger:232)] I have been disassociated from job #5
2017-11-02 20:37:47,894 INFO  (pool-2-thread-1) [instancei-04346e3618b7ad8ef(writeToLogger:232)] I have been disassociated from job #5
2017-11-02 20:37:48,188 INFO  (pool-2-thread-1) [instancei-04346e3618b7ad8ef(writeToLogger:232)] I have been disassociated from job #5
2017-11-02 20:37:48,500 INFO  (pool-2-thread-1) [instancei-04346e3618b7ad8ef(writeToLogger:232)] I have been disassociated from job #5
2017-11-02 20:37:48,790 INFO  (pool-2-thread-1) [instancei-04346e3618b7ad8ef(writeToLogger:232)] I have been disassociated from job #5
2017-11-02 20:37:49,089 INFO  (pool-2-thread-1) [instancei-04346e3618b7ad8ef(writeToLogger:232)] I have been disassociated from job #5
2017-11-02 20:37:49,390 INFO  (pool-2-thread-1) [instancei-04346e3618b7ad8ef(writeToLogger:232)] I have been disassociated from job #5
2017-11-02 20:37:50,149 INFO  (pool-2-thread-1) [instancei-04346e3618b7ad8ef(writeToLogger:232)] I have been disassociated from job #5
2017-11-02 20:37:50,494 INFO  (pool-2-thread-1) [instancei-04346e3618b7ad8ef(writeToLogger:232)] I have been disassociated from job #5
2017-11-02 20:37:50,790 INFO  (pool-2-thread-1) [instancei-04346e3618b7ad8ef(writeToLogger:232)] I have been disassociated from job #5
2017-11-02 20:37:51,102 INFO  (pool-2-thread-1) [instancei-04346e3618b7ad8ef(writeToLogger:232)] I have been disassociated from job #5
2017-11-02 20:37:51,525 INFO  (pool-2-thread-1) [instancei-04346e3618b7ad8ef(writeToLogger:232)] I have been disassociated from job #5
2017-11-02 20:37:51,826 INFO  (pool-2-thread-1) [instancei-04346e3618b7ad8ef(writeToLogger:232)] I have been disassociated from job #5
2017-11-02 20:37:52,631 INFO  (pool-2-thread-1) [instancei-04346e3618b7ad8ef(writeToLogger:232)] I have been disassociated from job #5
2017-11-02 20:37:52,932 INFO  (pool-2-thread-1) [instancei-04346e3618b7ad8ef(writeToLogger:232)] I have been disassociated from job #5
2017-11-02 20:37:53,267 INFO  (pool-2-thread-1) [instancei-04346e3618b7ad8ef(writeToLogger:232)] I have been disassociated from job #5
2017-11-02 20:37:53,929 INFO  (pool-2-thread-1) [instancei-04346e3618b7ad8ef(writeToLogger:232)] I have been disassociated from job #5
2017-11-02 20:37:54,710 INFO  (pool-2-thread-1) [instancei-04346e3618b7ad8ef(writeToLogger:232)] I have been disassociated from job #5
2017-11-02 20:37:55,012 INFO  (pool-2-thread-1) [instancei-04346e3618b7ad8ef(writeToLogger:232)] I have been disassociated from job #5
2017-11-02 20:37:55,330 INFO  (pool-2-thread-1) [instancei-04346e3618b7ad8ef(writeToLogger:232)] I have been disassociated from job #5
2017-11-02 20:37:55,639 INFO  (pool-2-thread-1) [instancei-04346e3618b7ad8ef(writeToLogger:232)] I have been disassociated from job #5
2017-11-02 20:37:55,939 INFO  (pool-2-thread-1) [instancei-04346e3618b7ad8ef(writeToLogger:232)] I have been disassociated from job #5
2017-11-02 20:37:56,275 INFO  (pool-2-thread-1) [instancei-04346e3618b7ad8ef(writeToLogger:232)] I have been disassociated from job #5
2017-11-02 20:37:56,563 INFO  (pool-2-thread-1) [instancei-04346e3618b7ad8ef(writeToLogger:232)] I have been disassociated from job #5
2017-11-02 20:37:56,856 INFO  (pool-2-thread-1) [instancei-04346e3618b7ad8ef(writeToLogger:232)] I have been disassociated from job #5
2017-11-02 20:37:57,153 INFO  (pool-2-thread-1) [instancei-04346e3618b7ad8ef(writeToLogger:232)] I have been disassociated from job #5
2017-11-02 20:37:57,455 INFO  (pool-2-thread-1) [instancei-04346e3618b7ad8ef(writeToLogger:232)] I have been disassociated from job #6
2017-11-02 20:37:57,768 INFO  (pool-2-thread-1) [instancei-04346e3618b7ad8ef(writeToLogger:232)] I have been disassociated from job #6
2017-11-02 20:37:58,054 INFO  (pool-2-thread-1) [instancei-04346e3618b7ad8ef(writeToLogger:232)] I have been disassociated from job #6
2017-11-02 20:37:58,430 INFO  (pool-2-thread-1) [instancei-04346e3618b7ad8ef(writeToLogger:232)] I have been disassociated from job #6
2017-11-02 20:37:58,733 INFO  (pool-2-thread-1) [instancei-04346e3618b7ad8ef(writeToLogger:232)] I have been disassociated from job #6
2017-11-02 20:37:59,019 INFO  (pool-2-thread-1) [instancei-04346e3618b7ad8ef(writeToLogger:232)] I have been disassociated from job #6
2017-11-02 20:37:59,324 INFO  (pool-2-thread-1) [instancei-04346e3618b7ad8ef(writeToLogger:232)] I have been disassociated from job #6
2017-11-02 20:37:59,612 INFO  (pool-2-thread-1) [instancei-04346e3618b7ad8ef(writeToLogger:232)] I have been disassociated from job #6
2017-11-02 20:37:59,933 INFO  (pool-2-thread-1) [instancei-04346e3618b7ad8ef(writeToLogger:232)] I have been disassociated from job #6
2017-11-02 20:38:00,299 INFO  (pool-2-thread-1) [instancei-04346e3618b7ad8ef(writeToLogger:232)] I have been disassociated from job #6
2017-11-02 20:38:00,610 INFO  (pool-2-thread-1) [instancei-04346e3618b7ad8ef(writeToLogger:232)] I have been disassociated from job #6
2017-11-02 20:38:00,898 INFO  (pool-2-thread-1) [instancei-04346e3618b7ad8ef(writeToLogger:232)] I have been disassociated from job #6
2017-11-02 20:38:01,202 INFO  (pool-2-thread-1) [instancei-04346e3618b7ad8ef(writeToLogger:232)] I have been disassociated from job #6
2017-11-02 20:38:01,555 INFO  (pool-2-thread-1) [instancei-04346e3618b7ad8ef(writeToLogger:232)] I have been disassociated from job #6
2017-11-02 20:38:01,850 INFO  (pool-2-thread-1) [instancei-04346e3618b7ad8ef(writeToLogger:232)] I have been disassociated from job #6
2017-11-02 20:38:02,212 INFO  (pool-2-thread-1) [instancei-04346e3618b7ad8ef(writeToLogger:232)] I have been disassociated from job #6
2017-11-02 20:38:02,541 INFO  (pool-2-thread-1) [instancei-04346e3618b7ad8ef(writeToLogger:232)] I have been disassociated from job #6
2017-11-02 20:38:02,839 INFO  (pool-2-thread-1) [instancei-04346e3618b7ad8ef(writeToLogger:232)] I have been disassociated from job #6
2017-11-02 20:38:03,128 INFO  (pool-2-thread-1) [instancei-04346e3618b7ad8ef(writeToLogger:232)] I have been disassociated from job #6
2017-11-02 20:38:03,419 INFO  (pool-2-thread-1) [instancei-04346e3618b7ad8ef(writeToLogger:232)] I have been disassociated from job #6
2017-11-02 20:38:03,751 INFO  (pool-2-thread-1) [instancei-04346e3618b7ad8ef(writeToLogger:232)] I have been disassociated from job #6
2017-11-02 20:38:04,062 INFO  (pool-2-thread-1) [instancei-04346e3618b7ad8ef(writeToLogger:232)] I have been disassociated from job #6
2017-11-02 20:38:04,388 INFO  (pool-2-thread-1) [instancei-04346e3618b7ad8ef(writeToLogger:232)] I have been disassociated from job #6
2017-11-02 20:38:04,669 INFO  (pool-2-thread-1) [instancei-04346e3618b7ad8ef(writeToLogger:232)] I have been disassociated from job #6
2017-11-02 20:38:04,964 INFO  (pool-2-thread-1) [instancei-04346e3618b7ad8ef(writeToLogger:232)] I have been disassociated from job #6
2017-11-02 20:38:05,971 INFO  (pool-2-thread-1) [instancei-04346e3618b7ad8ef(writeToLogger:232)] I have been disassociated from job #6
2017-11-02 20:38:06,259 INFO  (pool-2-thread-1) [instancei-04346e3618b7ad8ef(writeToLogger:232)] I have been disassociated from job #6
2017-11-02 20:38:06,556 INFO  (pool-2-thread-1) [instancei-04346e3618b7ad8ef(writeToLogger:232)] I have been disassociated from job #6
2017-11-02 20:38:06,998 INFO  (pool-2-thread-1) [instancei-04346e3618b7ad8ef(writeToLogger:232)] I have been disassociated from job #6
2017-11-02 20:38:07,548 INFO  (pool-2-thread-1) [instancei-04346e3618b7ad8ef(writeToLogger:232)] I have been disassociated from job #6
2017-11-02 20:38:07,847 INFO  (pool-2-thread-1) [instancei-04346e3618b7ad8ef(writeToLogger:232)] I have been disassociated from job #6
2017-11-02 20:38:08,135 INFO  (pool-2-thread-1) [instancei-04346e3618b7ad8ef(writeToLogger:232)] I have been disassociated from job #6
2017-11-02 20:38:08,454 INFO  (pool-2-thread-1) [instancei-04346e3618b7ad8ef(writeToLogger:232)] I have been disassociated from job #7
2017-11-02 20:38:08,798 INFO  (pool-2-thread-1) [instancei-04346e3618b7ad8ef(writeToLogger:232)] I have been disassociated from job #7
2017-11-02 20:38:09,108 INFO  (pool-2-thread-1) [instancei-04346e3618b7ad8ef(writeToLogger:232)] I have been disassociated from job #7
2017-11-02 20:38:09,427 INFO  (pool-2-thread-1) [instancei-04346e3618b7ad8ef(writeToLogger:232)] I have been disassociated from job #7
2017-11-02 20:38:09,738 INFO  (pool-2-thread-1) [instancei-04346e3618b7ad8ef(writeToLogger:232)] I have been disassociated from job #7
2017-11-02 20:38:10,037 INFO  (pool-2-thread-1) [instancei-04346e3618b7ad8ef(writeToLogger:232)] I have been disassociated from job #7
2017-11-02 20:38:10,333 INFO  (pool-2-thread-1) [instancei-04346e3618b7ad8ef(writeToLogger:232)] I have been disassociated from job #7
2017-11-02 20:38:10,623 INFO  (pool-2-thread-1) [instancei-04346e3618b7ad8ef(writeToLogger:232)] I have been disassociated from job #7
2017-11-02 20:38:10,959 INFO  (pool-2-thread-1) [instancei-04346e3618b7ad8ef(writeToLogger:232)] I have been disassociated from job #7
2017-11-02 20:38:11,860 INFO  (pool-2-thread-1) [instancei-04346e3618b7ad8ef(writeToLogger:232)] I have been disassociated from job #7
2017-11-02 20:38:12,158 INFO  (pool-2-thread-1) [instancei-04346e3618b7ad8ef(writeToLogger:232)] I have been disassociated from job #7
2017-11-02 20:38:12,455 INFO  (pool-2-thread-1) [instancei-04346e3618b7ad8ef(writeToLogger:232)] I have been disassociated from job #7
2017-11-02 20:38:12,748 INFO  (pool-2-thread-1) [instancei-04346e3618b7ad8ef(writeToLogger:232)] I have been disassociated from job #7
2017-11-02 20:38:13,135 INFO  (pool-2-thread-1) [instancei-04346e3618b7ad8ef(writeToLogger:232)] I have been disassociated from job #7
2017-11-02 20:38:13,431 INFO  (pool-2-thread-1) [instancei-04346e3618b7ad8ef(writeToLogger:232)] I have been disassociated from job #7
2017-11-02 20:38:13,740 INFO  (pool-2-thread-1) [instancei-04346e3618b7ad8ef(writeToLogger:232)] I have been disassociated from job #7
2017-11-02 20:38:14,062 INFO  (pool-2-thread-1) [instancei-04346e3618b7ad8ef(writeToLogger:232)] I have been disassociated from job #7
2017-11-02 20:38:14,384 INFO  (pool-2-thread-1) [instancei-04346e3618b7ad8ef(writeToLogger:232)] I have been disassociated from job #7
2017-11-02 20:38:14,753 INFO  (pool-2-thread-1) [instancei-04346e3618b7ad8ef(writeToLogger:232)] I have been disassociated from job #7
2017-11-02 20:38:15,047 INFO  (pool-2-thread-1) [instancei-04346e3618b7ad8ef(writeToLogger:232)] I have been disassociated from job #7
2017-11-02 20:38:15,356 INFO  (pool-2-thread-1) [instancei-04346e3618b7ad8ef(writeToLogger:232)] I have been disassociated from job #7
2017-11-02 20:38:15,649 INFO  (pool-2-thread-1) [instancei-04346e3618b7ad8ef(writeToLogger:232)] I have been disassociated from job #7
2017-11-02 20:38:15,942 INFO  (pool-2-thread-1) [instancei-04346e3618b7ad8ef(writeToLogger:232)] I have been disassociated from job #7
2017-11-02 20:38:16,250 INFO  (pool-2-thread-1) [instancei-04346e3618b7ad8ef(writeToLogger:232)] I have been disassociated from job #7
2017-11-02 20:38:16,545 INFO  (pool-2-thread-1) [instancei-04346e3618b7ad8ef(writeToLogger:232)] I have been disassociated from job #7
2017-11-02 20:38:16,849 INFO  (pool-2-thread-1) [instancei-04346e3618b7ad8ef(writeToLogger:232)] I have been disassociated from job #7
2017-11-02 20:38:17,158 INFO  (pool-2-thread-1) [instancei-04346e3618b7ad8ef(writeToLogger:232)] I have been disassociated from job #7
2017-11-02 20:38:17,466 INFO  (pool-2-thread-1) [instancei-04346e3618b7ad8ef(writeToLogger:232)] I have been disassociated from job #7
2017-11-02 20:38:17,776 INFO  (pool-2-thread-1) [instancei-04346e3618b7ad8ef(writeToLogger:232)] I have been disassociated from job #7
2017-11-02 20:38:18,068 INFO  (pool-2-thread-1) [instancei-04346e3618b7ad8ef(writeToLogger:232)] I have been disassociated from job #7
2017-11-02 20:38:18,368 INFO  (pool-2-thread-1) [instancei-04346e3618b7ad8ef(writeToLogger:232)] I have been disassociated from job #7
2017-11-02 20:38:18,662 INFO  (pool-2-thread-1) [instancei-04346e3618b7ad8ef(writeToLogger:232)] I have been disassociated from job #7
2017-11-02 20:38:18,960 INFO  (pool-2-thread-1) [instancei-04346e3618b7ad8ef(writeToLogger:232)] I have been disassociated from job #7
2017-11-02 20:38:19,255 INFO  (pool-2-thread-1) [instancei-04346e3618b7ad8ef(writeToLogger:232)] I have been disassociated from job #7
2017-11-02 20:38:19,546 INFO  (pool-2-thread-1) [instancei-04346e3618b7ad8ef(writeToLogger:232)] I have been disassociated from job #7
2017-11-02 20:38:19,865 INFO  (pool-2-thread-1) [instancei-04346e3618b7ad8ef(writeToLogger:232)] I have been disassociated from job #7
2017-11-02 20:38:20,226 INFO  (pool-2-thread-1) [instancei-04346e3618b7ad8ef(writeToLogger:232)] I have been disassociated from job #7
2017-11-02 20:38:20,511 INFO  (pool-2-thread-1) [instancei-04346e3618b7ad8ef(writeToLogger:232)] I have been disassociated from job #7
2017-11-02 20:38:20,804 INFO  (pool-2-thread-1) [instancei-04346e3618b7ad8ef(writeToLogger:232)] I have been disassociated from job #7
2017-11-02 20:38:21,585 INFO  (pool-2-thread-1) [instancei-04346e3618b7ad8ef(writeToLogger:232)] I have been disassociated from job #7
2017-11-02 20:38:21,899 INFO  (pool-2-thread-1) [instancei-04346e3618b7ad8ef(writeToLogger:232)] I have been disassociated from job #7
2017-11-02 20:38:22,195 INFO  (pool-2-thread-1) [instancei-04346e3618b7ad8ef(writeToLogger:232)] I have been disassociated from job #7
2017-11-02 20:38:22,487 INFO  (pool-2-thread-1) [instancei-04346e3618b7ad8ef(writeToLogger:232)] I have been disassociated from job #7
2017-11-02 20:38:22,778 INFO  (pool-2-thread-1) [instancei-04346e3618b7ad8ef(writeToLogger:232)] I have been disassociated from job #7
2017-11-02 20:38:23,076 INFO  (pool-2-thread-1) [instancei-04346e3618b7ad8ef(writeToLogger:232)] I have been disassociated from job #7
2017-11-02 20:38:23,372 INFO  (pool-2-thread-1) [instancei-04346e3618b7ad8ef(writeToLogger:232)] I have been disassociated from job #7
2017-11-02 20:38:23,670 INFO  (pool-2-thread-1) [instancei-04346e3618b7ad8ef(writeToLogger:232)] I have been disassociated from job #7
2017-11-02 20:38:23,959 INFO  (pool-2-thread-1) [instancei-04346e3618b7ad8ef(writeToLogger:232)] I have been disassociated from job #7
2017-11-02 20:38:24,260 INFO  (pool-2-thread-1) [instancei-04346e3618b7ad8ef(writeToLogger:232)] I have been disassociated from job #7
2017-11-02 20:38:24,559 INFO  (pool-2-thread-1) [instancei-04346e3618b7ad8ef(writeToLogger:232)] I have been disassociated from job #7
2017-11-02 20:38:24,851 INFO  (pool-2-thread-1) [instancei-04346e3618b7ad8ef(writeToLogger:232)] I have been disassociated from job #7
2017-11-02 20:38:25,144 INFO  (pool-2-thread-1) [instancei-04346e3618b7ad8ef(writeToLogger:232)] I have been disassociated from job #7
2017-11-02 20:38:25,437 INFO  (pool-2-thread-1) [instancei-04346e3618b7ad8ef(writeToLogger:232)] I have been disassociated from job #7
2017-11-02 20:38:25,733 INFO  (pool-2-thread-1) [instancei-04346e3618b7ad8ef(writeToLogger:232)] I have been disassociated from job #7
2017-11-02 20:38:26,024 INFO  (pool-2-thread-1) [instancei-04346e3618b7ad8ef(writeToLogger:232)] I have been disassociated from job #7
2017-11-02 20:38:26,450 INFO  (pool-2-thread-1) [instancei-04346e3618b7ad8ef(writeToLogger:232)] I have been disassociated from job #7
2017-11-02 20:38:26,754 INFO  (pool-2-thread-1) [instancei-04346e3618b7ad8ef(writeToLogger:232)] I have been disassociated from job #7
2017-11-02 20:38:27,050 INFO  (pool-2-thread-1) [instancei-04346e3618b7ad8ef(writeToLogger:232)] I have been disassociated from job #7
2017-11-02 20:38:27,342 INFO  (pool-2-thread-1) [instancei-04346e3618b7ad8ef(writeToLogger:232)] I have been disassociated from job #7
2017-11-02 20:38:28,122 INFO  (pool-2-thread-1) [instancei-04346e3618b7ad8ef(writeToLogger:232)] I have been disassociated from job #7
2017-11-02 20:38:28,523 INFO  (pool-2-thread-1) [instancei-04346e3618b7ad8ef(writeToLogger:232)] I have been disassociated from job #7
2017-11-02 20:38:28,962 INFO  (pool-2-thread-1) [instancei-04346e3618b7ad8ef(writeToLogger:232)] I have been disassociated from job #7
2017-11-02 20:38:29,243 INFO  (pool-2-thread-1) [instancei-04346e3618b7ad8ef(writeToLogger:232)] I have been disassociated from job #7
2017-11-02 20:38:29,530 INFO  (pool-2-thread-1) [instancei-04346e3618b7ad8ef(writeToLogger:232)] I have been disassociated from job #8
2017-11-02 20:38:29,812 INFO  (pool-2-thread-1) [instancei-04346e3618b7ad8ef(writeToLogger:232)] I have been disassociated from job #8
2017-11-02 20:38:30,104 INFO  (pool-2-thread-1) [instancei-04346e3618b7ad8ef(writeToLogger:232)] I have been disassociated from job #8
2017-11-02 20:38:30,414 INFO  (pool-2-thread-1) [instancei-04346e3618b7ad8ef(writeToLogger:232)] I have been disassociated from job #8
2017-11-02 20:38:30,719 INFO  (pool-2-thread-1) [instancei-04346e3618b7ad8ef(writeToLogger:232)] I have been disassociated from job #8
2017-11-02 20:38:31,148 INFO  (pool-2-thread-1) [instancei-04346e3618b7ad8ef(writeToLogger:232)] I have been disassociated from job #8
2017-11-02 20:38:31,450 INFO  (pool-2-thread-1) [instancei-04346e3618b7ad8ef(writeToLogger:232)] I have been disassociated from job #8
2017-11-02 20:38:31,731 INFO  (pool-2-thread-1) [instancei-04346e3618b7ad8ef(writeToLogger:232)] I have been disassociated from job #8
2017-11-02 20:38:32,027 INFO  (pool-2-thread-1) [instancei-04346e3618b7ad8ef(writeToLogger:232)] I have been disassociated from job #8
2017-11-02 20:38:32,327 INFO  (pool-2-thread-1) [instancei-04346e3618b7ad8ef(writeToLogger:232)] I have been disassociated from job #8
2017-11-02 20:38:32,605 INFO  (pool-2-thread-1) [instancei-04346e3618b7ad8ef(writeToLogger:232)] I have been disassociated from job #8
2017-11-02 20:38:32,881 INFO  (pool-2-thread-1) [instancei-04346e3618b7ad8ef(writeToLogger:232)] I have been disassociated from job #8
2017-11-02 20:38:33,437 INFO  (pool-2-thread-1) [instancei-04346e3618b7ad8ef(writeToLogger:232)] I have been disassociated from job #8
2017-11-02 20:38:33,732 INFO  (pool-2-thread-1) [instancei-04346e3618b7ad8ef(writeToLogger:232)] I have been disassociated from job #8
2017-11-02 20:38:34,019 INFO  (pool-2-thread-1) [instancei-04346e3618b7ad8ef(writeToLogger:232)] I have been disassociated from job #8
2017-11-02 20:38:34,302 INFO  (pool-2-thread-1) [instancei-04346e3618b7ad8ef(writeToLogger:232)] I have been disassociated from job #8
2017-11-02 20:38:34,920 INFO  (pool-2-thread-1) [instancei-04346e3618b7ad8ef(writeToLogger:232)] I have been disassociated from job #8
2017-11-02 20:38:35,209 INFO  (pool-2-thread-1) [instancei-04346e3618b7ad8ef(writeToLogger:232)] I have been disassociated from job #8
2017-11-02 20:38:35,533 INFO  (pool-2-thread-1) [instancei-04346e3618b7ad8ef(writeToLogger:232)] I have been disassociated from job #8
2017-11-02 20:38:36,105 INFO  (pool-2-thread-1) [instancei-04346e3618b7ad8ef(writeToLogger:232)] I have been disassociated from job #8
2017-11-02 20:38:36,398 INFO  (pool-2-thread-1) [instancei-04346e3618b7ad8ef(writeToLogger:232)] I have been disassociated from job #12
2017-11-02 20:38:36,775 INFO  (pool-2-thread-1) [instancei-04346e3618b7ad8ef(writeToLogger:232)] I have been disassociated from job #12
2017-11-02 20:38:37,059 INFO  (pool-2-thread-1) [instancei-04346e3618b7ad8ef(writeToLogger:232)] I have been disassociated from job #12
2017-11-02 20:38:37,468 INFO  (pool-2-thread-1) [instancei-04346e3618b7ad8ef(writeToLogger:232)] I have been disassociated from job #12
2017-11-02 20:38:37,755 INFO  (pool-2-thread-1) [instancei-04346e3618b7ad8ef(writeToLogger:232)] I have been disassociated from job #12
2017-11-02 20:38:38,038 INFO  (pool-2-thread-1) [instancei-04346e3618b7ad8ef(writeToLogger:232)] I have been disassociated from job #12
2017-11-02 20:38:38,325 INFO  (pool-2-thread-1) [instancei-04346e3618b7ad8ef(writeToLogger:232)] I have been disassociated from job #12
2017-11-02 20:38:38,613 INFO  (pool-2-thread-1) [instancei-04346e3618b7ad8ef(writeToLogger:232)] I have been disassociated from job #12
2017-11-02 20:38:38,894 INFO  (pool-2-thread-1) [instancei-04346e3618b7ad8ef(writeToLogger:232)] I have been disassociated from job #12
2017-11-02 20:38:39,172 INFO  (pool-2-thread-1) [instancei-04346e3618b7ad8ef(writeToLogger:232)] I have been disassociated from job #12
2017-11-02 20:38:39,457 INFO  (pool-2-thread-1) [instancei-04346e3618b7ad8ef(writeToLogger:232)] I have been disassociated from job #12
2017-11-02 20:38:39,764 INFO  (pool-2-thread-1) [instancei-04346e3618b7ad8ef(writeToLogger:232)] I have been disassociated from job #12
2017-11-02 20:38:40,050 INFO  (pool-2-thread-1) [instancei-04346e3618b7ad8ef(writeToLogger:232)] I have been disassociated from job #12
2017-11-02 20:38:40,338 INFO  (pool-2-thread-1) [instancei-04346e3618b7ad8ef(writeToLogger:232)] I have been disassociated from job #12
2017-11-02 20:38:40,619 INFO  (pool-2-thread-1) [instancei-04346e3618b7ad8ef(writeToLogger:232)] I have been disassociated from job #12
2017-11-02 20:38:40,902 INFO  (pool-2-thread-1) [instancei-04346e3618b7ad8ef(writeToLogger:232)] I have been disassociated from job #12
2017-11-02 20:38:41,198 INFO  (pool-2-thread-1) [instancei-04346e3618b7ad8ef(writeToLogger:232)] I have been disassociated from job #12
2017-11-02 20:38:41,569 INFO  (pool-2-thread-1) [instancei-04346e3618b7ad8ef(writeToLogger:232)] I have been disassociated from job #12
2017-11-02 20:38:41,880 INFO  (pool-2-thread-1) [instancei-04346e3618b7ad8ef(writeToLogger:232)] I have been disassociated from job #12
2017-11-02 20:38:42,176 INFO  (pool-2-thread-1) [instancei-04346e3618b7ad8ef(writeToLogger:232)] I have been disassociated from job #12
2017-11-02 20:38:42,473 INFO  (pool-2-thread-1) [instancei-04346e3618b7ad8ef(writeToLogger:232)] I have been disassociated from job #12
2017-11-02 20:38:42,751 INFO  (pool-2-thread-1) [instancei-04346e3618b7ad8ef(writeToLogger:232)] I have been disassociated from job #12
2017-11-02 20:38:43,064 INFO  (pool-2-thread-1) [instancei-04346e3618b7ad8ef(writeToLogger:232)] I have been disassociated from job #12
2017-11-02 20:38:43,349 INFO  (pool-2-thread-1) [instancei-04346e3618b7ad8ef(writeToLogger:232)] I have been disassociated from job #12
2017-11-02 20:38:43,656 INFO  (pool-2-thread-1) [instancei-04346e3618b7ad8ef(writeToLogger:232)] I have been disassociated from job #12
2017-11-02 20:38:43,950 INFO  (pool-2-thread-1) [instancei-04346e3618b7ad8ef(writeToLogger:232)] I have been disassociated from job #12
2017-11-02 20:38:44,746 INFO  (pool-2-thread-1) [instancei-04346e3618b7ad8ef(writeToLogger:232)] I have been disassociated from job #12
2017-11-02 20:38:45,033 INFO  (pool-2-thread-1) [instancei-04346e3618b7ad8ef(writeToLogger:232)] I have been disassociated from job #12
2017-11-02 20:38:45,324 INFO  (pool-2-thread-1) [instancei-04346e3618b7ad8ef(writeToLogger:232)] I have been disassociated from job #12
2017-11-02 20:38:45,621 INFO  (pool-2-thread-1) [instancei-04346e3618b7ad8ef(writeToLogger:232)] I have been disassociated from job #12
2017-11-02 20:38:45,920 INFO  (pool-2-thread-1) [instancei-04346e3618b7ad8ef(writeToLogger:232)] I have been disassociated from job #12
2017-11-02 20:38:46,258 INFO  (pool-2-thread-1) [instancei-04346e3618b7ad8ef(writeToLogger:232)] I have been disassociated from job #12
2017-11-02 20:38:46,549 INFO  (pool-2-thread-1) [instancei-04346e3618b7ad8ef(writeToLogger:232)] I have been disassociated from job #12
2017-11-02 20:38:46,839 INFO  (pool-2-thread-1) [instancei-04346e3618b7ad8ef(writeToLogger:232)] I have been disassociated from job #12
2017-11-02 20:38:47,132 INFO  (pool-2-thread-1) [instancei-04346e3618b7ad8ef(writeToLogger:232)] I have been disassociated from job #12
2017-11-02 20:38:47,412 INFO  (pool-2-thread-1) [instancei-04346e3618b7ad8ef(writeToLogger:232)] I have been disassociated from job #12
2017-11-02 20:38:47,699 INFO  (pool-2-thread-1) [instancei-04346e3618b7ad8ef(writeToLogger:232)] I have been disassociated from job #12
2017-11-02 20:38:47,991 INFO  (pool-2-thread-1) [instancei-04346e3618b7ad8ef(writeToLogger:232)] I have been disassociated from job #12
2017-11-02 20:38:48,277 INFO  (pool-2-thread-1) [instancei-04346e3618b7ad8ef(writeToLogger:232)] I have been disassociated from job #12
2017-11-02 20:38:48,568 INFO  (pool-2-thread-1) [instancei-04346e3618b7ad8ef(writeToLogger:232)] I have been disassociated from job #12
2017-11-02 20:38:48,863 INFO  (pool-2-thread-1) [instancei-04346e3618b7ad8ef(writeToLogger:232)] I have been disassociated from job #12
2017-11-02 20:38:49,153 INFO  (pool-2-thread-1) [instancei-04346e3618b7ad8ef(writeToLogger:232)] I have been disassociated from job #12
2017-11-02 20:38:49,586 INFO  (pool-2-thread-1) [instancei-04346e3618b7ad8ef(writeToLogger:232)] I have been disassociated from job #12
2017-11-02 20:38:49,880 INFO  (pool-2-thread-1) [instancei-04346e3618b7ad8ef(writeToLogger:232)] I have been disassociated from job #12
2017-11-02 20:38:50,173 INFO  (pool-2-thread-1) [instancei-04346e3618b7ad8ef(writeToLogger:232)] I have been disassociated from job #12
2017-11-02 20:38:50,471 INFO  (pool-2-thread-1) [instancei-04346e3618b7ad8ef(writeToLogger:232)] I have been disassociated from job #12
2017-11-02 20:38:50,752 INFO  (pool-2-thread-1) [instancei-04346e3618b7ad8ef(writeToLogger:232)] I have been disassociated from job #12
2017-11-02 20:38:51,055 INFO  (pool-2-thread-1) [instancei-04346e3618b7ad8ef(writeToLogger:232)] I have been disassociated from job #12
2017-11-02 20:38:51,362 INFO  (pool-2-thread-1) [instancei-04346e3618b7ad8ef(writeToLogger:232)] I have been disassociated from job #12
2017-11-02 20:38:51,666 INFO  (pool-2-thread-1) [instancei-04346e3618b7ad8ef(writeToLogger:232)] I have been disassociated from job #12
2017-11-02 20:38:51,955 INFO  (pool-2-thread-1) [instancei-04346e3618b7ad8ef(writeToLogger:232)] I have been disassociated from job #12
2017-11-02 20:38:52,255 INFO  (pool-2-thread-1) [instancei-04346e3618b7ad8ef(writeToLogger:232)] I have been disassociated from job #12
2017-11-02 20:38:52,552 INFO  (pool-2-thread-1) [instancei-04346e3618b7ad8ef(writeToLogger:232)] I have been disassociated from job #12
2017-11-02 20:38:52,844 INFO  (pool-2-thread-1) [instancei-04346e3618b7ad8ef(writeToLogger:232)] I have been disassociated from job #12
2017-11-02 20:38:53,132 INFO  (pool-2-thread-1) [instancei-04346e3618b7ad8ef(writeToLogger:232)] I have been disassociated from job #12
2017-11-02 20:38:53,414 INFO  (pool-2-thread-1) [instancei-04346e3618b7ad8ef(writeToLogger:232)] I have been disassociated from job #12
2017-11-02 20:38:53,933 INFO  (pool-2-thread-1) [instancei-04346e3618b7ad8ef(writeToLogger:232)] I have been disassociated from job #12
2017-11-02 20:38:54,218 INFO  (pool-2-thread-1) [instancei-04346e3618b7ad8ef(writeToLogger:232)] I have been disassociated from job #12
2017-11-02 20:38:54,502 INFO  (pool-2-thread-1) [instancei-04346e3618b7ad8ef(writeToLogger:232)] I have been disassociated from job #12
2017-11-02 20:38:55,338 INFO  (pool-2-thread-1) [instancei-04346e3618b7ad8ef(writeToLogger:232)] I have been disassociated from job #12
2017-11-02 20:38:55,641 INFO  (pool-2-thread-1) [instancei-04346e3618b7ad8ef(writeToLogger:232)] I have been disassociated from job #12
2017-11-02 20:38:55,955 INFO  (pool-2-thread-1) [instancei-04346e3618b7ad8ef(writeToLogger:232)] I have been disassociated from job #12
2017-11-02 20:38:56,273 INFO  (pool-2-thread-1) [instancei-04346e3618b7ad8ef(writeToLogger:232)] I have been disassociated from job #12
2017-11-02 20:38:56,755 INFO  (pool-2-thread-1) [instancei-04346e3618b7ad8ef(writeToLogger:232)] I have been disassociated from job #12
2017-11-02 20:38:57,257 INFO  (pool-2-thread-1) [instancei-04346e3618b7ad8ef(writeToLogger:232)] I have been disassociated from job #12
2017-11-02 20:38:57,568 INFO  (pool-2-thread-1) [instancei-04346e3618b7ad8ef(writeToLogger:232)] I have been disassociated from job #12
2017-11-02 20:38:57,890 INFO  (pool-2-thread-1) [instancei-04346e3618b7ad8ef(writeToLogger:232)] I have been disassociated from job #12
2017-11-02 20:38:58,187 INFO  (pool-2-thread-1) [instancei-04346e3618b7ad8ef(writeToLogger:232)] I have been disassociated from job #12
2017-11-02 20:38:58,492 INFO  (pool-2-thread-1) [instancei-04346e3618b7ad8ef(writeToLogger:232)] I have been disassociated from job #12
2017-11-02 20:38:58,854 INFO  (pool-2-thread-1) [instancei-04346e3618b7ad8ef(writeToLogger:232)] I have been disassociated from job #12
2017-11-02 20:38:59,231 INFO  (pool-2-thread-1) [instancei-04346e3618b7ad8ef(writeToLogger:232)] I have been disassociated from job #12
2017-11-02 20:38:59,532 INFO  (pool-2-thread-1) [instancei-04346e3618b7ad8ef(writeToLogger:232)] I have been disassociated from job #12
2017-11-02 20:38:59,828 INFO  (pool-2-thread-1) [instancei-04346e3618b7ad8ef(writeToLogger:232)] I have been disassociated from job #12
2017-11-02 20:39:00,179 INFO  (pool-2-thread-1) [instancei-04346e3618b7ad8ef(writeToLogger:232)] I have been disassociated from job #12
2017-11-02 20:39:00,471 INFO  (pool-2-thread-1) [instancei-04346e3618b7ad8ef(writeToLogger:232)] I have been disassociated from job #12
2017-11-02 20:39:00,777 INFO  (pool-2-thread-1) [instancei-04346e3618b7ad8ef(writeToLogger:232)] I have been disassociated from job #12
2017-11-02 20:39:01,674 INFO  (pool-2-thread-1) [instancei-04346e3618b7ad8ef(writeToLogger:232)] I have been disassociated from job #12
2017-11-02 20:39:01,986 INFO  (pool-2-thread-1) [instancei-04346e3618b7ad8ef(writeToLogger:232)] I have been disassociated from job #12
2017-11-02 20:39:02,289 INFO  (pool-2-thread-1) [instancei-04346e3618b7ad8ef(writeToLogger:232)] I have been disassociated from job #12
2017-11-02 20:39:02,582 INFO  (pool-2-thread-1) [instancei-04346e3618b7ad8ef(writeToLogger:232)] I have been disassociated from job #12
2017-11-02 20:39:02,899 INFO  (pool-2-thread-1) [instancei-04346e3618b7ad8ef(writeToLogger:232)] I have been disassociated from job #12
2017-11-02 20:39:03,214 INFO  (pool-2-thread-1) [instancei-04346e3618b7ad8ef(writeToLogger:232)] I have been disassociated from job #12
2017-11-02 20:39:03,505 INFO  (pool-2-thread-1) [instancei-04346e3618b7ad8ef(writeToLogger:232)] I have been disassociated from job #12
2017-11-02 20:39:03,812 INFO  (pool-2-thread-1) [instancei-04346e3618b7ad8ef(writeToLogger:232)] I have been disassociated from job #12
2017-11-02 20:39:04,098 INFO  (pool-2-thread-1) [instancei-04346e3618b7ad8ef(writeToLogger:232)] I have been disassociated from job #12
2017-11-02 20:39:04,391 INFO  (pool-2-thread-1) [instancei-04346e3618b7ad8ef(writeToLogger:232)] I have been disassociated from job #12
2017-11-02 20:39:04,720 INFO  (pool-2-thread-1) [instancei-04346e3618b7ad8ef(writeToLogger:232)] I have been disassociated from job #12
2017-11-02 20:39:05,002 INFO  (pool-2-thread-1) [instancei-04346e3618b7ad8ef(writeToLogger:232)] I have been disassociated from job #12
2017-11-02 20:39:05,298 INFO  (pool-2-thread-1) [instancei-04346e3618b7ad8ef(writeToLogger:232)] I have been disassociated from job #12
2017-11-02 20:39:05,583 INFO  (pool-2-thread-1) [instancei-04346e3618b7ad8ef(writeToLogger:232)] I have been disassociated from job #12
2017-11-02 20:39:05,873 INFO  (pool-2-thread-1) [instancei-04346e3618b7ad8ef(writeToLogger:232)] I have been disassociated from job #12
2017-11-02 20:39:06,166 INFO  (pool-2-thread-1) [instancei-04346e3618b7ad8ef(writeToLogger:232)] I have been disassociated from job #12
2017-11-02 20:39:06,454 INFO  (pool-2-thread-1) [instancei-04346e3618b7ad8ef(writeToLogger:232)] I have been disassociated from job #12
2017-11-02 20:39:06,772 INFO  (pool-2-thread-1) [instancei-04346e3618b7ad8ef(writeToLogger:232)] I have been disassociated from job #12
2017-11-02 20:39:07,068 INFO  (pool-2-thread-1) [instancei-04346e3618b7ad8ef(writeToLogger:232)] I have been disassociated from job #12
2017-11-02 20:39:07,361 INFO  (pool-2-thread-1) [instancei-04346e3618b7ad8ef(writeToLogger:232)] I have been disassociated from job #12
2017-11-02 20:39:07,660 INFO  (pool-2-thread-1) [instancei-04346e3618b7ad8ef(writeToLogger:232)] I have been disassociated from job #12
2017-11-02 20:39:07,968 INFO  (pool-2-thread-1) [instancei-04346e3618b7ad8ef(writeToLogger:232)] I have been disassociated from job #12
2017-11-02 20:39:08,279 INFO  (pool-2-thread-1) [instancei-04346e3618b7ad8ef(writeToLogger:232)] I have been disassociated from job #12
2017-11-02 20:39:08,567 INFO  (pool-2-thread-1) [instancei-04346e3618b7ad8ef(writeToLogger:232)] I have been disassociated from job #12
2017-11-02 20:39:08,858 INFO  (pool-2-thread-1) [instancei-04346e3618b7ad8ef(writeToLogger:232)] I have been disassociated from job #12
2017-11-02 20:39:09,154 INFO  (pool-2-thread-1) [instancei-04346e3618b7ad8ef(writeToLogger:232)] I have been disassociated from job #12
2017-11-02 20:39:09,435 INFO  (pool-2-thread-1) [instancei-04346e3618b7ad8ef(writeToLogger:232)] I have been disassociated from job #12
2017-11-02 20:39:09,716 INFO  (pool-2-thread-1) [instancei-04346e3618b7ad8ef(writeToLogger:232)] I have been disassociated from job #12
2017-11-02 20:39:10,052 INFO  (pool-2-thread-1) [instancei-04346e3618b7ad8ef(writeToLogger:232)] I have been disassociated from job #12
2017-11-02 20:39:10,451 INFO  (pool-2-thread-1) [instancei-04346e3618b7ad8ef(writeToLogger:232)] I have been disassociated from job #12
2017-11-02 20:39:10,764 INFO  (pool-2-thread-1) [instancei-04346e3618b7ad8ef(writeToLogger:232)] I have been disassociated from job #12
2017-11-02 20:39:11,051 INFO  (pool-2-thread-1) [instancei-04346e3618b7ad8ef(writeToLogger:232)] I have been disassociated from job #12
2017-11-02 20:39:11,338 INFO  (pool-2-thread-1) [instancei-04346e3618b7ad8ef(writeToLogger:232)] I have been disassociated from job #12
2017-11-02 20:39:11,696 INFO  (pool-2-thread-1) [instancei-04346e3618b7ad8ef(writeToLogger:232)] I have been disassociated from job #12
2017-11-02 20:39:11,985 INFO  (pool-2-thread-1) [instancei-04346e3618b7ad8ef(writeToLogger:232)] I have been disassociated from job #12
2017-11-02 20:39:12,264 INFO  (pool-2-thread-1) [instancei-04346e3618b7ad8ef(writeToLogger:232)] I have been disassociated from job #12
2017-11-02 20:39:12,562 INFO  (pool-2-thread-1) [instancei-04346e3618b7ad8ef(writeToLogger:232)] I have been disassociated from job #12
2017-11-02 20:39:12,846 INFO  (pool-2-thread-1) [instancei-04346e3618b7ad8ef(writeToLogger:232)] I have been disassociated from job #12
2017-11-02 20:39:13,133 INFO  (pool-2-thread-1) [instancei-04346e3618b7ad8ef(writeToLogger:232)] I have been disassociated from job #12
2017-11-02 20:39:13,415 INFO  (pool-2-thread-1) [instancei-04346e3618b7ad8ef(writeToLogger:232)] I have been disassociated from job #12
2017-11-02 20:39:13,703 INFO  (pool-2-thread-1) [instancei-04346e3618b7ad8ef(writeToLogger:232)] I have been disassociated from job #12
2017-11-02 20:39:14,004 INFO  (pool-2-thread-1) [instancei-04346e3618b7ad8ef(writeToLogger:232)] I have been disassociated from job #12
2017-11-02 20:39:14,307 INFO  (pool-2-thread-1) [instancei-04346e3618b7ad8ef(writeToLogger:232)] I have been disassociated from job #12
2017-11-02 20:39:14,600 INFO  (pool-2-thread-1) [instancei-04346e3618b7ad8ef(writeToLogger:232)] I have been disassociated from job #12
2017-11-02 20:39:14,901 INFO  (pool-2-thread-1) [instancei-04346e3618b7ad8ef(writeToLogger:232)] I have been disassociated from job #12
2017-11-02 20:39:15,202 INFO  (pool-2-thread-1) [instancei-04346e3618b7ad8ef(writeToLogger:232)] I have been disassociated from job #12
2017-11-02 20:39:15,500 INFO  (pool-2-thread-1) [instancei-04346e3618b7ad8ef(writeToLogger:232)] I have been disassociated from job #12
2017-11-02 20:39:15,799 INFO  (pool-2-thread-1) [instancei-04346e3618b7ad8ef(writeToLogger:232)] I have been disassociated from job #12
2017-11-02 20:39:16,083 INFO  (pool-2-thread-1) [instancei-04346e3618b7ad8ef(writeToLogger:232)] I have been disassociated from job #12
2017-11-02 20:39:16,378 INFO  (pool-2-thread-1) [instancei-04346e3618b7ad8ef(writeToLogger:232)] I have been disassociated from job #12
2017-11-02 20:39:17,216 INFO  (pool-2-thread-1) [instancei-04346e3618b7ad8ef(writeToLogger:232)] I have been disassociated from job #12
2017-11-02 20:39:17,511 INFO  (pool-2-thread-1) [instancei-04346e3618b7ad8ef(writeToLogger:232)] I have been disassociated from job #12
2017-11-02 20:39:17,805 INFO  (pool-2-thread-1) [instancei-04346e3618b7ad8ef(writeToLogger:232)] I have been disassociated from job #12
2017-11-02 20:39:18,098 INFO  (pool-2-thread-1) [instancei-04346e3618b7ad8ef(writeToLogger:232)] I have been disassociated from job #12
2017-11-02 20:39:18,397 INFO  (pool-2-thread-1) [instancei-04346e3618b7ad8ef(writeToLogger:232)] I have been disassociated from job #12
2017-11-02 20:39:18,675 INFO  (pool-2-thread-1) [instancei-04346e3618b7ad8ef(writeToLogger:232)] I have been disassociated from job #12
2017-11-02 20:39:18,958 INFO  (pool-2-thread-1) [instancei-04346e3618b7ad8ef(writeToLogger:232)] I have been disassociated from job #12
2017-11-02 20:39:19,268 INFO  (pool-2-thread-1) [instancei-04346e3618b7ad8ef(writeToLogger:232)] I have been disassociated from job #12
2017-11-02 20:39:19,561 INFO  (pool-2-thread-1) [instancei-04346e3618b7ad8ef(writeToLogger:232)] I have been disassociated from job #12
2017-11-02 20:39:19,881 INFO  (pool-2-thread-1) [instancei-04346e3618b7ad8ef(writeToLogger:232)] I have been disassociated from job #12
2017-11-02 20:39:20,176 INFO  (pool-2-thread-1) [instancei-04346e3618b7ad8ef(writeToLogger:232)] I have been disassociated from job #12
2017-11-02 20:39:20,565 INFO  (pool-2-thread-1) [instancei-04346e3618b7ad8ef(writeToLogger:232)] I have been disassociated from job #12
2017-11-02 20:39:20,965 INFO  (pool-2-thread-1) [instancei-04346e3618b7ad8ef(writeToLogger:232)] I have been disassociated from job #12
2017-11-02 20:39:21,252 INFO  (pool-2-thread-1) [instancei-04346e3618b7ad8ef(writeToLogger:232)] I have been disassociated from job #12
2017-11-02 20:39:21,548 INFO  (pool-2-thread-1) [instancei-04346e3618b7ad8ef(writeToLogger:232)] I have been disassociated from job #12
2017-11-02 20:39:21,866 INFO  (pool-2-thread-1) [instancei-04346e3618b7ad8ef(writeToLogger:232)] I have been disassociated from job #12
2017-11-02 20:39:22,159 INFO  (pool-2-thread-1) [instancei-04346e3618b7ad8ef(writeToLogger:232)] I have been disassociated from job #12
2017-11-02 20:39:22,480 INFO  (pool-2-thread-1) [instancei-04346e3618b7ad8ef(writeToLogger:232)] I have been disassociated from job #12
2017-11-02 20:39:22,777 INFO  (pool-2-thread-1) [instancei-04346e3618b7ad8ef(writeToLogger:232)] I have been disassociated from job #12
2017-11-02 20:39:23,068 INFO  (pool-2-thread-1) [instancei-04346e3618b7ad8ef(writeToLogger:232)] I have been disassociated from job #12
2017-11-02 20:39:23,367 INFO  (pool-2-thread-1) [instancei-04346e3618b7ad8ef(writeToLogger:232)] I have been disassociated from job #12
2017-11-02 20:39:23,659 INFO  (pool-2-thread-1) [instancei-04346e3618b7ad8ef(writeToLogger:232)] I have been disassociated from job #12
2017-11-02 20:39:24,030 INFO  (pool-2-thread-1) [instancei-04346e3618b7ad8ef(writeToLogger:232)] I have been disassociated from job #12
2017-11-02 20:39:24,329 INFO  (pool-2-thread-1) [instancei-04346e3618b7ad8ef(writeToLogger:232)] I have been disassociated from job #12
2017-11-02 20:39:24,654 INFO  (pool-2-thread-1) [instancei-04346e3618b7ad8ef(writeToLogger:232)] I have been disassociated from job #12
2017-11-02 20:39:24,976 INFO  (pool-2-thread-1) [instancei-04346e3618b7ad8ef(writeToLogger:232)] I have been disassociated from job #12
2017-11-02 20:39:25,320 INFO  (pool-2-thread-1) [instancei-04346e3618b7ad8ef(writeToLogger:232)] I have been disassociated from job #12
2017-11-02 20:39:25,654 INFO  (pool-2-thread-1) [instancei-04346e3618b7ad8ef(writeToLogger:232)] I have been disassociated from job #12
2017-11-02 20:39:26,022 INFO  (pool-2-thread-1) [instancei-04346e3618b7ad8ef(writeToLogger:232)] I have been disassociated from job #12
2017-11-02 20:39:26,408 INFO  (pool-2-thread-1) [instancei-04346e3618b7ad8ef(writeToLogger:232)] I have been disassociated from job #12
2017-11-02 20:39:26,750 INFO  (pool-2-thread-1) [instancei-04346e3618b7ad8ef(writeToLogger:232)] I have been disassociated from job #12
2017-11-02 20:39:27,040 INFO  (pool-2-thread-1) [instancei-04346e3618b7ad8ef(writeToLogger:232)] I have been disassociated from job #12
2017-11-02 20:39:27,325 INFO  (pool-2-thread-1) [instancei-04346e3618b7ad8ef(writeToLogger:232)] I have been disassociated from job #12
2017-11-02 20:39:27,660 INFO  (pool-2-thread-1) [instancei-04346e3618b7ad8ef(writeToLogger:232)] I have been disassociated from job #12
2017-11-02 20:39:27,954 INFO  (pool-2-thread-1) [instancei-04346e3618b7ad8ef(writeToLogger:232)] I have been disassociated from job #12
2017-11-02 20:39:28,270 INFO  (pool-2-thread-1) [instancei-04346e3618b7ad8ef(writeToLogger:232)] I have been disassociated from job #12
2017-11-02 20:39:28,562 INFO  (pool-2-thread-1) [instancei-04346e3618b7ad8ef(writeToLogger:232)] I have been disassociated from job #12
2017-11-02 20:39:28,841 INFO  (pool-2-thread-1) [instancei-04346e3618b7ad8ef(writeToLogger:232)] I have been disassociated from job #12
2017-11-02 20:39:29,129 INFO  (pool-2-thread-1) [instancei-04346e3618b7ad8ef(writeToLogger:232)] I have been disassociated from job #12
2017-11-02 20:39:29,424 INFO  (pool-2-thread-1) [instancei-04346e3618b7ad8ef(writeToLogger:232)] I have been disassociated from job #12
2017-11-02 20:39:29,740 INFO  (pool-2-thread-1) [instancei-04346e3618b7ad8ef(writeToLogger:232)] I have been disassociated from job #12
2017-11-02 20:39:30,025 INFO  (pool-2-thread-1) [instancei-04346e3618b7ad8ef(writeToLogger:232)] I have been disassociated from job #12
2017-11-02 20:39:30,327 INFO  (pool-2-thread-1) [instancei-04346e3618b7ad8ef(writeToLogger:232)] I have been disassociated from job #12
2017-11-02 20:39:30,613 INFO  (pool-2-thread-1) [instancei-04346e3618b7ad8ef(writeToLogger:232)] I have been disassociated from job #12
2017-11-02 20:39:30,953 INFO  (pool-2-thread-1) [instancei-04346e3618b7ad8ef(writeToLogger:232)] I have been disassociated from job #12
2017-11-02 20:39:31,231 INFO  (pool-2-thread-1) [instancei-04346e3618b7ad8ef(writeToLogger:232)] I have been disassociated from job #12
2017-11-02 20:39:31,527 INFO  (pool-2-thread-1) [instancei-04346e3618b7ad8ef(writeToLogger:232)] I have been disassociated from job #12
2017-11-02 20:39:31,820 INFO  (pool-2-thread-1) [instancei-04346e3618b7ad8ef(writeToLogger:232)] I have been disassociated from job #12
2017-11-02 20:39:32,106 INFO  (pool-2-thread-1) [instancei-04346e3618b7ad8ef(writeToLogger:232)] I have been disassociated from job #12
2017-11-02 20:39:32,394 INFO  (pool-2-thread-1) [instancei-04346e3618b7ad8ef(writeToLogger:232)] I have been disassociated from job #12
2017-11-02 20:39:33,306 INFO  (pool-2-thread-1) [instancei-04346e3618b7ad8ef(writeToLogger:232)] I have been disassociated from job #12
2017-11-02 20:39:33,609 INFO  (pool-2-thread-1) [instancei-04346e3618b7ad8ef(writeToLogger:232)] I have been disassociated from job #12
2017-11-02 20:39:33,991 INFO  (pool-2-thread-1) [instancei-04346e3618b7ad8ef(writeToLogger:232)] I have been disassociated from job #12
2017-11-02 20:39:34,281 INFO  (pool-2-thread-1) [instancei-04346e3618b7ad8ef(writeToLogger:232)] I have been disassociated from job #12
2017-11-02 20:39:34,569 INFO  (pool-2-thread-1) [instancei-04346e3618b7ad8ef(writeToLogger:232)] I have been disassociated from job #12
2017-11-02 20:39:34,859 INFO  (pool-2-thread-1) [instancei-04346e3618b7ad8ef(writeToLogger:232)] I have been disassociated from job #12
2017-11-02 20:39:35,158 INFO  (pool-2-thread-1) [instancei-04346e3618b7ad8ef(writeToLogger:232)] I have been disassociated from job #12
2017-11-02 20:39:35,500 INFO  (pool-2-thread-1) [instancei-04346e3618b7ad8ef(writeToLogger:232)] I have been disassociated from job #12
2017-11-02 20:39:35,834 INFO  (pool-2-thread-1) [instancei-04346e3618b7ad8ef(writeToLogger:232)] I have been disassociated from job #12
2017-11-02 20:39:36,191 INFO  (pool-2-thread-1) [instancei-04346e3618b7ad8ef(writeToLogger:232)] I have been disassociated from job #12
2017-11-02 20:39:36,487 INFO  (pool-2-thread-1) [instancei-04346e3618b7ad8ef(writeToLogger:232)] I have been disassociated from job #12
2017-11-02 20:39:36,774 INFO  (pool-2-thread-1) [instancei-04346e3618b7ad8ef(writeToLogger:232)] I have been disassociated from job #12
2017-11-02 20:39:37,067 INFO  (pool-2-thread-1) [instancei-04346e3618b7ad8ef(writeToLogger:232)] I have been disassociated from job #12
2017-11-02 20:39:37,369 INFO  (pool-2-thread-1) [instancei-04346e3618b7ad8ef(writeToLogger:232)] I have been disassociated from job #12
2017-11-02 20:39:37,676 INFO  (pool-2-thread-1) [instancei-04346e3618b7ad8ef(writeToLogger:232)] I have been disassociated from job #12
2017-11-02 20:39:37,967 INFO  (pool-2-thread-1) [instancei-04346e3618b7ad8ef(writeToLogger:232)] I have been disassociated from job #12
2017-11-02 20:39:38,268 INFO  (pool-2-thread-1) [instancei-04346e3618b7ad8ef(writeToLogger:232)] I have been disassociated from job #12
2017-11-02 20:39:38,562 INFO  (pool-2-thread-1) [instancei-04346e3618b7ad8ef(writeToLogger:232)] I have been disassociated from job #12
2017-11-02 20:39:38,847 INFO  (pool-2-thread-1) [instancei-04346e3618b7ad8ef(writeToLogger:232)] I have been disassociated from job #12
2017-11-02 20:39:39,176 INFO  (pool-2-thread-1) [instancei-04346e3618b7ad8ef(writeToLogger:232)] I have been disassociated from job #12
2017-11-02 20:39:39,468 INFO  (pool-2-thread-1) [instancei-04346e3618b7ad8ef(writeToLogger:232)] I have been disassociated from job #12
2017-11-02 20:39:39,768 INFO  (pool-2-thread-1) [instancei-04346e3618b7ad8ef(writeToLogger:232)] I have been disassociated from job #12
2017-11-02 20:39:40,061 INFO  (pool-2-thread-1) [instancei-04346e3618b7ad8ef(writeToLogger:232)] I have been disassociated from job #12
2017-11-02 20:39:40,344 INFO  (pool-2-thread-1) [instancei-04346e3618b7ad8ef(writeToLogger:232)] I have been disassociated from job #12
2017-11-02 20:39:40,653 INFO  (pool-2-thread-1) [instancei-04346e3618b7ad8ef(writeToLogger:232)] I have been disassociated from job #12
2017-11-02 20:39:40,959 INFO  (pool-2-thread-1) [instancei-04346e3618b7ad8ef(writeToLogger:232)] I have been disassociated from job #12
2017-11-02 20:39:41,243 INFO  (pool-2-thread-1) [instancei-04346e3618b7ad8ef(writeToLogger:232)] I have been disassociated from job #12
2017-11-02 20:39:41,666 INFO  (pool-2-thread-1) [instancei-04346e3618b7ad8ef(writeToLogger:232)] I have been disassociated from job #12
2017-11-02 20:39:41,982 INFO  (pool-2-thread-1) [instancei-04346e3618b7ad8ef(writeToLogger:232)] I have been disassociated from job #12
2017-11-02 20:39:42,280 INFO  (pool-2-thread-1) [instancei-04346e3618b7ad8ef(writeToLogger:232)] I have been disassociated from job #12
2017-11-02 20:39:42,598 INFO  (pool-2-thread-1) [instancei-04346e3618b7ad8ef(writeToLogger:232)] I have been disassociated from job #12
2017-11-02 20:39:42,904 INFO  (pool-2-thread-1) [instancei-04346e3618b7ad8ef(writeToLogger:232)] I have been disassociated from job #12
2017-11-02 20:39:43,207 INFO  (pool-2-thread-1) [instancei-04346e3618b7ad8ef(writeToLogger:232)] I have been disassociated from job #12
2017-11-02 20:39:43,516 INFO  (pool-2-thread-1) [instancei-04346e3618b7ad8ef(writeToLogger:232)] I have been disassociated from job #12
2017-11-02 20:39:43,830 INFO  (pool-2-thread-1) [instancei-04346e3618b7ad8ef(writeToLogger:232)] I have been disassociated from job #12
2017-11-02 20:39:44,128 INFO  (pool-2-thread-1) [instancei-04346e3618b7ad8ef(writeToLogger:232)] I have been disassociated from job #12
2017-11-02 20:39:44,423 INFO  (pool-2-thread-1) [instancei-04346e3618b7ad8ef(writeToLogger:232)] I have been disassociated from job #12
2017-11-02 20:39:44,866 INFO  (pool-2-thread-1) [instancei-04346e3618b7ad8ef(writeToLogger:232)] I have been disassociated from job #12
2017-11-02 20:39:45,167 INFO  (pool-2-thread-1) [instancei-04346e3618b7ad8ef(writeToLogger:232)] I have been disassociated from job #12
2017-11-02 20:39:45,500 INFO  (pool-2-thread-1) [instancei-04346e3618b7ad8ef(writeToLogger:232)] I have been disassociated from job #12
2017-11-02 20:39:45,799 INFO  (pool-2-thread-1) [instancei-04346e3618b7ad8ef(writeToLogger:232)] I have been disassociated from job #12
2017-11-02 20:39:46,117 INFO  (pool-2-thread-1) [instancei-04346e3618b7ad8ef(writeToLogger:232)] I have been disassociated from job #12
2017-11-02 20:39:46,461 INFO  (pool-2-thread-1) [instancei-04346e3618b7ad8ef(writeToLogger:232)] I have been disassociated from job #12
2017-11-02 20:39:46,763 INFO  (pool-2-thread-1) [instancei-04346e3618b7ad8ef(writeToLogger:232)] I have been disassociated from job #12
2017-11-02 20:39:47,065 INFO  (pool-2-thread-1) [instancei-04346e3618b7ad8ef(writeToLogger:232)] I have been disassociated from job #12
2017-11-02 20:39:47,365 INFO  (pool-2-thread-1) [instancei-04346e3618b7ad8ef(writeToLogger:232)] I have been disassociated from job #12
2017-11-02 20:39:47,655 INFO  (pool-2-thread-1) [instancei-04346e3618b7ad8ef(writeToLogger:232)] I have been disassociated from job #12
2017-11-02 20:39:47,959 INFO  (pool-2-thread-1) [instancei-04346e3618b7ad8ef(writeToLogger:232)] I have been disassociated from job #12
2017-11-02 20:39:48,250 INFO  (pool-2-thread-1) [instancei-04346e3618b7ad8ef(writeToLogger:232)] I have been disassociated from job #12
2017-11-02 20:39:48,548 INFO  (pool-2-thread-1) [instancei-04346e3618b7ad8ef(writeToLogger:232)] I have been disassociated from job #12
2017-11-02 20:39:49,319 INFO  (pool-2-thread-1) [instancei-04346e3618b7ad8ef(writeToLogger:232)] I have been disassociated from job #12
2017-11-02 20:39:49,607 INFO  (pool-2-thread-1) [instancei-04346e3618b7ad8ef(writeToLogger:232)] I have been disassociated from job #14
2017-11-02 20:39:49,917 INFO  (pool-2-thread-1) [instancei-04346e3618b7ad8ef(writeToLogger:232)] I have been disassociated from job #14
2017-11-02 20:39:50,226 INFO  (pool-2-thread-1) [instancei-04346e3618b7ad8ef(writeToLogger:232)] I have been disassociated from job #14
2017-11-02 20:39:50,537 INFO  (pool-2-thread-1) [instancei-04346e3618b7ad8ef(writeToLogger:232)] I have been disassociated from job #14
2017-11-02 20:39:50,868 INFO  (pool-2-thread-1) [instancei-04346e3618b7ad8ef(writeToLogger:232)] I have been disassociated from job #14
2017-11-02 20:39:51,173 INFO  (pool-2-thread-1) [instancei-04346e3618b7ad8ef(writeToLogger:232)] I have been disassociated from job #14
2017-11-02 20:39:51,466 INFO  (pool-2-thread-1) [instancei-04346e3618b7ad8ef(writeToLogger:232)] I have been disassociated from job #14
2017-11-02 20:39:51,807 INFO  (pool-2-thread-1) [instancei-04346e3618b7ad8ef(writeToLogger:232)] I have been disassociated from job #14
2017-11-02 20:39:52,094 INFO  (pool-2-thread-1) [instancei-04346e3618b7ad8ef(writeToLogger:232)] I have been disassociated from job #14
2017-11-02 20:39:52,378 INFO  (pool-2-thread-1) [instancei-04346e3618b7ad8ef(writeToLogger:232)] I have been disassociated from job #14
2017-11-02 20:39:52,665 INFO  (pool-2-thread-1) [instancei-04346e3618b7ad8ef(writeToLogger:232)] I have been disassociated from job #14
2017-11-02 20:39:52,964 INFO  (pool-2-thread-1) [instancei-04346e3618b7ad8ef(writeToLogger:232)] I have been disassociated from job #14
2017-11-02 20:39:53,259 INFO  (pool-2-thread-1) [instancei-04346e3618b7ad8ef(writeToLogger:232)] I have been disassociated from job #14
2017-11-02 20:39:53,544 INFO  (pool-2-thread-1) [instancei-04346e3618b7ad8ef(writeToLogger:232)] I have been disassociated from job #14
2017-11-02 20:39:53,826 INFO  (pool-2-thread-1) [instancei-04346e3618b7ad8ef(writeToLogger:232)] I have been disassociated from job #14
2017-11-02 20:39:54,109 INFO  (pool-2-thread-1) [instancei-04346e3618b7ad8ef(writeToLogger:232)] I have been disassociated from job #14
2017-11-02 20:39:54,400 INFO  (pool-2-thread-1) [instancei-04346e3618b7ad8ef(writeToLogger:232)] I have been disassociated from job #15
2017-11-02 20:39:54,702 INFO  (pool-2-thread-1) [instancei-04346e3618b7ad8ef(writeToLogger:232)] I have been disassociated from job #15
2017-11-02 20:39:54,991 INFO  (pool-2-thread-1) [instancei-04346e3618b7ad8ef(writeToLogger:232)] I have been disassociated from job #15
2017-11-02 20:39:55,289 INFO  (pool-2-thread-1) [instancei-04346e3618b7ad8ef(writeToLogger:232)] I have been disassociated from job #15
2017-11-02 20:39:55,567 INFO  (pool-2-thread-1) [instancei-04346e3618b7ad8ef(writeToLogger:232)] I have been disassociated from job #15
2017-11-02 20:39:55,885 INFO  (pool-2-thread-1) [instancei-04346e3618b7ad8ef(writeToLogger:232)] I have been disassociated from job #15
2017-11-02 20:39:56,179 INFO  (pool-2-thread-1) [instancei-04346e3618b7ad8ef(writeToLogger:232)] I have been disassociated from job #15
2017-11-02 20:39:56,468 INFO  (pool-2-thread-1) [instancei-04346e3618b7ad8ef(writeToLogger:232)] I have been disassociated from job #15
2017-11-02 20:39:56,758 INFO  (pool-2-thread-1) [instancei-04346e3618b7ad8ef(writeToLogger:232)] I have been disassociated from job #15
2017-11-02 20:39:57,038 INFO  (pool-2-thread-1) [instancei-04346e3618b7ad8ef(writeToLogger:232)] I have been disassociated from job #15
2017-11-02 20:39:57,349 INFO  (pool-2-thread-1) [instancei-04346e3618b7ad8ef(writeToLogger:232)] I have been disassociated from job #15
2017-11-02 20:39:57,645 INFO  (pool-2-thread-1) [instancei-04346e3618b7ad8ef(writeToLogger:232)] I have been disassociated from job #15
2017-11-02 20:39:57,975 INFO  (pool-2-thread-1) [instancei-04346e3618b7ad8ef(writeToLogger:232)] I have been disassociated from job #15
2017-11-02 20:39:58,263 INFO  (pool-2-thread-1) [instancei-04346e3618b7ad8ef(writeToLogger:232)] I have been disassociated from job #15
2017-11-02 20:39:58,559 INFO  (pool-2-thread-1) [instancei-04346e3618b7ad8ef(writeToLogger:232)] I have been disassociated from job #15
2017-11-02 20:39:58,871 INFO  (pool-2-thread-1) [instancei-04346e3618b7ad8ef(writeToLogger:232)] I have been disassociated from job #15
2017-11-02 20:39:59,175 INFO  (pool-2-thread-1) [instancei-04346e3618b7ad8ef(writeToLogger:232)] I have been disassociated from job #15
2017-11-02 20:39:59,488 INFO  (pool-2-thread-1) [instancei-04346e3618b7ad8ef(writeToLogger:232)] I have been disassociated from job #15
2017-11-02 20:39:59,777 INFO  (pool-2-thread-1) [instancei-04346e3618b7ad8ef(writeToLogger:232)] I have been disassociated from job #15
2017-11-02 20:40:00,168 INFO  (pool-2-thread-1) [instancei-04346e3618b7ad8ef(writeToLogger:232)] I have been disassociated from job #15
2017-11-02 20:40:00,502 INFO  (pool-2-thread-1) [instancei-04346e3618b7ad8ef(writeToLogger:232)] I have been disassociated from job #15
2017-11-02 20:40:00,788 INFO  (pool-2-thread-1) [instancei-04346e3618b7ad8ef(writeToLogger:232)] I have been disassociated from job #15
2017-11-02 20:40:01,098 INFO  (pool-2-thread-1) [instancei-04346e3618b7ad8ef(writeToLogger:232)] I have been disassociated from job #15
2017-11-02 20:40:01,399 INFO  (pool-2-thread-1) [instancei-04346e3618b7ad8ef(writeToLogger:232)] I have been disassociated from job #15
2017-11-02 20:40:01,696 INFO  (pool-2-thread-1) [instancei-04346e3618b7ad8ef(writeToLogger:232)] I have been disassociated from job #15
2017-11-02 20:40:02,184 INFO  (pool-2-thread-1) [instancei-04346e3618b7ad8ef(writeToLogger:232)] I have been disassociated from job #15
2017-11-02 20:40:02,476 INFO  (pool-2-thread-1) [instancei-04346e3618b7ad8ef(writeToLogger:232)] I have been disassociated from job #16
2017-11-02 20:40:02,771 INFO  (pool-2-thread-1) [instancei-04346e3618b7ad8ef(writeToLogger:232)] I have been disassociated from job #16
2017-11-02 20:40:03,105 INFO  (pool-2-thread-1) [instancei-04346e3618b7ad8ef(writeToLogger:232)] I have been disassociated from job #16
2017-11-02 20:40:03,539 INFO  (pool-2-thread-1) [instancei-04346e3618b7ad8ef(writeToLogger:232)] I have been disassociated from job #16
2017-11-02 20:40:03,845 INFO  (pool-2-thread-1) [instancei-04346e3618b7ad8ef(writeToLogger:232)] I have been disassociated from job #16
2017-11-02 20:40:04,858 INFO  (pool-2-thread-1) [instancei-04346e3618b7ad8ef(writeToLogger:232)] I have been disassociated from job #16
2017-11-02 20:40:05,141 INFO  (pool-2-thread-1) [instancei-04346e3618b7ad8ef(writeToLogger:232)] I have been disassociated from job #16
2017-11-02 20:40:05,938 INFO  (pool-2-thread-1) [instancei-04346e3618b7ad8ef(writeToLogger:232)] I have been disassociated from job #16
2017-11-02 20:40:06,224 INFO  (pool-2-thread-1) [instancei-04346e3618b7ad8ef(writeToLogger:232)] I have been disassociated from job #16
2017-11-02 20:40:06,527 INFO  (pool-2-thread-1) [instancei-04346e3618b7ad8ef(writeToLogger:232)] I have been disassociated from job #16
2017-11-02 20:40:06,825 INFO  (pool-2-thread-1) [instancei-04346e3618b7ad8ef(writeToLogger:232)] I have been disassociated from job #16
2017-11-02 20:40:07,115 INFO  (pool-2-thread-1) [instancei-04346e3618b7ad8ef(writeToLogger:232)] I have been disassociated from job #16
2017-11-02 20:40:07,397 INFO  (pool-2-thread-1) [instancei-04346e3618b7ad8ef(writeToLogger:232)] I have been disassociated from job #16
2017-11-02 20:40:07,685 INFO  (pool-2-thread-1) [instancei-04346e3618b7ad8ef(writeToLogger:232)] I have been disassociated from job #16
2017-11-02 20:40:07,989 INFO  (pool-2-thread-1) [instancei-04346e3618b7ad8ef(writeToLogger:232)] I have been disassociated from job #16
2017-11-02 20:40:08,361 INFO  (pool-2-thread-1) [instancei-04346e3618b7ad8ef(writeToLogger:232)] I have been disassociated from job #16
2017-11-02 20:40:08,645 INFO  (pool-2-thread-1) [instancei-04346e3618b7ad8ef(writeToLogger:232)] I have been disassociated from job #16
2017-11-02 20:40:08,934 INFO  (pool-2-thread-1) [instancei-04346e3618b7ad8ef(writeToLogger:232)] I have been disassociated from job #16
2017-11-02 20:40:09,225 INFO  (pool-2-thread-1) [instancei-04346e3618b7ad8ef(writeToLogger:232)] I have been disassociated from job #16
2017-11-02 20:40:09,548 INFO  (pool-2-thread-1) [instancei-04346e3618b7ad8ef(writeToLogger:232)] I have been disassociated from job #16
2017-11-02 20:40:09,850 INFO  (pool-2-thread-1) [instancei-04346e3618b7ad8ef(writeToLogger:232)] I have been disassociated from job #16
2017-11-02 20:40:10,233 INFO  (pool-2-thread-1) [instancei-04346e3618b7ad8ef(writeToLogger:232)] I have been disassociated from job #16
2017-11-02 20:40:10,515 INFO  (pool-2-thread-1) [instancei-04346e3618b7ad8ef(writeToLogger:232)] I have been disassociated from job #16
2017-11-02 20:40:10,810 INFO  (pool-2-thread-1) [instancei-04346e3618b7ad8ef(writeToLogger:232)] I have been disassociated from job #16
2017-11-02 20:40:11,101 INFO  (pool-2-thread-1) [instancei-04346e3618b7ad8ef(writeToLogger:232)] I have been disassociated from job #16
2017-11-02 20:40:11,722 INFO  (pool-2-thread-1) [instancei-04346e3618b7ad8ef(writeToLogger:232)] I have been disassociated from job #16
2017-11-02 20:40:12,029 INFO  (pool-2-thread-1) [instancei-04346e3618b7ad8ef(writeToLogger:232)] I have been disassociated from job #16
2017-11-02 20:40:12,307 INFO  (pool-2-thread-1) [instancei-04346e3618b7ad8ef(writeToLogger:232)] I have been disassociated from job #16
2017-11-02 20:40:12,583 INFO  (pool-2-thread-1) [instancei-04346e3618b7ad8ef(writeToLogger:232)] I have been disassociated from job #16
2017-11-02 20:40:12,868 INFO  (pool-2-thread-1) [instancei-04346e3618b7ad8ef(writeToLogger:232)] I have been disassociated from job #16
2017-11-02 20:40:13,163 INFO  (pool-2-thread-1) [instancei-04346e3618b7ad8ef(writeToLogger:232)] I have been disassociated from job #16
2017-11-02 20:40:13,458 INFO  (pool-2-thread-1) [instancei-04346e3618b7ad8ef(writeToLogger:232)] I have been disassociated from job #16
2017-11-02 20:40:13,748 INFO  (pool-2-thread-1) [instancei-04346e3618b7ad8ef(writeToLogger:232)] I have been disassociated from job #16
2017-11-02 20:40:14,032 INFO  (pool-2-thread-1) [instancei-04346e3618b7ad8ef(writeToLogger:232)] I have been disassociated from job #16
2017-11-02 20:40:14,322 INFO  (pool-2-thread-1) [instancei-04346e3618b7ad8ef(writeToLogger:232)] I have been disassociated from job #16
2017-11-02 20:40:14,634 INFO  (pool-2-thread-1) [instancei-04346e3618b7ad8ef(writeToLogger:232)] I have been disassociated from job #16
2017-11-02 20:40:14,932 INFO  (pool-2-thread-1) [instancei-04346e3618b7ad8ef(writeToLogger:232)] I have been disassociated from job #16
2017-11-02 20:40:15,213 INFO  (pool-2-thread-1) [instancei-04346e3618b7ad8ef(writeToLogger:232)] I have been disassociated from job #16
2017-11-02 20:40:15,546 INFO  (pool-2-thread-1) [instancei-04346e3618b7ad8ef(writeToLogger:232)] I have been disassociated from job #16
2017-11-02 20:40:15,914 INFO  (pool-2-thread-1) [instancei-04346e3618b7ad8ef(writeToLogger:232)] I have been disassociated from job #16
2017-11-02 20:40:16,203 INFO  (pool-2-thread-1) [instancei-04346e3618b7ad8ef(writeToLogger:232)] I have been disassociated from job #16
2017-11-02 20:40:16,554 INFO  (pool-2-thread-1) [instancei-04346e3618b7ad8ef(writeToLogger:232)] I have been disassociated from job #16
2017-11-02 20:40:16,847 INFO  (pool-2-thread-1) [instancei-04346e3618b7ad8ef(writeToLogger:232)] I have been disassociated from job #16
2017-11-02 20:40:17,133 INFO  (pool-2-thread-1) [instancei-04346e3618b7ad8ef(writeToLogger:232)] I have been disassociated from job #16
2017-11-02 20:40:17,444 INFO  (pool-2-thread-1) [instancei-04346e3618b7ad8ef(writeToLogger:232)] I have been disassociated from job #16
2017-11-02 20:40:17,745 INFO  (pool-2-thread-1) [instancei-04346e3618b7ad8ef(writeToLogger:232)] I have been disassociated from job #16
2017-11-02 20:40:18,024 INFO  (pool-2-thread-1) [instancei-04346e3618b7ad8ef(writeToLogger:232)] I have been disassociated from job #16
2017-11-02 20:40:18,430 INFO  (pool-2-thread-1) [instancei-04346e3618b7ad8ef(writeToLogger:232)] I have been disassociated from job #16
2017-11-02 20:40:18,721 INFO  (pool-2-thread-1) [instancei-04346e3618b7ad8ef(writeToLogger:232)] I have been disassociated from job #16
2017-11-02 20:40:19,065 INFO  (pool-2-thread-1) [instancei-04346e3618b7ad8ef(writeToLogger:232)] I have been disassociated from job #16
2017-11-02 20:40:19,352 INFO  (pool-2-thread-1) [instancei-04346e3618b7ad8ef(writeToLogger:232)] I have been disassociated from job #16
2017-11-02 20:40:19,641 INFO  (pool-2-thread-1) [instancei-04346e3618b7ad8ef(writeToLogger:232)] I have been disassociated from job #16
2017-11-02 20:40:19,943 INFO  (pool-2-thread-1) [instancei-04346e3618b7ad8ef(writeToLogger:232)] I have been disassociated from job #16
2017-11-02 20:40:20,224 INFO  (pool-2-thread-1) [instancei-04346e3618b7ad8ef(writeToLogger:232)] I have been disassociated from job #16
2017-11-02 20:40:20,516 INFO  (pool-2-thread-1) [instancei-04346e3618b7ad8ef(writeToLogger:232)] I have been disassociated from job #16
2017-11-02 20:40:20,806 INFO  (pool-2-thread-1) [instancei-04346e3618b7ad8ef(writeToLogger:232)] I have been disassociated from job #16
2017-11-02 20:40:21,109 INFO  (pool-2-thread-1) [instancei-04346e3618b7ad8ef(writeToLogger:232)] I have been disassociated from job #16
2017-11-02 20:40:21,938 INFO  (pool-2-thread-1) [instancei-04346e3618b7ad8ef(writeToLogger:232)] I have been disassociated from job #16
2017-11-02 20:40:22,233 INFO  (pool-2-thread-1) [instancei-04346e3618b7ad8ef(writeToLogger:232)] I have been disassociated from job #16
2017-11-02 20:40:22,541 INFO  (pool-2-thread-1) [instancei-04346e3618b7ad8ef(writeToLogger:232)] I have been disassociated from job #16
2017-11-02 20:40:22,844 INFO  (pool-2-thread-1) [instancei-04346e3618b7ad8ef(writeToLogger:232)] I have been disassociated from job #16
2017-11-02 20:40:23,138 INFO  (pool-2-thread-1) [instancei-04346e3618b7ad8ef(writeToLogger:232)] I have been disassociated from job #16
2017-11-02 20:40:23,438 INFO  (pool-2-thread-1) [instancei-04346e3618b7ad8ef(writeToLogger:232)] I have been disassociated from job #16
2017-11-02 20:40:23,745 INFO  (pool-2-thread-1) [instancei-04346e3618b7ad8ef(writeToLogger:232)] I have been disassociated from job #16
2017-11-02 20:40:24,408 INFO  (pool-2-thread-1) [instancei-04346e3618b7ad8ef(writeToLogger:232)] I have been disassociated from job #16
2017-11-02 20:40:24,708 INFO  (pool-2-thread-1) [instancei-04346e3618b7ad8ef(writeToLogger:232)] I have been disassociated from job #16
2017-11-02 20:40:25,014 INFO  (pool-2-thread-1) [instancei-04346e3618b7ad8ef(writeToLogger:232)] I have been disassociated from job #16
2017-11-02 20:40:25,314 INFO  (pool-2-thread-1) [instancei-04346e3618b7ad8ef(writeToLogger:232)] I have been disassociated from job #16
2017-11-02 20:40:25,618 INFO  (pool-2-thread-1) [instancei-04346e3618b7ad8ef(writeToLogger:232)] I have been disassociated from job #16
2017-11-02 20:40:25,961 INFO  (pool-2-thread-1) [instancei-04346e3618b7ad8ef(writeToLogger:232)] I have been disassociated from job #16
2017-11-02 20:40:26,282 INFO  (pool-2-thread-1) [instancei-04346e3618b7ad8ef(writeToLogger:232)] I have been disassociated from job #16
2017-11-02 20:40:26,575 INFO  (pool-2-thread-1) [instancei-04346e3618b7ad8ef(writeToLogger:232)] I have been disassociated from job #16
2017-11-02 20:40:26,868 INFO  (pool-2-thread-1) [instancei-04346e3618b7ad8ef(writeToLogger:232)] I have been disassociated from job #16
2017-11-02 20:40:27,163 INFO  (pool-2-thread-1) [instancei-04346e3618b7ad8ef(writeToLogger:232)] I have been disassociated from job #16
2017-11-02 20:40:27,464 INFO  (pool-2-thread-1) [instancei-04346e3618b7ad8ef(writeToLogger:232)] I have been disassociated from job #16
2017-11-02 20:40:27,752 INFO  (pool-2-thread-1) [instancei-04346e3618b7ad8ef(writeToLogger:232)] I have been disassociated from job #16
2017-11-02 20:40:28,041 INFO  (pool-2-thread-1) [instancei-04346e3618b7ad8ef(writeToLogger:232)] I have been disassociated from job #16
2017-11-02 20:40:28,337 INFO  (pool-2-thread-1) [instancei-04346e3618b7ad8ef(writeToLogger:232)] I have been disassociated from job #16
2017-11-02 20:40:28,648 INFO  (pool-2-thread-1) [instancei-04346e3618b7ad8ef(writeToLogger:232)] I have been disassociated from job #16
2017-11-02 20:40:28,942 INFO  (pool-2-thread-1) [instancei-04346e3618b7ad8ef(writeToLogger:232)] I have been disassociated from job #16
2017-11-02 20:40:29,250 INFO  (pool-2-thread-1) [instancei-04346e3618b7ad8ef(writeToLogger:232)] I have been disassociated from job #16
2017-11-02 20:40:29,641 INFO  (pool-2-thread-1) [instancei-04346e3618b7ad8ef(writeToLogger:232)] I have been disassociated from job #16
2017-11-02 20:40:29,952 INFO  (pool-2-thread-1) [instancei-04346e3618b7ad8ef(writeToLogger:232)] I have been disassociated from job #16
2017-11-02 20:40:30,242 INFO  (pool-2-thread-1) [instancei-04346e3618b7ad8ef(writeToLogger:232)] I have been disassociated from job #16
2017-11-02 20:40:30,542 INFO  (pool-2-thread-1) [instancei-04346e3618b7ad8ef(writeToLogger:232)] I have been disassociated from job #16
2017-11-02 20:40:30,837 INFO  (pool-2-thread-1) [instancei-04346e3618b7ad8ef(writeToLogger:232)] I have been disassociated from job #16
2017-11-02 20:40:31,131 INFO  (pool-2-thread-1) [instancei-04346e3618b7ad8ef(writeToLogger:232)] I have been disassociated from job #16
2017-11-02 20:40:31,429 INFO  (pool-2-thread-1) [instancei-04346e3618b7ad8ef(writeToLogger:232)] I have been disassociated from job #16
2017-11-02 20:40:31,744 INFO  (pool-2-thread-1) [instancei-04346e3618b7ad8ef(writeToLogger:232)] I have been disassociated from job #16
2017-11-02 20:40:32,055 INFO  (pool-2-thread-1) [instancei-04346e3618b7ad8ef(writeToLogger:232)] I have been disassociated from job #16
2017-11-02 20:40:32,363 INFO  (pool-2-thread-1) [instancei-04346e3618b7ad8ef(writeToLogger:232)] I have been disassociated from job #16
2017-11-02 20:40:32,658 INFO  (pool-2-thread-1) [instancei-04346e3618b7ad8ef(writeToLogger:232)] I have been disassociated from job #16
2017-11-02 20:40:32,954 INFO  (pool-2-thread-1) [instancei-04346e3618b7ad8ef(writeToLogger:232)] I have been disassociated from job #16
2017-11-02 20:40:33,296 INFO  (pool-2-thread-1) [instancei-04346e3618b7ad8ef(writeToLogger:232)] I have been disassociated from job #16
2017-11-02 20:40:33,603 INFO  (pool-2-thread-1) [instancei-04346e3618b7ad8ef(writeToLogger:232)] I have been disassociated from job #16
2017-11-02 20:40:34,244 INFO  (pool-2-thread-1) [instancei-04346e3618b7ad8ef(writeToLogger:232)] I have been disassociated from job #16
2017-11-02 20:40:34,538 INFO  (pool-2-thread-1) [instancei-04346e3618b7ad8ef(writeToLogger:232)] I have been disassociated from job #16
2017-11-02 20:40:34,834 INFO  (pool-2-thread-1) [instancei-04346e3618b7ad8ef(writeToLogger:232)] I have been disassociated from job #16
2017-11-02 20:40:35,133 INFO  (pool-2-thread-1) [instancei-04346e3618b7ad8ef(writeToLogger:232)] I have been disassociated from job #16
2017-11-02 20:40:35,446 INFO  (pool-2-thread-1) [instancei-04346e3618b7ad8ef(writeToLogger:232)] I have been disassociated from job #16
2017-11-02 20:40:35,773 INFO  (pool-2-thread-1) [instancei-04346e3618b7ad8ef(writeToLogger:232)] I have been disassociated from job #16
2017-11-02 20:40:36,078 INFO  (pool-2-thread-1) [instancei-04346e3618b7ad8ef(writeToLogger:232)] I have been disassociated from job #16
2017-11-02 20:40:36,393 INFO  (pool-2-thread-1) [instancei-04346e3618b7ad8ef(writeToLogger:232)] I have been disassociated from job #16
2017-11-02 20:40:36,705 INFO  (pool-2-thread-1) [instancei-04346e3618b7ad8ef(writeToLogger:232)] I have been disassociated from job #16
2017-11-02 20:40:37,308 INFO  (pool-2-thread-1) [instancei-04346e3618b7ad8ef(writeToLogger:232)] I have been disassociated from job #16
2017-11-02 20:40:37,616 INFO  (pool-2-thread-1) [instancei-04346e3618b7ad8ef(writeToLogger:232)] I have been disassociated from job #16
