2017-11-04 22:28:49,792 INFO  (pool-1-thread-1) [instancei-04a9a3c77f32793ef(writeToLogger:232)] Instance started, waiting to enter a running state
2017-11-04 22:29:10,833 INFO  (pool-1-thread-1) [instancei-04a9a3c77f32793ef(writeToLogger:232)] Instance has started. Will add an IP to it.
2017-11-04 22:29:10,974 INFO  (pool-1-thread-1) [instancei-04a9a3c77f32793ef(writeToLogger:232)] Have paired the ElasticIP to this instance. Creating an SSH connecton object for it.
2017-11-04 22:29:21,150 INFO  (pool-1-thread-1) [instancei-04a9a3c77f32793ef(writeToLogger:232)] SSH object attached successfully. Instance successfully created.
2017-11-04 22:29:21,151 INFO  (pool-1-thread-1) [instancei-04a9a3c77f32793ef(writeToLogger:232)] Adding VM instance #i-04a9a3c77f32793ef to the Resource Manager
2017-11-04 22:29:21,151 INFO  (pool-1-thread-1) [instancei-04a9a3c77f32793ef(writeToLogger:232)] VM instance #i-04a9a3c77f32793ef has been successfully added to the Resource Manager
2017-11-04 22:32:58,143 INFO  (pool-2-thread-2) [instancei-04a9a3c77f32793ef(writeToLogger:232)] I have been disassociated from job #30
2017-11-04 22:36:25,175 INFO  (pool-2-thread-4) [instancei-04a9a3c77f32793ef(writeToLogger:232)] I have been disassociated from job #30
