2017-11-02 20:36:26,904 INFO  (pool-1-thread-4) [instancei-0cef7badee916295f(writeToLogger:232)] Instance started, waiting to enter a running state
2017-11-02 20:36:47,973 INFO  (pool-1-thread-4) [instancei-0cef7badee916295f(writeToLogger:232)] Instance has started. Will add an IP to it.
2017-11-02 20:36:49,120 INFO  (pool-1-thread-4) [instancei-0cef7badee916295f(writeToLogger:232)] Have paired the ElasticIP to this instance. Creating an SSH connecton object for it.
2017-11-02 20:36:59,112 INFO  (pool-1-thread-4) [instancei-0cef7badee916295f(writeToLogger:232)] SSH object attached successfully. Instance successfully created.
2017-11-02 20:36:59,112 INFO  (pool-1-thread-4) [instancei-0cef7badee916295f(writeToLogger:232)] Adding VM instance #i-0cef7badee916295f to the Resource Manager
2017-11-02 20:36:59,208 INFO  (pool-1-thread-4) [instancei-0cef7badee916295f(writeToLogger:232)] VM instance #i-0cef7badee916295f has been successfully added to the Resource Manager
