2017-11-04 21:52:18,470 INFO  (pool-1-thread-4) [instancei-043d3ff7103e0741b(writeToLogger:232)] Instance started, waiting to enter a running state
2017-11-04 21:52:39,593 INFO  (pool-1-thread-4) [instancei-043d3ff7103e0741b(writeToLogger:232)] Instance has started. Will add an IP to it.
2017-11-04 21:52:39,756 INFO  (pool-1-thread-4) [instancei-043d3ff7103e0741b(writeToLogger:232)] Have paired the ElasticIP to this instance. Creating an SSH connecton object for it.
2017-11-04 21:52:50,062 INFO  (pool-1-thread-4) [instancei-043d3ff7103e0741b(writeToLogger:232)] SSH object attached successfully. Instance successfully created.
2017-11-04 21:52:50,062 INFO  (pool-1-thread-4) [instancei-043d3ff7103e0741b(writeToLogger:232)] Adding VM instance #i-043d3ff7103e0741b to the Resource Manager
2017-11-04 21:52:50,062 INFO  (pool-1-thread-4) [instancei-043d3ff7103e0741b(writeToLogger:232)] VM instance #i-043d3ff7103e0741b has been successfully added to the Resource Manager
2017-11-04 21:57:11,530 INFO  (pool-2-thread-3) [instancei-043d3ff7103e0741b(writeToLogger:232)] I have been disassociated from job #30
2017-11-04 22:00:37,264 INFO  (pool-2-thread-4) [instancei-043d3ff7103e0741b(writeToLogger:232)] I have been disassociated from job #30
