2017-11-03 01:14:50,970 INFO  (pool-1-thread-2) [instancei-03b5e98650dab8828(writeToLogger:232)] Instance started, waiting to enter a running state
2017-11-03 01:15:07,553 INFO  (pool-1-thread-2) [instancei-03b5e98650dab8828(writeToLogger:232)] Instance has started. Will add an IP to it.
2017-11-03 01:15:07,713 INFO  (pool-1-thread-2) [instancei-03b5e98650dab8828(writeToLogger:232)] Have paired the ElasticIP to this instance. Creating an SSH connecton object for it.
2017-11-03 01:15:17,949 INFO  (pool-1-thread-2) [instancei-03b5e98650dab8828(writeToLogger:232)] SSH object attached successfully. Instance successfully created.
2017-11-03 01:15:17,949 INFO  (pool-1-thread-2) [instancei-03b5e98650dab8828(writeToLogger:232)] Adding VM instance #i-03b5e98650dab8828 to the Resource Manager
2017-11-03 01:15:17,949 INFO  (pool-1-thread-2) [instancei-03b5e98650dab8828(writeToLogger:232)] VM instance #i-03b5e98650dab8828 has been successfully added to the Resource Manager
2017-11-03 01:18:33,528 INFO  (pool-2-thread-1) [instancei-03b5e98650dab8828(writeToLogger:232)] I have been disassociated from job #14
2017-11-03 01:22:01,470 INFO  (pool-2-thread-1) [instancei-03b5e98650dab8828(writeToLogger:232)] I have been disassociated from job #21
2017-11-03 01:25:25,470 INFO  (pool-2-thread-1) [instancei-03b5e98650dab8828(writeToLogger:232)] I have been disassociated from job #30
2017-11-03 01:28:37,540 INFO  (pool-2-thread-1) [instancei-03b5e98650dab8828(writeToLogger:232)] I have been disassociated from job #30
2017-11-03 01:29:53,670 INFO  (Thread-1) [instancei-03b5e98650dab8828(terminateThisInstance:160)] Closing the SSH connection
2017-11-03 01:29:53,670 INFO  (Thread-1) [instancei-03b5e98650dab8828(terminateThisInstance:162)] SSH Connection closed
2017-11-03 01:29:53,670 INFO  (Thread-1) [instancei-03b5e98650dab8828(terminateThisInstance:175)] Terminating the EC2 instance
2017-11-03 01:29:54,549 INFO  (Thread-1) [instancei-03b5e98650dab8828(terminateThisInstance:190)] EC2 instance terminated
2017-11-03 01:29:54,549 INFO  (Thread-1) [instancei-03b5e98650dab8828(terminateThisInstance:191)] Terminating Instance
 - Instance: i-03b5e98650dab8828
 - Current State: {Code: 32,Name: shutting-down}

2017-11-03 01:29:54,549 INFO  (Thread-1) [instancei-03b5e98650dab8828(terminateThisInstance:203)] My total runtime was: 875169
My active runtime was: 779535
Fractino active: 0.890725
2017-11-03 01:29:54,549 INFO  (Thread-1) [instancei-03b5e98650dab8828(terminateThisInstance:215)] Removing this instance from the resource pool
