2017-11-02 00:34:47,708 INFO  (pool-1-thread-1) [instancei-0abccac33aefe8975(writeToLogger:230)] Instance started, waiting to enter a running state
2017-11-02 00:35:09,000 INFO  (pool-1-thread-1) [instancei-0abccac33aefe8975(writeToLogger:230)] Instance has started. Will add an IP to it.
2017-11-02 00:35:10,156 INFO  (pool-1-thread-1) [instancei-0abccac33aefe8975(writeToLogger:230)] Have paired the ElasticIP to this instance. Creating an SSH connecton object for it.
2017-11-02 00:35:23,508 INFO  (pool-1-thread-1) [instancei-0abccac33aefe8975(writeToLogger:230)] SSH object attached successfully. Instance successfully created.
2017-11-02 00:35:23,524 INFO  (pool-1-thread-1) [instancei-0abccac33aefe8975(writeToLogger:230)] Adding VM instance #i-0abccac33aefe8975 to the Resource Manager
2017-11-02 00:35:23,524 INFO  (pool-1-thread-1) [instancei-0abccac33aefe8975(writeToLogger:230)] VM instance #i-0abccac33aefe8975 has been successfully added to the Resource Manager
2017-11-02 00:35:24,286 INFO  (pool-2-thread-1) [instancei-0abccac33aefe8975(writeToLogger:230)] I have been disassociated from job #3
2017-11-02 00:40:25,762 INFO  (pool-2-thread-1) [instancei-0abccac33aefe8975(writeToLogger:230)] I have been disassociated from job #3
2017-11-02 00:43:39,158 INFO  (pool-2-thread-1) [instancei-0abccac33aefe8975(writeToLogger:230)] I have been disassociated from job #3
2017-11-02 00:43:41,988 INFO  (pool-2-thread-1) [instancei-0abccac33aefe8975(writeToLogger:230)] I have been disassociated from job #3
2017-11-02 00:43:42,137 INFO  (pool-2-thread-1) [instancei-0abccac33aefe8975(writeToLogger:230)] I have been disassociated from job #3
2017-11-02 00:43:42,283 INFO  (pool-2-thread-1) [instancei-0abccac33aefe8975(writeToLogger:230)] I have been disassociated from job #3
2017-11-02 00:43:42,495 INFO  (pool-2-thread-1) [instancei-0abccac33aefe8975(writeToLogger:230)] I have been disassociated from job #3
2017-11-02 00:43:42,645 INFO  (pool-2-thread-1) [instancei-0abccac33aefe8975(writeToLogger:230)] I have been disassociated from job #3
2017-11-02 00:43:42,837 INFO  (pool-2-thread-1) [instancei-0abccac33aefe8975(writeToLogger:230)] I have been disassociated from job #3
2017-11-02 00:43:42,995 INFO  (pool-2-thread-1) [instancei-0abccac33aefe8975(writeToLogger:230)] I have been disassociated from job #3
2017-11-02 00:43:43,151 INFO  (pool-2-thread-1) [instancei-0abccac33aefe8975(writeToLogger:230)] I have been disassociated from job #3
2017-11-02 00:43:43,294 INFO  (pool-2-thread-1) [instancei-0abccac33aefe8975(writeToLogger:230)] I have been disassociated from job #3
2017-11-02 00:43:43,441 INFO  (pool-2-thread-1) [instancei-0abccac33aefe8975(writeToLogger:230)] I have been disassociated from job #3
2017-11-02 00:43:43,585 INFO  (pool-2-thread-1) [instancei-0abccac33aefe8975(writeToLogger:230)] I have been disassociated from job #3
2017-11-02 00:43:43,741 INFO  (pool-2-thread-1) [instancei-0abccac33aefe8975(writeToLogger:230)] I have been disassociated from job #3
2017-11-02 00:43:43,885 INFO  (pool-2-thread-1) [instancei-0abccac33aefe8975(writeToLogger:230)] I have been disassociated from job #3
2017-11-02 00:43:44,029 INFO  (pool-2-thread-1) [instancei-0abccac33aefe8975(writeToLogger:230)] I have been disassociated from job #3
2017-11-02 00:43:44,185 INFO  (pool-2-thread-1) [instancei-0abccac33aefe8975(writeToLogger:230)] I have been disassociated from job #3
2017-11-02 00:43:44,331 INFO  (pool-2-thread-1) [instancei-0abccac33aefe8975(writeToLogger:230)] I have been disassociated from job #3
2017-11-02 00:43:44,471 INFO  (pool-2-thread-1) [instancei-0abccac33aefe8975(writeToLogger:230)] I have been disassociated from job #3
2017-11-02 00:43:44,624 INFO  (pool-2-thread-1) [instancei-0abccac33aefe8975(writeToLogger:230)] I have been disassociated from job #3
2017-11-02 00:43:44,767 INFO  (pool-2-thread-1) [instancei-0abccac33aefe8975(writeToLogger:230)] I have been disassociated from job #3
2017-11-02 00:43:44,907 INFO  (pool-2-thread-1) [instancei-0abccac33aefe8975(writeToLogger:230)] I have been disassociated from job #3
2017-11-02 00:43:45,052 INFO  (pool-2-thread-1) [instancei-0abccac33aefe8975(writeToLogger:230)] I have been disassociated from job #3
2017-11-02 00:43:45,195 INFO  (pool-2-thread-1) [instancei-0abccac33aefe8975(writeToLogger:230)] I have been disassociated from job #3
2017-11-02 00:43:45,347 INFO  (pool-2-thread-1) [instancei-0abccac33aefe8975(writeToLogger:230)] I have been disassociated from job #3
2017-11-02 00:43:45,487 INFO  (pool-2-thread-1) [instancei-0abccac33aefe8975(writeToLogger:230)] I have been disassociated from job #3
2017-11-02 00:43:45,627 INFO  (pool-2-thread-1) [instancei-0abccac33aefe8975(writeToLogger:230)] I have been disassociated from job #3
2017-11-02 00:43:45,769 INFO  (pool-2-thread-1) [instancei-0abccac33aefe8975(writeToLogger:230)] I have been disassociated from job #3
2017-11-02 00:43:45,914 INFO  (pool-2-thread-1) [instancei-0abccac33aefe8975(writeToLogger:230)] I have been disassociated from job #3
2017-11-02 00:43:46,062 INFO  (pool-2-thread-1) [instancei-0abccac33aefe8975(writeToLogger:230)] I have been disassociated from job #3
2017-11-02 00:43:46,208 INFO  (pool-2-thread-1) [instancei-0abccac33aefe8975(writeToLogger:230)] I have been disassociated from job #3
2017-11-02 00:43:46,352 INFO  (pool-2-thread-1) [instancei-0abccac33aefe8975(writeToLogger:230)] I have been disassociated from job #3
2017-11-02 00:43:46,495 INFO  (pool-2-thread-1) [instancei-0abccac33aefe8975(writeToLogger:230)] I have been disassociated from job #3
2017-11-02 00:43:46,668 INFO  (pool-2-thread-1) [instancei-0abccac33aefe8975(writeToLogger:230)] I have been disassociated from job #3
2017-11-02 00:43:46,824 INFO  (pool-2-thread-1) [instancei-0abccac33aefe8975(writeToLogger:230)] I have been disassociated from job #3
2017-11-02 00:43:46,972 INFO  (pool-2-thread-1) [instancei-0abccac33aefe8975(writeToLogger:230)] I have been disassociated from job #3
2017-11-02 00:43:47,111 INFO  (pool-2-thread-1) [instancei-0abccac33aefe8975(writeToLogger:230)] I have been disassociated from job #3
2017-11-02 00:43:47,249 INFO  (pool-2-thread-1) [instancei-0abccac33aefe8975(writeToLogger:230)] I have been disassociated from job #3
2017-11-02 00:43:47,395 INFO  (pool-2-thread-1) [instancei-0abccac33aefe8975(writeToLogger:230)] I have been disassociated from job #3
2017-11-02 00:43:47,539 INFO  (pool-2-thread-1) [instancei-0abccac33aefe8975(writeToLogger:230)] I have been disassociated from job #3
2017-11-02 00:43:47,682 INFO  (pool-2-thread-1) [instancei-0abccac33aefe8975(writeToLogger:230)] I have been disassociated from job #3
2017-11-02 00:43:47,823 INFO  (pool-2-thread-1) [instancei-0abccac33aefe8975(writeToLogger:230)] I have been disassociated from job #3
2017-11-02 00:43:47,967 INFO  (pool-2-thread-1) [instancei-0abccac33aefe8975(writeToLogger:230)] I have been disassociated from job #3
2017-11-02 00:43:48,120 INFO  (pool-2-thread-1) [instancei-0abccac33aefe8975(writeToLogger:230)] I have been disassociated from job #3
2017-11-02 00:43:48,267 INFO  (pool-2-thread-1) [instancei-0abccac33aefe8975(writeToLogger:230)] I have been disassociated from job #3
2017-11-02 00:43:48,417 INFO  (pool-2-thread-1) [instancei-0abccac33aefe8975(writeToLogger:230)] I have been disassociated from job #3
2017-11-02 00:43:48,568 INFO  (pool-2-thread-1) [instancei-0abccac33aefe8975(writeToLogger:230)] I have been disassociated from job #3
2017-11-02 00:43:48,711 INFO  (pool-2-thread-1) [instancei-0abccac33aefe8975(writeToLogger:230)] I have been disassociated from job #3
2017-11-02 00:43:48,854 INFO  (pool-2-thread-1) [instancei-0abccac33aefe8975(writeToLogger:230)] I have been disassociated from job #3
2017-11-02 00:43:48,995 INFO  (pool-2-thread-1) [instancei-0abccac33aefe8975(writeToLogger:230)] I have been disassociated from job #3
2017-11-02 00:43:49,157 INFO  (pool-2-thread-1) [instancei-0abccac33aefe8975(writeToLogger:230)] I have been disassociated from job #3
2017-11-02 00:43:49,307 INFO  (pool-2-thread-1) [instancei-0abccac33aefe8975(writeToLogger:230)] I have been disassociated from job #3
2017-11-02 00:43:49,450 INFO  (pool-2-thread-1) [instancei-0abccac33aefe8975(writeToLogger:230)] I have been disassociated from job #3
2017-11-02 00:43:49,593 INFO  (pool-2-thread-1) [instancei-0abccac33aefe8975(writeToLogger:230)] I have been disassociated from job #3
2017-11-02 00:43:49,737 INFO  (pool-2-thread-1) [instancei-0abccac33aefe8975(writeToLogger:230)] I have been disassociated from job #3
2017-11-02 00:43:49,897 INFO  (pool-2-thread-1) [instancei-0abccac33aefe8975(writeToLogger:230)] I have been disassociated from job #3
2017-11-02 00:43:50,038 INFO  (pool-2-thread-1) [instancei-0abccac33aefe8975(writeToLogger:230)] I have been disassociated from job #3
2017-11-02 00:43:50,177 INFO  (pool-2-thread-1) [instancei-0abccac33aefe8975(writeToLogger:230)] I have been disassociated from job #3
2017-11-02 00:43:50,321 INFO  (pool-2-thread-1) [instancei-0abccac33aefe8975(writeToLogger:230)] I have been disassociated from job #3
2017-11-02 00:43:50,462 INFO  (pool-2-thread-1) [instancei-0abccac33aefe8975(writeToLogger:230)] I have been disassociated from job #3
2017-11-02 00:43:50,604 INFO  (pool-2-thread-1) [instancei-0abccac33aefe8975(writeToLogger:230)] I have been disassociated from job #3
2017-11-02 00:43:50,743 INFO  (pool-2-thread-1) [instancei-0abccac33aefe8975(writeToLogger:230)] I have been disassociated from job #3
2017-11-02 00:43:50,886 INFO  (pool-2-thread-1) [instancei-0abccac33aefe8975(writeToLogger:230)] I have been disassociated from job #3
2017-11-02 00:43:51,175 INFO  (pool-2-thread-1) [instancei-0abccac33aefe8975(writeToLogger:230)] I have been disassociated from job #3
2017-11-02 00:43:51,354 INFO  (pool-2-thread-1) [instancei-0abccac33aefe8975(writeToLogger:230)] I have been disassociated from job #3
2017-11-02 00:43:51,511 INFO  (pool-2-thread-1) [instancei-0abccac33aefe8975(writeToLogger:230)] I have been disassociated from job #3
2017-11-02 00:43:51,657 INFO  (pool-2-thread-1) [instancei-0abccac33aefe8975(writeToLogger:230)] I have been disassociated from job #3
2017-11-02 00:43:51,839 INFO  (pool-2-thread-1) [instancei-0abccac33aefe8975(writeToLogger:230)] I have been disassociated from job #3
2017-11-02 00:43:51,977 INFO  (pool-2-thread-1) [instancei-0abccac33aefe8975(writeToLogger:230)] I have been disassociated from job #3
2017-11-02 00:43:52,112 INFO  (pool-2-thread-1) [instancei-0abccac33aefe8975(writeToLogger:230)] I have been disassociated from job #3
2017-11-02 00:43:52,281 INFO  (pool-2-thread-1) [instancei-0abccac33aefe8975(writeToLogger:230)] I have been disassociated from job #3
2017-11-02 00:43:52,425 INFO  (pool-2-thread-1) [instancei-0abccac33aefe8975(writeToLogger:230)] I have been disassociated from job #3
2017-11-02 00:43:52,563 INFO  (pool-2-thread-1) [instancei-0abccac33aefe8975(writeToLogger:230)] I have been disassociated from job #3
2017-11-02 00:43:52,710 INFO  (pool-2-thread-1) [instancei-0abccac33aefe8975(writeToLogger:230)] I have been disassociated from job #3
2017-11-02 00:43:52,864 INFO  (pool-2-thread-1) [instancei-0abccac33aefe8975(writeToLogger:230)] I have been disassociated from job #3
2017-11-02 00:43:53,011 INFO  (pool-2-thread-1) [instancei-0abccac33aefe8975(writeToLogger:230)] I have been disassociated from job #3
2017-11-02 00:43:53,153 INFO  (pool-2-thread-1) [instancei-0abccac33aefe8975(writeToLogger:230)] I have been disassociated from job #3
2017-11-02 00:43:53,293 INFO  (pool-2-thread-1) [instancei-0abccac33aefe8975(writeToLogger:230)] I have been disassociated from job #3
2017-11-02 00:43:53,443 INFO  (pool-2-thread-1) [instancei-0abccac33aefe8975(writeToLogger:230)] I have been disassociated from job #3
2017-11-02 00:43:53,585 INFO  (pool-2-thread-1) [instancei-0abccac33aefe8975(writeToLogger:230)] I have been disassociated from job #3
2017-11-02 00:43:53,728 INFO  (pool-2-thread-1) [instancei-0abccac33aefe8975(writeToLogger:230)] I have been disassociated from job #3
2017-11-02 00:43:53,902 INFO  (pool-2-thread-1) [instancei-0abccac33aefe8975(writeToLogger:230)] I have been disassociated from job #3
2017-11-02 00:43:54,047 INFO  (pool-2-thread-1) [instancei-0abccac33aefe8975(writeToLogger:230)] I have been disassociated from job #3
2017-11-02 00:43:54,189 INFO  (pool-2-thread-1) [instancei-0abccac33aefe8975(writeToLogger:230)] I have been disassociated from job #3
2017-11-02 00:43:54,335 INFO  (pool-2-thread-1) [instancei-0abccac33aefe8975(writeToLogger:230)] I have been disassociated from job #3
2017-11-02 00:43:54,473 INFO  (pool-2-thread-1) [instancei-0abccac33aefe8975(writeToLogger:230)] I have been disassociated from job #3
2017-11-02 00:43:54,617 INFO  (pool-2-thread-1) [instancei-0abccac33aefe8975(writeToLogger:230)] I have been disassociated from job #3
2017-11-02 00:43:54,756 INFO  (pool-2-thread-1) [instancei-0abccac33aefe8975(writeToLogger:230)] I have been disassociated from job #3
2017-11-02 00:43:54,899 INFO  (pool-2-thread-1) [instancei-0abccac33aefe8975(writeToLogger:230)] I have been disassociated from job #3
2017-11-02 00:43:55,040 INFO  (pool-2-thread-1) [instancei-0abccac33aefe8975(writeToLogger:230)] I have been disassociated from job #3
2017-11-02 00:43:55,187 INFO  (pool-2-thread-1) [instancei-0abccac33aefe8975(writeToLogger:230)] I have been disassociated from job #3
2017-11-02 00:43:55,329 INFO  (pool-2-thread-1) [instancei-0abccac33aefe8975(writeToLogger:230)] I have been disassociated from job #3
2017-11-02 00:43:55,480 INFO  (pool-2-thread-1) [instancei-0abccac33aefe8975(writeToLogger:230)] I have been disassociated from job #3
2017-11-02 00:43:55,619 INFO  (pool-2-thread-1) [instancei-0abccac33aefe8975(writeToLogger:230)] I have been disassociated from job #3
2017-11-02 00:43:55,768 INFO  (pool-2-thread-1) [instancei-0abccac33aefe8975(writeToLogger:230)] I have been disassociated from job #3
2017-11-02 00:43:55,913 INFO  (pool-2-thread-1) [instancei-0abccac33aefe8975(writeToLogger:230)] I have been disassociated from job #3
2017-11-02 00:43:56,056 INFO  (pool-2-thread-1) [instancei-0abccac33aefe8975(writeToLogger:230)] I have been disassociated from job #3
2017-11-02 00:43:56,196 INFO  (pool-2-thread-1) [instancei-0abccac33aefe8975(writeToLogger:230)] I have been disassociated from job #3
2017-11-02 00:43:56,338 INFO  (pool-2-thread-1) [instancei-0abccac33aefe8975(writeToLogger:230)] I have been disassociated from job #3
2017-11-02 00:43:56,499 INFO  (pool-2-thread-1) [instancei-0abccac33aefe8975(writeToLogger:230)] I have been disassociated from job #3
2017-11-02 00:43:56,646 INFO  (pool-2-thread-1) [instancei-0abccac33aefe8975(writeToLogger:230)] I have been disassociated from job #3
2017-11-02 00:43:56,786 INFO  (pool-2-thread-1) [instancei-0abccac33aefe8975(writeToLogger:230)] I have been disassociated from job #3
2017-11-02 00:43:57,427 INFO  (pool-2-thread-1) [instancei-0abccac33aefe8975(writeToLogger:230)] I have been disassociated from job #3
2017-11-02 00:43:57,614 INFO  (pool-2-thread-1) [instancei-0abccac33aefe8975(writeToLogger:230)] I have been disassociated from job #3
2017-11-02 00:43:57,761 INFO  (pool-2-thread-1) [instancei-0abccac33aefe8975(writeToLogger:230)] I have been disassociated from job #3
2017-11-02 00:43:57,906 INFO  (pool-2-thread-1) [instancei-0abccac33aefe8975(writeToLogger:230)] I have been disassociated from job #3
2017-11-02 00:43:58,051 INFO  (pool-2-thread-1) [instancei-0abccac33aefe8975(writeToLogger:230)] I have been disassociated from job #3
2017-11-02 00:43:58,192 INFO  (pool-2-thread-1) [instancei-0abccac33aefe8975(writeToLogger:230)] I have been disassociated from job #3
2017-11-02 00:43:58,335 INFO  (pool-2-thread-1) [instancei-0abccac33aefe8975(writeToLogger:230)] I have been disassociated from job #3
2017-11-02 00:43:58,478 INFO  (pool-2-thread-1) [instancei-0abccac33aefe8975(writeToLogger:230)] I have been disassociated from job #3
2017-11-02 00:43:58,623 INFO  (pool-2-thread-1) [instancei-0abccac33aefe8975(writeToLogger:230)] I have been disassociated from job #3
2017-11-02 00:43:58,770 INFO  (pool-2-thread-1) [instancei-0abccac33aefe8975(writeToLogger:230)] I have been disassociated from job #3
2017-11-02 00:43:58,906 INFO  (pool-2-thread-1) [instancei-0abccac33aefe8975(writeToLogger:230)] I have been disassociated from job #3
2017-11-02 00:43:59,052 INFO  (pool-2-thread-1) [instancei-0abccac33aefe8975(writeToLogger:230)] I have been disassociated from job #3
2017-11-02 00:43:59,245 INFO  (pool-2-thread-1) [instancei-0abccac33aefe8975(writeToLogger:230)] I have been disassociated from job #3
2017-11-02 00:43:59,438 INFO  (pool-2-thread-1) [instancei-0abccac33aefe8975(writeToLogger:230)] I have been disassociated from job #3
2017-11-02 00:43:59,586 INFO  (pool-2-thread-1) [instancei-0abccac33aefe8975(writeToLogger:230)] I have been disassociated from job #3
2017-11-02 00:43:59,745 INFO  (pool-2-thread-1) [instancei-0abccac33aefe8975(writeToLogger:230)] I have been disassociated from job #3
2017-11-02 00:43:59,886 INFO  (pool-2-thread-1) [instancei-0abccac33aefe8975(writeToLogger:230)] I have been disassociated from job #3
2017-11-02 00:44:00,043 INFO  (pool-2-thread-1) [instancei-0abccac33aefe8975(writeToLogger:230)] I have been disassociated from job #3
2017-11-02 00:44:00,179 INFO  (pool-2-thread-1) [instancei-0abccac33aefe8975(writeToLogger:230)] I have been disassociated from job #3
2017-11-02 00:44:00,332 INFO  (pool-2-thread-1) [instancei-0abccac33aefe8975(writeToLogger:230)] I have been disassociated from job #3
2017-11-02 00:44:00,480 INFO  (pool-2-thread-1) [instancei-0abccac33aefe8975(writeToLogger:230)] I have been disassociated from job #3
2017-11-02 00:44:00,617 INFO  (pool-2-thread-1) [instancei-0abccac33aefe8975(writeToLogger:230)] I have been disassociated from job #3
2017-11-02 00:44:00,768 INFO  (pool-2-thread-1) [instancei-0abccac33aefe8975(writeToLogger:230)] I have been disassociated from job #3
2017-11-02 00:44:00,911 INFO  (pool-2-thread-1) [instancei-0abccac33aefe8975(writeToLogger:230)] I have been disassociated from job #3
2017-11-02 00:44:01,314 INFO  (pool-2-thread-1) [instancei-0abccac33aefe8975(writeToLogger:230)] I have been disassociated from job #3
2017-11-02 00:44:01,452 INFO  (pool-2-thread-1) [instancei-0abccac33aefe8975(writeToLogger:230)] I have been disassociated from job #3
2017-11-02 00:44:01,593 INFO  (pool-2-thread-1) [instancei-0abccac33aefe8975(writeToLogger:230)] I have been disassociated from job #3
2017-11-02 00:44:01,746 INFO  (pool-2-thread-1) [instancei-0abccac33aefe8975(writeToLogger:230)] I have been disassociated from job #3
2017-11-02 00:44:01,891 INFO  (pool-2-thread-1) [instancei-0abccac33aefe8975(writeToLogger:230)] I have been disassociated from job #3
2017-11-02 00:44:02,033 INFO  (pool-2-thread-1) [instancei-0abccac33aefe8975(writeToLogger:230)] I have been disassociated from job #3
2017-11-02 00:44:02,181 INFO  (pool-2-thread-1) [instancei-0abccac33aefe8975(writeToLogger:230)] I have been disassociated from job #3
2017-11-02 00:44:02,326 INFO  (pool-2-thread-1) [instancei-0abccac33aefe8975(writeToLogger:230)] I have been disassociated from job #3
2017-11-02 00:44:02,484 INFO  (pool-2-thread-1) [instancei-0abccac33aefe8975(writeToLogger:230)] I have been disassociated from job #3
2017-11-02 00:44:02,634 INFO  (pool-2-thread-1) [instancei-0abccac33aefe8975(writeToLogger:230)] I have been disassociated from job #3
2017-11-02 00:44:02,772 INFO  (pool-2-thread-1) [instancei-0abccac33aefe8975(writeToLogger:230)] I have been disassociated from job #3
2017-11-02 00:44:02,911 INFO  (pool-2-thread-1) [instancei-0abccac33aefe8975(writeToLogger:230)] I have been disassociated from job #3
2017-11-02 00:44:03,050 INFO  (pool-2-thread-1) [instancei-0abccac33aefe8975(writeToLogger:230)] I have been disassociated from job #3
2017-11-02 00:44:03,196 INFO  (pool-2-thread-1) [instancei-0abccac33aefe8975(writeToLogger:230)] I have been disassociated from job #3
2017-11-02 00:44:03,337 INFO  (pool-2-thread-1) [instancei-0abccac33aefe8975(writeToLogger:230)] I have been disassociated from job #3
2017-11-02 00:44:03,478 INFO  (pool-2-thread-1) [instancei-0abccac33aefe8975(writeToLogger:230)] I have been disassociated from job #3
2017-11-02 00:44:03,618 INFO  (pool-2-thread-1) [instancei-0abccac33aefe8975(writeToLogger:230)] I have been disassociated from job #3
2017-11-02 00:44:03,764 INFO  (pool-2-thread-1) [instancei-0abccac33aefe8975(writeToLogger:230)] I have been disassociated from job #3
2017-11-02 00:44:03,911 INFO  (pool-2-thread-1) [instancei-0abccac33aefe8975(writeToLogger:230)] I have been disassociated from job #3
2017-11-02 00:44:04,073 INFO  (pool-2-thread-1) [instancei-0abccac33aefe8975(writeToLogger:230)] I have been disassociated from job #3
2017-11-02 00:44:04,212 INFO  (pool-2-thread-1) [instancei-0abccac33aefe8975(writeToLogger:230)] I have been disassociated from job #3
2017-11-02 00:44:04,367 INFO  (pool-2-thread-1) [instancei-0abccac33aefe8975(writeToLogger:230)] I have been disassociated from job #3
2017-11-02 00:44:04,505 INFO  (pool-2-thread-1) [instancei-0abccac33aefe8975(writeToLogger:230)] I have been disassociated from job #3
2017-11-02 00:44:04,642 INFO  (pool-2-thread-1) [instancei-0abccac33aefe8975(writeToLogger:230)] I have been disassociated from job #3
2017-11-02 00:44:04,777 INFO  (pool-2-thread-1) [instancei-0abccac33aefe8975(writeToLogger:230)] I have been disassociated from job #3
2017-11-02 00:44:04,923 INFO  (pool-2-thread-1) [instancei-0abccac33aefe8975(writeToLogger:230)] I have been disassociated from job #3
2017-11-02 00:44:05,066 INFO  (pool-2-thread-1) [instancei-0abccac33aefe8975(writeToLogger:230)] I have been disassociated from job #3
2017-11-02 00:44:05,207 INFO  (pool-2-thread-1) [instancei-0abccac33aefe8975(writeToLogger:230)] I have been disassociated from job #3
2017-11-02 00:44:05,346 INFO  (pool-2-thread-1) [instancei-0abccac33aefe8975(writeToLogger:230)] I have been disassociated from job #3
2017-11-02 00:44:05,494 INFO  (pool-2-thread-1) [instancei-0abccac33aefe8975(writeToLogger:230)] I have been disassociated from job #3
2017-11-02 00:44:05,706 INFO  (pool-2-thread-1) [instancei-0abccac33aefe8975(writeToLogger:230)] I have been disassociated from job #3
2017-11-02 00:44:05,842 INFO  (pool-2-thread-1) [instancei-0abccac33aefe8975(writeToLogger:230)] I have been disassociated from job #3
2017-11-02 00:44:05,982 INFO  (pool-2-thread-1) [instancei-0abccac33aefe8975(writeToLogger:230)] I have been disassociated from job #3
2017-11-02 00:44:06,128 INFO  (pool-2-thread-1) [instancei-0abccac33aefe8975(writeToLogger:230)] I have been disassociated from job #3
2017-11-02 00:44:06,276 INFO  (pool-2-thread-1) [instancei-0abccac33aefe8975(writeToLogger:230)] I have been disassociated from job #3
2017-11-02 00:44:06,419 INFO  (pool-2-thread-1) [instancei-0abccac33aefe8975(writeToLogger:230)] I have been disassociated from job #3
2017-11-02 00:44:06,559 INFO  (pool-2-thread-1) [instancei-0abccac33aefe8975(writeToLogger:230)] I have been disassociated from job #3
2017-11-02 00:44:06,712 INFO  (pool-2-thread-1) [instancei-0abccac33aefe8975(writeToLogger:230)] I have been disassociated from job #3
2017-11-02 00:44:06,851 INFO  (pool-2-thread-1) [instancei-0abccac33aefe8975(writeToLogger:230)] I have been disassociated from job #3
2017-11-02 00:44:06,996 INFO  (pool-2-thread-1) [instancei-0abccac33aefe8975(writeToLogger:230)] I have been disassociated from job #3
2017-11-02 00:44:07,138 INFO  (pool-2-thread-1) [instancei-0abccac33aefe8975(writeToLogger:230)] I have been disassociated from job #3
2017-11-02 00:44:07,281 INFO  (pool-2-thread-1) [instancei-0abccac33aefe8975(writeToLogger:230)] I have been disassociated from job #3
2017-11-02 00:44:07,454 INFO  (pool-2-thread-1) [instancei-0abccac33aefe8975(writeToLogger:230)] I have been disassociated from job #3
2017-11-02 00:44:07,598 INFO  (pool-2-thread-1) [instancei-0abccac33aefe8975(writeToLogger:230)] I have been disassociated from job #3
2017-11-02 00:44:07,739 INFO  (pool-2-thread-1) [instancei-0abccac33aefe8975(writeToLogger:230)] I have been disassociated from job #3
2017-11-02 00:44:07,900 INFO  (pool-2-thread-1) [instancei-0abccac33aefe8975(writeToLogger:230)] I have been disassociated from job #3
2017-11-02 00:44:08,038 INFO  (pool-2-thread-1) [instancei-0abccac33aefe8975(writeToLogger:230)] I have been disassociated from job #3
2017-11-02 00:44:08,200 INFO  (pool-2-thread-1) [instancei-0abccac33aefe8975(writeToLogger:230)] I have been disassociated from job #3
2017-11-02 00:44:08,358 INFO  (pool-2-thread-1) [instancei-0abccac33aefe8975(writeToLogger:230)] I have been disassociated from job #3
2017-11-02 00:44:08,495 INFO  (pool-2-thread-1) [instancei-0abccac33aefe8975(writeToLogger:230)] I have been disassociated from job #3
2017-11-02 00:44:08,632 INFO  (pool-2-thread-1) [instancei-0abccac33aefe8975(writeToLogger:230)] I have been disassociated from job #3
2017-11-02 00:44:08,767 INFO  (pool-2-thread-1) [instancei-0abccac33aefe8975(writeToLogger:230)] I have been disassociated from job #3
2017-11-02 00:44:08,905 INFO  (pool-2-thread-1) [instancei-0abccac33aefe8975(writeToLogger:230)] I have been disassociated from job #3
2017-11-02 00:44:09,068 INFO  (pool-2-thread-1) [instancei-0abccac33aefe8975(writeToLogger:230)] I have been disassociated from job #3
2017-11-02 00:44:09,203 INFO  (pool-2-thread-1) [instancei-0abccac33aefe8975(writeToLogger:230)] I have been disassociated from job #3
2017-11-02 00:44:09,346 INFO  (pool-2-thread-1) [instancei-0abccac33aefe8975(writeToLogger:230)] I have been disassociated from job #3
2017-11-02 00:44:09,484 INFO  (pool-2-thread-1) [instancei-0abccac33aefe8975(writeToLogger:230)] I have been disassociated from job #3
2017-11-02 00:44:09,631 INFO  (pool-2-thread-1) [instancei-0abccac33aefe8975(writeToLogger:230)] I have been disassociated from job #3
2017-11-02 00:44:09,775 INFO  (pool-2-thread-1) [instancei-0abccac33aefe8975(writeToLogger:230)] I have been disassociated from job #3
2017-11-02 00:44:09,921 INFO  (pool-2-thread-1) [instancei-0abccac33aefe8975(writeToLogger:230)] I have been disassociated from job #3
2017-11-02 00:44:10,065 INFO  (pool-2-thread-1) [instancei-0abccac33aefe8975(writeToLogger:230)] I have been disassociated from job #3
2017-11-02 00:44:10,205 INFO  (pool-2-thread-1) [instancei-0abccac33aefe8975(writeToLogger:230)] I have been disassociated from job #3
2017-11-02 00:44:10,351 INFO  (pool-2-thread-1) [instancei-0abccac33aefe8975(writeToLogger:230)] I have been disassociated from job #3
2017-11-02 00:44:10,492 INFO  (pool-2-thread-1) [instancei-0abccac33aefe8975(writeToLogger:230)] I have been disassociated from job #3
2017-11-02 00:44:10,648 INFO  (pool-2-thread-1) [instancei-0abccac33aefe8975(writeToLogger:230)] I have been disassociated from job #3
2017-11-02 00:44:10,786 INFO  (pool-2-thread-1) [instancei-0abccac33aefe8975(writeToLogger:230)] I have been disassociated from job #3
2017-11-02 00:44:10,933 INFO  (pool-2-thread-1) [instancei-0abccac33aefe8975(writeToLogger:230)] I have been disassociated from job #3
2017-11-02 00:44:11,080 INFO  (pool-2-thread-1) [instancei-0abccac33aefe8975(writeToLogger:230)] I have been disassociated from job #3
2017-11-02 00:44:11,218 INFO  (pool-2-thread-1) [instancei-0abccac33aefe8975(writeToLogger:230)] I have been disassociated from job #3
2017-11-02 00:44:11,365 INFO  (pool-2-thread-1) [instancei-0abccac33aefe8975(writeToLogger:230)] I have been disassociated from job #3
2017-11-02 00:44:11,502 INFO  (pool-2-thread-1) [instancei-0abccac33aefe8975(writeToLogger:230)] I have been disassociated from job #3
2017-11-02 00:44:11,644 INFO  (pool-2-thread-1) [instancei-0abccac33aefe8975(writeToLogger:230)] I have been disassociated from job #3
2017-11-02 00:44:11,782 INFO  (pool-2-thread-1) [instancei-0abccac33aefe8975(writeToLogger:230)] I have been disassociated from job #3
2017-11-02 00:44:11,919 INFO  (pool-2-thread-1) [instancei-0abccac33aefe8975(writeToLogger:230)] I have been disassociated from job #3
2017-11-02 00:44:12,069 INFO  (pool-2-thread-1) [instancei-0abccac33aefe8975(writeToLogger:230)] I have been disassociated from job #3
2017-11-02 00:44:12,211 INFO  (pool-2-thread-1) [instancei-0abccac33aefe8975(writeToLogger:230)] I have been disassociated from job #3
2017-11-02 00:44:12,850 INFO  (pool-2-thread-1) [instancei-0abccac33aefe8975(writeToLogger:230)] I have been disassociated from job #3
2017-11-02 00:44:13,001 INFO  (pool-2-thread-1) [instancei-0abccac33aefe8975(writeToLogger:230)] I have been disassociated from job #3
2017-11-02 00:44:13,874 INFO  (pool-2-thread-1) [instancei-0abccac33aefe8975(writeToLogger:230)] I have been disassociated from job #3
2017-11-02 00:44:14,055 INFO  (pool-2-thread-1) [instancei-0abccac33aefe8975(writeToLogger:230)] I have been disassociated from job #3
2017-11-02 00:44:14,211 INFO  (pool-2-thread-1) [instancei-0abccac33aefe8975(writeToLogger:230)] I have been disassociated from job #3
2017-11-02 00:44:14,372 INFO  (pool-2-thread-1) [instancei-0abccac33aefe8975(writeToLogger:230)] I have been disassociated from job #3
2017-11-02 00:44:14,511 INFO  (pool-2-thread-1) [instancei-0abccac33aefe8975(writeToLogger:230)] I have been disassociated from job #3
2017-11-02 00:44:14,654 INFO  (pool-2-thread-1) [instancei-0abccac33aefe8975(writeToLogger:230)] I have been disassociated from job #3
2017-11-02 00:44:14,798 INFO  (pool-2-thread-1) [instancei-0abccac33aefe8975(writeToLogger:230)] I have been disassociated from job #3
2017-11-02 00:44:14,949 INFO  (pool-2-thread-1) [instancei-0abccac33aefe8975(writeToLogger:230)] I have been disassociated from job #3
2017-11-02 00:44:15,126 INFO  (pool-2-thread-1) [instancei-0abccac33aefe8975(writeToLogger:230)] I have been disassociated from job #3
2017-11-02 00:44:15,270 INFO  (pool-2-thread-1) [instancei-0abccac33aefe8975(writeToLogger:230)] I have been disassociated from job #3
2017-11-02 00:44:15,482 INFO  (pool-2-thread-1) [instancei-0abccac33aefe8975(writeToLogger:230)] I have been disassociated from job #3
2017-11-02 00:44:15,623 INFO  (pool-2-thread-1) [instancei-0abccac33aefe8975(writeToLogger:230)] I have been disassociated from job #3
2017-11-02 00:44:15,777 INFO  (pool-2-thread-1) [instancei-0abccac33aefe8975(writeToLogger:230)] I have been disassociated from job #3
2017-11-02 00:44:15,922 INFO  (pool-2-thread-1) [instancei-0abccac33aefe8975(writeToLogger:230)] I have been disassociated from job #3
2017-11-02 00:44:16,062 INFO  (pool-2-thread-1) [instancei-0abccac33aefe8975(writeToLogger:230)] I have been disassociated from job #3
2017-11-02 00:44:16,205 INFO  (pool-2-thread-1) [instancei-0abccac33aefe8975(writeToLogger:230)] I have been disassociated from job #3
2017-11-02 00:44:16,376 INFO  (pool-2-thread-1) [instancei-0abccac33aefe8975(writeToLogger:230)] I have been disassociated from job #3
2017-11-02 00:44:16,526 INFO  (pool-2-thread-1) [instancei-0abccac33aefe8975(writeToLogger:230)] I have been disassociated from job #3
2017-11-02 00:44:16,676 INFO  (pool-2-thread-1) [instancei-0abccac33aefe8975(writeToLogger:230)] I have been disassociated from job #3
2017-11-02 00:44:16,868 INFO  (pool-2-thread-1) [instancei-0abccac33aefe8975(writeToLogger:230)] I have been disassociated from job #3
2017-11-02 00:44:17,020 INFO  (pool-2-thread-1) [instancei-0abccac33aefe8975(writeToLogger:230)] I have been disassociated from job #3
2017-11-02 00:44:17,190 INFO  (pool-2-thread-1) [instancei-0abccac33aefe8975(writeToLogger:230)] I have been disassociated from job #3
2017-11-02 00:44:17,336 INFO  (pool-2-thread-1) [instancei-0abccac33aefe8975(writeToLogger:230)] I have been disassociated from job #3
2017-11-02 00:44:17,524 INFO  (pool-2-thread-1) [instancei-0abccac33aefe8975(writeToLogger:230)] I have been disassociated from job #3
2017-11-02 00:44:17,666 INFO  (pool-2-thread-1) [instancei-0abccac33aefe8975(writeToLogger:230)] I have been disassociated from job #3
2017-11-02 00:44:17,852 INFO  (pool-2-thread-1) [instancei-0abccac33aefe8975(writeToLogger:230)] I have been disassociated from job #3
2017-11-02 00:44:17,991 INFO  (pool-2-thread-1) [instancei-0abccac33aefe8975(writeToLogger:230)] I have been disassociated from job #3
2017-11-02 00:44:18,195 INFO  (pool-2-thread-1) [instancei-0abccac33aefe8975(writeToLogger:230)] I have been disassociated from job #3
2017-11-02 00:44:18,338 INFO  (pool-2-thread-1) [instancei-0abccac33aefe8975(writeToLogger:230)] I have been disassociated from job #3
2017-11-02 00:44:18,517 INFO  (pool-2-thread-1) [instancei-0abccac33aefe8975(writeToLogger:230)] I have been disassociated from job #3
2017-11-02 00:44:18,652 INFO  (pool-2-thread-1) [instancei-0abccac33aefe8975(writeToLogger:230)] I have been disassociated from job #3
2017-11-02 00:44:18,963 INFO  (pool-2-thread-1) [instancei-0abccac33aefe8975(writeToLogger:230)] I have been disassociated from job #3
2017-11-02 00:44:19,135 INFO  (pool-2-thread-1) [instancei-0abccac33aefe8975(writeToLogger:230)] I have been disassociated from job #3
2017-11-02 00:44:19,283 INFO  (pool-2-thread-1) [instancei-0abccac33aefe8975(writeToLogger:230)] I have been disassociated from job #3
2017-11-02 00:44:19,465 INFO  (pool-2-thread-1) [instancei-0abccac33aefe8975(writeToLogger:230)] I have been disassociated from job #3
2017-11-02 00:44:19,606 INFO  (pool-2-thread-1) [instancei-0abccac33aefe8975(writeToLogger:230)] I have been disassociated from job #3
2017-11-02 00:44:19,795 INFO  (pool-2-thread-1) [instancei-0abccac33aefe8975(writeToLogger:230)] I have been disassociated from job #3
2017-11-02 00:44:19,938 INFO  (pool-2-thread-1) [instancei-0abccac33aefe8975(writeToLogger:230)] I have been disassociated from job #3
2017-11-02 00:44:20,130 INFO  (pool-2-thread-1) [instancei-0abccac33aefe8975(writeToLogger:230)] I have been disassociated from job #3
2017-11-02 00:44:20,272 INFO  (pool-2-thread-1) [instancei-0abccac33aefe8975(writeToLogger:230)] I have been disassociated from job #3
2017-11-02 00:44:20,423 INFO  (pool-2-thread-1) [instancei-0abccac33aefe8975(writeToLogger:230)] I have been disassociated from job #3
2017-11-02 00:44:20,568 INFO  (pool-2-thread-1) [instancei-0abccac33aefe8975(writeToLogger:230)] I have been disassociated from job #3
2017-11-02 00:44:20,770 INFO  (pool-2-thread-1) [instancei-0abccac33aefe8975(writeToLogger:230)] I have been disassociated from job #3
2017-11-02 00:44:20,905 INFO  (pool-2-thread-1) [instancei-0abccac33aefe8975(writeToLogger:230)] I have been disassociated from job #3
2017-11-02 00:44:21,050 INFO  (pool-2-thread-1) [instancei-0abccac33aefe8975(writeToLogger:230)] I have been disassociated from job #3
2017-11-02 00:44:21,254 INFO  (pool-2-thread-1) [instancei-0abccac33aefe8975(writeToLogger:230)] I have been disassociated from job #3
2017-11-02 00:44:21,398 INFO  (pool-2-thread-1) [instancei-0abccac33aefe8975(writeToLogger:230)] I have been disassociated from job #3
2017-11-02 00:44:21,541 INFO  (pool-2-thread-1) [instancei-0abccac33aefe8975(writeToLogger:230)] I have been disassociated from job #3
2017-11-02 00:44:21,682 INFO  (pool-2-thread-1) [instancei-0abccac33aefe8975(writeToLogger:230)] I have been disassociated from job #3
2017-11-02 00:44:21,827 INFO  (pool-2-thread-1) [instancei-0abccac33aefe8975(writeToLogger:230)] I have been disassociated from job #3
2017-11-02 00:44:21,964 INFO  (pool-2-thread-1) [instancei-0abccac33aefe8975(writeToLogger:230)] I have been disassociated from job #3
2017-11-02 00:44:22,113 INFO  (pool-2-thread-1) [instancei-0abccac33aefe8975(writeToLogger:230)] I have been disassociated from job #3
2017-11-02 00:44:22,253 INFO  (pool-2-thread-1) [instancei-0abccac33aefe8975(writeToLogger:230)] I have been disassociated from job #3
2017-11-02 00:44:22,398 INFO  (pool-2-thread-1) [instancei-0abccac33aefe8975(writeToLogger:230)] I have been disassociated from job #3
2017-11-02 00:44:22,535 INFO  (pool-2-thread-1) [instancei-0abccac33aefe8975(writeToLogger:230)] I have been disassociated from job #3
2017-11-02 00:44:22,678 INFO  (pool-2-thread-1) [instancei-0abccac33aefe8975(writeToLogger:230)] I have been disassociated from job #3
2017-11-02 00:44:22,816 INFO  (pool-2-thread-1) [instancei-0abccac33aefe8975(writeToLogger:230)] I have been disassociated from job #3
2017-11-02 00:44:22,960 INFO  (pool-2-thread-1) [instancei-0abccac33aefe8975(writeToLogger:230)] I have been disassociated from job #3
2017-11-02 00:44:23,098 INFO  (pool-2-thread-1) [instancei-0abccac33aefe8975(writeToLogger:230)] I have been disassociated from job #3
2017-11-02 00:44:23,548 INFO  (pool-2-thread-1) [instancei-0abccac33aefe8975(writeToLogger:230)] I have been disassociated from job #3
2017-11-02 00:44:23,699 INFO  (pool-2-thread-1) [instancei-0abccac33aefe8975(writeToLogger:230)] I have been disassociated from job #3
2017-11-02 00:44:23,856 INFO  (pool-2-thread-1) [instancei-0abccac33aefe8975(writeToLogger:230)] I have been disassociated from job #3
2017-11-02 00:44:24,007 INFO  (pool-2-thread-1) [instancei-0abccac33aefe8975(writeToLogger:230)] I have been disassociated from job #3
2017-11-02 00:44:24,152 INFO  (pool-2-thread-1) [instancei-0abccac33aefe8975(writeToLogger:230)] I have been disassociated from job #3
2017-11-02 00:44:24,292 INFO  (pool-2-thread-1) [instancei-0abccac33aefe8975(writeToLogger:230)] I have been disassociated from job #3
2017-11-02 00:44:24,431 INFO  (pool-2-thread-1) [instancei-0abccac33aefe8975(writeToLogger:230)] I have been disassociated from job #3
2017-11-02 00:44:24,574 INFO  (pool-2-thread-1) [instancei-0abccac33aefe8975(writeToLogger:230)] I have been disassociated from job #3
2017-11-02 00:44:24,712 INFO  (pool-2-thread-1) [instancei-0abccac33aefe8975(writeToLogger:230)] I have been disassociated from job #3
2017-11-02 00:44:24,854 INFO  (pool-2-thread-1) [instancei-0abccac33aefe8975(writeToLogger:230)] I have been disassociated from job #3
2017-11-02 00:44:24,996 INFO  (pool-2-thread-1) [instancei-0abccac33aefe8975(writeToLogger:230)] I have been disassociated from job #3
2017-11-02 00:44:25,134 INFO  (pool-2-thread-1) [instancei-0abccac33aefe8975(writeToLogger:230)] I have been disassociated from job #3
2017-11-02 00:44:25,279 INFO  (pool-2-thread-1) [instancei-0abccac33aefe8975(writeToLogger:230)] I have been disassociated from job #3
2017-11-02 00:44:25,423 INFO  (pool-2-thread-1) [instancei-0abccac33aefe8975(writeToLogger:230)] I have been disassociated from job #3
2017-11-02 00:44:25,564 INFO  (pool-2-thread-1) [instancei-0abccac33aefe8975(writeToLogger:230)] I have been disassociated from job #3
2017-11-02 00:44:25,710 INFO  (pool-2-thread-1) [instancei-0abccac33aefe8975(writeToLogger:230)] I have been disassociated from job #3
2017-11-02 00:44:25,846 INFO  (pool-2-thread-1) [instancei-0abccac33aefe8975(writeToLogger:230)] I have been disassociated from job #3
2017-11-02 00:44:25,987 INFO  (pool-2-thread-1) [instancei-0abccac33aefe8975(writeToLogger:230)] I have been disassociated from job #3
2017-11-02 00:44:26,130 INFO  (pool-2-thread-1) [instancei-0abccac33aefe8975(writeToLogger:230)] I have been disassociated from job #3
2017-11-02 00:44:26,267 INFO  (pool-2-thread-1) [instancei-0abccac33aefe8975(writeToLogger:230)] I have been disassociated from job #3
2017-11-02 00:44:26,411 INFO  (pool-2-thread-1) [instancei-0abccac33aefe8975(writeToLogger:230)] I have been disassociated from job #3
2017-11-02 00:44:26,551 INFO  (pool-2-thread-1) [instancei-0abccac33aefe8975(writeToLogger:230)] I have been disassociated from job #3
2017-11-02 00:44:26,710 INFO  (pool-2-thread-1) [instancei-0abccac33aefe8975(writeToLogger:230)] I have been disassociated from job #3
2017-11-02 00:44:26,847 INFO  (pool-2-thread-1) [instancei-0abccac33aefe8975(writeToLogger:230)] I have been disassociated from job #3
2017-11-02 00:44:26,986 INFO  (pool-2-thread-1) [instancei-0abccac33aefe8975(writeToLogger:230)] I have been disassociated from job #3
2017-11-02 00:44:27,124 INFO  (pool-2-thread-1) [instancei-0abccac33aefe8975(writeToLogger:230)] I have been disassociated from job #3
2017-11-02 00:44:27,284 INFO  (pool-2-thread-1) [instancei-0abccac33aefe8975(writeToLogger:230)] I have been disassociated from job #3
2017-11-02 00:44:27,420 INFO  (pool-2-thread-1) [instancei-0abccac33aefe8975(writeToLogger:230)] I have been disassociated from job #3
2017-11-02 00:44:27,555 INFO  (pool-2-thread-1) [instancei-0abccac33aefe8975(writeToLogger:230)] I have been disassociated from job #3
2017-11-02 00:44:27,699 INFO  (pool-2-thread-1) [instancei-0abccac33aefe8975(writeToLogger:230)] I have been disassociated from job #3
2017-11-02 00:44:27,840 INFO  (pool-2-thread-1) [instancei-0abccac33aefe8975(writeToLogger:230)] I have been disassociated from job #3
2017-11-02 00:44:27,992 INFO  (pool-2-thread-1) [instancei-0abccac33aefe8975(writeToLogger:230)] I have been disassociated from job #3
2017-11-02 00:44:28,129 INFO  (pool-2-thread-1) [instancei-0abccac33aefe8975(writeToLogger:230)] I have been disassociated from job #3
2017-11-02 00:44:28,286 INFO  (pool-2-thread-1) [instancei-0abccac33aefe8975(writeToLogger:230)] I have been disassociated from job #3
2017-11-02 00:44:28,427 INFO  (pool-2-thread-1) [instancei-0abccac33aefe8975(writeToLogger:230)] I have been disassociated from job #3
2017-11-02 00:44:28,569 INFO  (pool-2-thread-1) [instancei-0abccac33aefe8975(writeToLogger:230)] I have been disassociated from job #3
2017-11-02 00:44:28,709 INFO  (pool-2-thread-1) [instancei-0abccac33aefe8975(writeToLogger:230)] I have been disassociated from job #3
2017-11-02 00:44:28,848 INFO  (pool-2-thread-1) [instancei-0abccac33aefe8975(writeToLogger:230)] I have been disassociated from job #3
2017-11-02 00:44:29,103 INFO  (pool-2-thread-1) [instancei-0abccac33aefe8975(writeToLogger:230)] I have been disassociated from job #3
2017-11-02 00:44:29,780 INFO  (pool-2-thread-1) [instancei-0abccac33aefe8975(writeToLogger:230)] I have been disassociated from job #3
2017-11-02 00:44:29,922 INFO  (pool-2-thread-1) [instancei-0abccac33aefe8975(writeToLogger:230)] I have been disassociated from job #3
2017-11-02 00:44:30,062 INFO  (pool-2-thread-1) [instancei-0abccac33aefe8975(writeToLogger:230)] I have been disassociated from job #3
2017-11-02 00:44:30,208 INFO  (pool-2-thread-1) [instancei-0abccac33aefe8975(writeToLogger:230)] I have been disassociated from job #3
2017-11-02 00:44:30,353 INFO  (pool-2-thread-1) [instancei-0abccac33aefe8975(writeToLogger:230)] I have been disassociated from job #3
2017-11-02 00:44:30,500 INFO  (pool-2-thread-1) [instancei-0abccac33aefe8975(writeToLogger:230)] I have been disassociated from job #3
2017-11-02 00:44:30,648 INFO  (pool-2-thread-1) [instancei-0abccac33aefe8975(writeToLogger:230)] I have been disassociated from job #3
2017-11-02 00:44:30,792 INFO  (pool-2-thread-1) [instancei-0abccac33aefe8975(writeToLogger:230)] I have been disassociated from job #3
2017-11-02 00:44:30,950 INFO  (pool-2-thread-1) [instancei-0abccac33aefe8975(writeToLogger:230)] I have been disassociated from job #3
2017-11-02 00:44:31,090 INFO  (pool-2-thread-1) [instancei-0abccac33aefe8975(writeToLogger:230)] I have been disassociated from job #3
2017-11-02 00:44:31,236 INFO  (pool-2-thread-1) [instancei-0abccac33aefe8975(writeToLogger:230)] I have been disassociated from job #3
2017-11-02 00:44:31,381 INFO  (pool-2-thread-1) [instancei-0abccac33aefe8975(writeToLogger:230)] I have been disassociated from job #3
2017-11-02 00:44:31,535 INFO  (pool-2-thread-1) [instancei-0abccac33aefe8975(writeToLogger:230)] I have been disassociated from job #3
2017-11-02 00:44:31,684 INFO  (pool-2-thread-1) [instancei-0abccac33aefe8975(writeToLogger:230)] I have been disassociated from job #3
2017-11-02 00:44:31,832 INFO  (pool-2-thread-1) [instancei-0abccac33aefe8975(writeToLogger:230)] I have been disassociated from job #3
2017-11-02 00:44:31,979 INFO  (pool-2-thread-1) [instancei-0abccac33aefe8975(writeToLogger:230)] I have been disassociated from job #3
2017-11-02 00:44:32,121 INFO  (pool-2-thread-1) [instancei-0abccac33aefe8975(writeToLogger:230)] I have been disassociated from job #3
2017-11-02 00:44:32,262 INFO  (pool-2-thread-1) [instancei-0abccac33aefe8975(writeToLogger:230)] I have been disassociated from job #3
2017-11-02 00:44:32,400 INFO  (pool-2-thread-1) [instancei-0abccac33aefe8975(writeToLogger:230)] I have been disassociated from job #3
2017-11-02 00:44:32,559 INFO  (pool-2-thread-1) [instancei-0abccac33aefe8975(writeToLogger:230)] I have been disassociated from job #3
2017-11-02 00:44:32,703 INFO  (pool-2-thread-1) [instancei-0abccac33aefe8975(writeToLogger:230)] I have been disassociated from job #3
2017-11-02 00:44:32,853 INFO  (pool-2-thread-1) [instancei-0abccac33aefe8975(writeToLogger:230)] I have been disassociated from job #3
2017-11-02 00:44:33,196 INFO  (pool-2-thread-1) [instancei-0abccac33aefe8975(writeToLogger:230)] I have been disassociated from job #3
2017-11-02 00:44:33,340 INFO  (pool-2-thread-1) [instancei-0abccac33aefe8975(writeToLogger:230)] I have been disassociated from job #3
2017-11-02 00:44:33,485 INFO  (pool-2-thread-1) [instancei-0abccac33aefe8975(writeToLogger:230)] I have been disassociated from job #3
2017-11-02 00:44:33,627 INFO  (pool-2-thread-1) [instancei-0abccac33aefe8975(writeToLogger:230)] I have been disassociated from job #3
2017-11-02 00:44:33,779 INFO  (pool-2-thread-1) [instancei-0abccac33aefe8975(writeToLogger:230)] I have been disassociated from job #3
2017-11-02 00:44:33,932 INFO  (pool-2-thread-1) [instancei-0abccac33aefe8975(writeToLogger:230)] I have been disassociated from job #3
2017-11-02 00:44:34,081 INFO  (pool-2-thread-1) [instancei-0abccac33aefe8975(writeToLogger:230)] I have been disassociated from job #3
2017-11-02 00:44:34,464 INFO  (pool-2-thread-1) [instancei-0abccac33aefe8975(writeToLogger:230)] I have been disassociated from job #3
2017-11-02 00:44:34,627 INFO  (pool-2-thread-1) [instancei-0abccac33aefe8975(writeToLogger:230)] I have been disassociated from job #3
2017-11-02 00:44:34,772 INFO  (pool-2-thread-1) [instancei-0abccac33aefe8975(writeToLogger:230)] I have been disassociated from job #3
2017-11-02 00:44:34,924 INFO  (pool-2-thread-1) [instancei-0abccac33aefe8975(writeToLogger:230)] I have been disassociated from job #3
2017-11-02 00:44:35,085 INFO  (pool-2-thread-1) [instancei-0abccac33aefe8975(writeToLogger:230)] I have been disassociated from job #3
2017-11-02 00:44:35,225 INFO  (pool-2-thread-1) [instancei-0abccac33aefe8975(writeToLogger:230)] I have been disassociated from job #3
2017-11-02 00:44:35,369 INFO  (pool-2-thread-1) [instancei-0abccac33aefe8975(writeToLogger:230)] I have been disassociated from job #3
2017-11-02 00:44:35,511 INFO  (pool-2-thread-1) [instancei-0abccac33aefe8975(writeToLogger:230)] I have been disassociated from job #3
2017-11-02 00:44:35,660 INFO  (pool-2-thread-1) [instancei-0abccac33aefe8975(writeToLogger:230)] I have been disassociated from job #3
2017-11-02 00:44:35,804 INFO  (pool-2-thread-1) [instancei-0abccac33aefe8975(writeToLogger:230)] I have been disassociated from job #3
2017-11-02 00:44:35,945 INFO  (pool-2-thread-1) [instancei-0abccac33aefe8975(writeToLogger:230)] I have been disassociated from job #3
2017-11-02 00:44:36,103 INFO  (pool-2-thread-1) [instancei-0abccac33aefe8975(writeToLogger:230)] I have been disassociated from job #3
2017-11-02 00:44:36,245 INFO  (pool-2-thread-1) [instancei-0abccac33aefe8975(writeToLogger:230)] I have been disassociated from job #3
2017-11-02 00:44:36,474 INFO  (pool-2-thread-1) [instancei-0abccac33aefe8975(writeToLogger:230)] I have been disassociated from job #3
2017-11-02 00:44:36,632 INFO  (pool-2-thread-1) [instancei-0abccac33aefe8975(writeToLogger:230)] I have been disassociated from job #3
2017-11-02 00:44:36,774 INFO  (pool-2-thread-1) [instancei-0abccac33aefe8975(writeToLogger:230)] I have been disassociated from job #3
2017-11-02 00:44:36,919 INFO  (pool-2-thread-1) [instancei-0abccac33aefe8975(writeToLogger:230)] I have been disassociated from job #3
2017-11-02 00:44:37,065 INFO  (pool-2-thread-1) [instancei-0abccac33aefe8975(writeToLogger:230)] I have been disassociated from job #3
2017-11-02 00:44:37,212 INFO  (pool-2-thread-1) [instancei-0abccac33aefe8975(writeToLogger:230)] I have been disassociated from job #3
2017-11-02 00:44:37,360 INFO  (pool-2-thread-1) [instancei-0abccac33aefe8975(writeToLogger:230)] I have been disassociated from job #3
2017-11-02 00:44:37,548 INFO  (pool-2-thread-1) [instancei-0abccac33aefe8975(writeToLogger:230)] I have been disassociated from job #3
2017-11-02 00:44:37,689 INFO  (pool-2-thread-1) [instancei-0abccac33aefe8975(writeToLogger:230)] I have been disassociated from job #3
2017-11-02 00:44:37,828 INFO  (pool-2-thread-1) [instancei-0abccac33aefe8975(writeToLogger:230)] I have been disassociated from job #3
2017-11-02 00:44:37,971 INFO  (pool-2-thread-1) [instancei-0abccac33aefe8975(writeToLogger:230)] I have been disassociated from job #3
2017-11-02 00:44:38,113 INFO  (pool-2-thread-1) [instancei-0abccac33aefe8975(writeToLogger:230)] I have been disassociated from job #3
2017-11-02 00:44:38,257 INFO  (pool-2-thread-1) [instancei-0abccac33aefe8975(writeToLogger:230)] I have been disassociated from job #3
2017-11-02 00:44:38,396 INFO  (pool-2-thread-1) [instancei-0abccac33aefe8975(writeToLogger:230)] I have been disassociated from job #3
2017-11-02 00:44:38,538 INFO  (pool-2-thread-1) [instancei-0abccac33aefe8975(writeToLogger:230)] I have been disassociated from job #3
2017-11-02 00:44:38,681 INFO  (pool-2-thread-1) [instancei-0abccac33aefe8975(writeToLogger:230)] I have been disassociated from job #3
2017-11-02 00:44:38,822 INFO  (pool-2-thread-1) [instancei-0abccac33aefe8975(writeToLogger:230)] I have been disassociated from job #3
2017-11-02 00:44:38,967 INFO  (pool-2-thread-1) [instancei-0abccac33aefe8975(writeToLogger:230)] I have been disassociated from job #3
2017-11-02 00:44:39,114 INFO  (pool-2-thread-1) [instancei-0abccac33aefe8975(writeToLogger:230)] I have been disassociated from job #3
2017-11-02 00:44:39,256 INFO  (pool-2-thread-1) [instancei-0abccac33aefe8975(writeToLogger:230)] I have been disassociated from job #3
2017-11-02 00:44:39,395 INFO  (pool-2-thread-1) [instancei-0abccac33aefe8975(writeToLogger:230)] I have been disassociated from job #3
2017-11-02 00:44:39,536 INFO  (pool-2-thread-1) [instancei-0abccac33aefe8975(writeToLogger:230)] I have been disassociated from job #3
2017-11-02 00:44:39,673 INFO  (pool-2-thread-1) [instancei-0abccac33aefe8975(writeToLogger:230)] I have been disassociated from job #3
2017-11-02 00:44:39,811 INFO  (pool-2-thread-1) [instancei-0abccac33aefe8975(writeToLogger:230)] I have been disassociated from job #3
2017-11-02 00:44:39,971 INFO  (pool-2-thread-1) [instancei-0abccac33aefe8975(writeToLogger:230)] I have been disassociated from job #3
2017-11-02 00:44:40,110 INFO  (pool-2-thread-1) [instancei-0abccac33aefe8975(writeToLogger:230)] I have been disassociated from job #3
2017-11-02 00:44:40,250 INFO  (pool-2-thread-1) [instancei-0abccac33aefe8975(writeToLogger:230)] I have been disassociated from job #3
2017-11-02 00:44:40,405 INFO  (pool-2-thread-1) [instancei-0abccac33aefe8975(writeToLogger:230)] I have been disassociated from job #3
2017-11-02 00:44:40,558 INFO  (pool-2-thread-1) [instancei-0abccac33aefe8975(writeToLogger:230)] I have been disassociated from job #3
2017-11-02 00:44:40,715 INFO  (pool-2-thread-1) [instancei-0abccac33aefe8975(writeToLogger:230)] I have been disassociated from job #3
2017-11-02 00:44:40,856 INFO  (pool-2-thread-1) [instancei-0abccac33aefe8975(writeToLogger:230)] I have been disassociated from job #3
2017-11-02 00:44:40,994 INFO  (pool-2-thread-1) [instancei-0abccac33aefe8975(writeToLogger:230)] I have been disassociated from job #3
2017-11-02 00:44:41,141 INFO  (pool-2-thread-1) [instancei-0abccac33aefe8975(writeToLogger:230)] I have been disassociated from job #3
2017-11-02 00:44:41,291 INFO  (pool-2-thread-1) [instancei-0abccac33aefe8975(writeToLogger:230)] I have been disassociated from job #3
2017-11-02 00:44:41,452 INFO  (pool-2-thread-1) [instancei-0abccac33aefe8975(writeToLogger:230)] I have been disassociated from job #3
2017-11-02 00:44:41,595 INFO  (pool-2-thread-1) [instancei-0abccac33aefe8975(writeToLogger:230)] I have been disassociated from job #3
2017-11-02 00:44:41,738 INFO  (pool-2-thread-1) [instancei-0abccac33aefe8975(writeToLogger:230)] I have been disassociated from job #3
2017-11-02 00:44:41,886 INFO  (pool-2-thread-1) [instancei-0abccac33aefe8975(writeToLogger:230)] I have been disassociated from job #3
2017-11-02 00:44:42,036 INFO  (pool-2-thread-1) [instancei-0abccac33aefe8975(writeToLogger:230)] I have been disassociated from job #3
2017-11-02 00:44:42,186 INFO  (pool-2-thread-1) [instancei-0abccac33aefe8975(writeToLogger:230)] I have been disassociated from job #3
2017-11-02 00:44:42,338 INFO  (pool-2-thread-1) [instancei-0abccac33aefe8975(writeToLogger:230)] I have been disassociated from job #3
2017-11-02 00:44:42,482 INFO  (pool-2-thread-1) [instancei-0abccac33aefe8975(writeToLogger:230)] I have been disassociated from job #3
2017-11-02 00:44:42,635 INFO  (pool-2-thread-1) [instancei-0abccac33aefe8975(writeToLogger:230)] I have been disassociated from job #3
2017-11-02 00:44:42,786 INFO  (pool-2-thread-1) [instancei-0abccac33aefe8975(writeToLogger:230)] I have been disassociated from job #3
2017-11-02 00:44:42,949 INFO  (pool-2-thread-1) [instancei-0abccac33aefe8975(writeToLogger:230)] I have been disassociated from job #3
2017-11-02 00:44:43,087 INFO  (pool-2-thread-1) [instancei-0abccac33aefe8975(writeToLogger:230)] I have been disassociated from job #3
2017-11-02 00:44:43,231 INFO  (pool-2-thread-1) [instancei-0abccac33aefe8975(writeToLogger:230)] I have been disassociated from job #3
2017-11-02 00:44:43,369 INFO  (pool-2-thread-1) [instancei-0abccac33aefe8975(writeToLogger:230)] I have been disassociated from job #3
2017-11-02 00:44:43,506 INFO  (pool-2-thread-1) [instancei-0abccac33aefe8975(writeToLogger:230)] I have been disassociated from job #3
2017-11-02 00:44:43,656 INFO  (pool-2-thread-1) [instancei-0abccac33aefe8975(writeToLogger:230)] I have been disassociated from job #3
2017-11-02 00:44:43,794 INFO  (pool-2-thread-1) [instancei-0abccac33aefe8975(writeToLogger:230)] I have been disassociated from job #3
2017-11-02 00:44:43,936 INFO  (pool-2-thread-1) [instancei-0abccac33aefe8975(writeToLogger:230)] I have been disassociated from job #3
2017-11-02 00:44:44,077 INFO  (pool-2-thread-1) [instancei-0abccac33aefe8975(writeToLogger:230)] I have been disassociated from job #3
2017-11-02 00:44:44,218 INFO  (pool-2-thread-1) [instancei-0abccac33aefe8975(writeToLogger:230)] I have been disassociated from job #3
2017-11-02 00:44:44,365 INFO  (pool-2-thread-1) [instancei-0abccac33aefe8975(writeToLogger:230)] I have been disassociated from job #3
2017-11-02 00:44:44,504 INFO  (pool-2-thread-1) [instancei-0abccac33aefe8975(writeToLogger:230)] I have been disassociated from job #3
2017-11-02 00:44:44,646 INFO  (pool-2-thread-1) [instancei-0abccac33aefe8975(writeToLogger:230)] I have been disassociated from job #3
2017-11-02 00:44:44,882 INFO  (pool-2-thread-1) [instancei-0abccac33aefe8975(writeToLogger:230)] I have been disassociated from job #3
2017-11-02 00:44:45,786 INFO  (pool-2-thread-1) [instancei-0abccac33aefe8975(writeToLogger:230)] I have been disassociated from job #3
2017-11-02 00:44:46,249 INFO  (pool-2-thread-1) [instancei-0abccac33aefe8975(writeToLogger:230)] I have been disassociated from job #3
2017-11-02 00:44:46,390 INFO  (pool-2-thread-1) [instancei-0abccac33aefe8975(writeToLogger:230)] I have been disassociated from job #3
2017-11-02 00:44:46,539 INFO  (pool-2-thread-1) [instancei-0abccac33aefe8975(writeToLogger:230)] I have been disassociated from job #3
2017-11-02 00:44:46,700 INFO  (pool-2-thread-1) [instancei-0abccac33aefe8975(writeToLogger:230)] I have been disassociated from job #3
2017-11-02 00:44:46,842 INFO  (pool-2-thread-1) [instancei-0abccac33aefe8975(writeToLogger:230)] I have been disassociated from job #3
2017-11-02 00:44:46,983 INFO  (pool-2-thread-1) [instancei-0abccac33aefe8975(writeToLogger:230)] I have been disassociated from job #3
2017-11-02 00:44:47,126 INFO  (pool-2-thread-1) [instancei-0abccac33aefe8975(writeToLogger:230)] I have been disassociated from job #3
2017-11-02 00:44:47,264 INFO  (pool-2-thread-1) [instancei-0abccac33aefe8975(writeToLogger:230)] I have been disassociated from job #3
2017-11-02 00:44:47,413 INFO  (pool-2-thread-1) [instancei-0abccac33aefe8975(writeToLogger:230)] I have been disassociated from job #3
2017-11-02 00:44:47,554 INFO  (pool-2-thread-1) [instancei-0abccac33aefe8975(writeToLogger:230)] I have been disassociated from job #3
2017-11-02 00:44:47,694 INFO  (pool-2-thread-1) [instancei-0abccac33aefe8975(writeToLogger:230)] I have been disassociated from job #3
2017-11-02 00:44:47,842 INFO  (pool-2-thread-1) [instancei-0abccac33aefe8975(writeToLogger:230)] I have been disassociated from job #3
2017-11-02 00:44:47,998 INFO  (pool-2-thread-1) [instancei-0abccac33aefe8975(writeToLogger:230)] I have been disassociated from job #3
2017-11-02 00:44:48,144 INFO  (pool-2-thread-1) [instancei-0abccac33aefe8975(writeToLogger:230)] I have been disassociated from job #3
2017-11-02 00:44:48,289 INFO  (pool-2-thread-1) [instancei-0abccac33aefe8975(writeToLogger:230)] I have been disassociated from job #3
2017-11-02 00:44:48,438 INFO  (pool-2-thread-1) [instancei-0abccac33aefe8975(writeToLogger:230)] I have been disassociated from job #3
2017-11-02 00:44:48,591 INFO  (pool-2-thread-1) [instancei-0abccac33aefe8975(writeToLogger:230)] I have been disassociated from job #3
2017-11-02 00:44:48,731 INFO  (pool-2-thread-1) [instancei-0abccac33aefe8975(writeToLogger:230)] I have been disassociated from job #3
2017-11-02 00:44:48,890 INFO  (pool-2-thread-1) [instancei-0abccac33aefe8975(writeToLogger:230)] I have been disassociated from job #3
2017-11-02 00:44:49,030 INFO  (pool-2-thread-1) [instancei-0abccac33aefe8975(writeToLogger:230)] I have been disassociated from job #3
2017-11-02 00:44:49,171 INFO  (pool-2-thread-1) [instancei-0abccac33aefe8975(writeToLogger:230)] I have been disassociated from job #3
2017-11-02 00:44:49,312 INFO  (pool-2-thread-1) [instancei-0abccac33aefe8975(writeToLogger:230)] I have been disassociated from job #3
2017-11-02 00:44:49,457 INFO  (pool-2-thread-1) [instancei-0abccac33aefe8975(writeToLogger:230)] I have been disassociated from job #3
2017-11-02 00:44:49,598 INFO  (pool-2-thread-1) [instancei-0abccac33aefe8975(writeToLogger:230)] I have been disassociated from job #3
2017-11-02 00:44:49,743 INFO  (pool-2-thread-1) [instancei-0abccac33aefe8975(writeToLogger:230)] I have been disassociated from job #3
2017-11-02 00:44:49,890 INFO  (pool-2-thread-1) [instancei-0abccac33aefe8975(writeToLogger:230)] I have been disassociated from job #3
2017-11-02 00:44:50,035 INFO  (pool-2-thread-1) [instancei-0abccac33aefe8975(writeToLogger:230)] I have been disassociated from job #3
2017-11-02 00:44:50,189 INFO  (pool-2-thread-1) [instancei-0abccac33aefe8975(writeToLogger:230)] I have been disassociated from job #3
2017-11-02 00:44:50,339 INFO  (pool-2-thread-1) [instancei-0abccac33aefe8975(writeToLogger:230)] I have been disassociated from job #3
2017-11-02 00:44:50,486 INFO  (pool-2-thread-1) [instancei-0abccac33aefe8975(writeToLogger:230)] I have been disassociated from job #3
2017-11-02 00:44:50,630 INFO  (pool-2-thread-1) [instancei-0abccac33aefe8975(writeToLogger:230)] I have been disassociated from job #3
2017-11-02 00:44:50,771 INFO  (pool-2-thread-1) [instancei-0abccac33aefe8975(writeToLogger:230)] I have been disassociated from job #3
2017-11-02 00:44:50,915 INFO  (pool-2-thread-1) [instancei-0abccac33aefe8975(writeToLogger:230)] I have been disassociated from job #3
2017-11-02 00:44:51,054 INFO  (pool-2-thread-1) [instancei-0abccac33aefe8975(writeToLogger:230)] I have been disassociated from job #3
2017-11-02 00:44:51,206 INFO  (pool-2-thread-1) [instancei-0abccac33aefe8975(writeToLogger:230)] I have been disassociated from job #3
2017-11-02 00:44:51,347 INFO  (pool-2-thread-1) [instancei-0abccac33aefe8975(writeToLogger:230)] I have been disassociated from job #3
2017-11-02 00:44:51,488 INFO  (pool-2-thread-1) [instancei-0abccac33aefe8975(writeToLogger:230)] I have been disassociated from job #3
2017-11-02 00:44:51,629 INFO  (pool-2-thread-1) [instancei-0abccac33aefe8975(writeToLogger:230)] I have been disassociated from job #3
2017-11-02 00:44:51,767 INFO  (pool-2-thread-1) [instancei-0abccac33aefe8975(writeToLogger:230)] I have been disassociated from job #3
2017-11-02 00:44:51,913 INFO  (pool-2-thread-1) [instancei-0abccac33aefe8975(writeToLogger:230)] I have been disassociated from job #3
2017-11-02 00:44:52,052 INFO  (pool-2-thread-1) [instancei-0abccac33aefe8975(writeToLogger:230)] I have been disassociated from job #3
2017-11-02 00:44:52,192 INFO  (pool-2-thread-1) [instancei-0abccac33aefe8975(writeToLogger:230)] I have been disassociated from job #3
2017-11-02 00:44:52,336 INFO  (pool-2-thread-1) [instancei-0abccac33aefe8975(writeToLogger:230)] I have been disassociated from job #3
2017-11-02 00:44:52,478 INFO  (pool-2-thread-1) [instancei-0abccac33aefe8975(writeToLogger:230)] I have been disassociated from job #3
2017-11-02 00:44:52,616 INFO  (pool-2-thread-1) [instancei-0abccac33aefe8975(writeToLogger:230)] I have been disassociated from job #3
2017-11-02 00:44:52,758 INFO  (pool-2-thread-1) [instancei-0abccac33aefe8975(writeToLogger:230)] I have been disassociated from job #3
2017-11-02 00:44:52,896 INFO  (pool-2-thread-1) [instancei-0abccac33aefe8975(writeToLogger:230)] I have been disassociated from job #3
2017-11-02 00:44:53,040 INFO  (pool-2-thread-1) [instancei-0abccac33aefe8975(writeToLogger:230)] I have been disassociated from job #3
2017-11-02 00:44:53,178 INFO  (pool-2-thread-1) [instancei-0abccac33aefe8975(writeToLogger:230)] I have been disassociated from job #3
2017-11-02 00:44:53,318 INFO  (pool-2-thread-1) [instancei-0abccac33aefe8975(writeToLogger:230)] I have been disassociated from job #3
2017-11-02 00:44:53,457 INFO  (pool-2-thread-1) [instancei-0abccac33aefe8975(writeToLogger:230)] I have been disassociated from job #3
2017-11-02 00:44:53,627 INFO  (pool-2-thread-1) [instancei-0abccac33aefe8975(writeToLogger:230)] I have been disassociated from job #3
2017-11-02 00:44:53,767 INFO  (pool-2-thread-1) [instancei-0abccac33aefe8975(writeToLogger:230)] I have been disassociated from job #3
2017-11-02 00:44:53,908 INFO  (pool-2-thread-1) [instancei-0abccac33aefe8975(writeToLogger:230)] I have been disassociated from job #3
2017-11-02 00:44:54,049 INFO  (pool-2-thread-1) [instancei-0abccac33aefe8975(writeToLogger:230)] I have been disassociated from job #3
2017-11-02 00:44:54,189 INFO  (pool-2-thread-1) [instancei-0abccac33aefe8975(writeToLogger:230)] I have been disassociated from job #3
2017-11-02 00:44:54,328 INFO  (pool-2-thread-1) [instancei-0abccac33aefe8975(writeToLogger:230)] I have been disassociated from job #3
2017-11-02 00:44:54,473 INFO  (pool-2-thread-1) [instancei-0abccac33aefe8975(writeToLogger:230)] I have been disassociated from job #3
2017-11-02 00:44:54,618 INFO  (pool-2-thread-1) [instancei-0abccac33aefe8975(writeToLogger:230)] I have been disassociated from job #3
2017-11-02 00:44:54,762 INFO  (pool-2-thread-1) [instancei-0abccac33aefe8975(writeToLogger:230)] I have been disassociated from job #3
2017-11-02 00:44:54,918 INFO  (pool-2-thread-1) [instancei-0abccac33aefe8975(writeToLogger:230)] I have been disassociated from job #3
2017-11-02 00:44:55,059 INFO  (pool-2-thread-1) [instancei-0abccac33aefe8975(writeToLogger:230)] I have been disassociated from job #3
2017-11-02 00:44:55,198 INFO  (pool-2-thread-1) [instancei-0abccac33aefe8975(writeToLogger:230)] I have been disassociated from job #3
2017-11-02 00:44:55,336 INFO  (pool-2-thread-1) [instancei-0abccac33aefe8975(writeToLogger:230)] I have been disassociated from job #3
2017-11-02 00:44:55,475 INFO  (pool-2-thread-1) [instancei-0abccac33aefe8975(writeToLogger:230)] I have been disassociated from job #3
2017-11-02 00:44:55,619 INFO  (pool-2-thread-1) [instancei-0abccac33aefe8975(writeToLogger:230)] I have been disassociated from job #3
2017-11-02 00:44:55,760 INFO  (pool-2-thread-1) [instancei-0abccac33aefe8975(writeToLogger:230)] I have been disassociated from job #3
2017-11-02 00:44:55,904 INFO  (pool-2-thread-1) [instancei-0abccac33aefe8975(writeToLogger:230)] I have been disassociated from job #3
2017-11-02 00:44:56,165 INFO  (pool-2-thread-1) [instancei-0abccac33aefe8975(writeToLogger:230)] I have been disassociated from job #3
2017-11-02 00:44:56,310 INFO  (pool-2-thread-1) [instancei-0abccac33aefe8975(writeToLogger:230)] I have been disassociated from job #3
2017-11-02 00:44:56,449 INFO  (pool-2-thread-1) [instancei-0abccac33aefe8975(writeToLogger:230)] I have been disassociated from job #3
2017-11-02 00:44:56,589 INFO  (pool-2-thread-1) [instancei-0abccac33aefe8975(writeToLogger:230)] I have been disassociated from job #3
2017-11-02 00:44:56,729 INFO  (pool-2-thread-1) [instancei-0abccac33aefe8975(writeToLogger:230)] I have been disassociated from job #3
2017-11-02 00:44:56,869 INFO  (pool-2-thread-1) [instancei-0abccac33aefe8975(writeToLogger:230)] I have been disassociated from job #3
2017-11-02 00:44:57,011 INFO  (pool-2-thread-1) [instancei-0abccac33aefe8975(writeToLogger:230)] I have been disassociated from job #3
2017-11-02 00:44:57,170 INFO  (pool-2-thread-1) [instancei-0abccac33aefe8975(writeToLogger:230)] I have been disassociated from job #3
2017-11-02 00:44:57,310 INFO  (pool-2-thread-1) [instancei-0abccac33aefe8975(writeToLogger:230)] I have been disassociated from job #3
2017-11-02 00:44:57,452 INFO  (pool-2-thread-1) [instancei-0abccac33aefe8975(writeToLogger:230)] I have been disassociated from job #3
2017-11-02 00:44:57,594 INFO  (pool-2-thread-1) [instancei-0abccac33aefe8975(writeToLogger:230)] I have been disassociated from job #3
2017-11-02 00:44:57,743 INFO  (pool-2-thread-1) [instancei-0abccac33aefe8975(writeToLogger:230)] I have been disassociated from job #3
2017-11-02 00:44:57,883 INFO  (pool-2-thread-1) [instancei-0abccac33aefe8975(writeToLogger:230)] I have been disassociated from job #3
2017-11-02 00:44:58,028 INFO  (pool-2-thread-1) [instancei-0abccac33aefe8975(writeToLogger:230)] I have been disassociated from job #3
2017-11-02 00:44:58,169 INFO  (pool-2-thread-1) [instancei-0abccac33aefe8975(writeToLogger:230)] I have been disassociated from job #3
2017-11-02 00:44:58,325 INFO  (pool-2-thread-1) [instancei-0abccac33aefe8975(writeToLogger:230)] I have been disassociated from job #3
2017-11-02 00:44:58,468 INFO  (pool-2-thread-1) [instancei-0abccac33aefe8975(writeToLogger:230)] I have been disassociated from job #3
2017-11-02 00:44:58,611 INFO  (pool-2-thread-1) [instancei-0abccac33aefe8975(writeToLogger:230)] I have been disassociated from job #3
2017-11-02 00:44:58,752 INFO  (pool-2-thread-1) [instancei-0abccac33aefe8975(writeToLogger:230)] I have been disassociated from job #3
2017-11-02 00:44:58,910 INFO  (pool-2-thread-1) [instancei-0abccac33aefe8975(writeToLogger:230)] I have been disassociated from job #3
2017-11-02 00:44:59,056 INFO  (pool-2-thread-1) [instancei-0abccac33aefe8975(writeToLogger:230)] I have been disassociated from job #3
2017-11-02 00:44:59,199 INFO  (pool-2-thread-1) [instancei-0abccac33aefe8975(writeToLogger:230)] I have been disassociated from job #3
2017-11-02 00:44:59,393 INFO  (pool-2-thread-1) [instancei-0abccac33aefe8975(writeToLogger:230)] I have been disassociated from job #3
2017-11-02 00:44:59,543 INFO  (pool-2-thread-1) [instancei-0abccac33aefe8975(writeToLogger:230)] I have been disassociated from job #3
2017-11-02 00:44:59,695 INFO  (pool-2-thread-1) [instancei-0abccac33aefe8975(writeToLogger:230)] I have been disassociated from job #3
2017-11-02 00:44:59,836 INFO  (pool-2-thread-1) [instancei-0abccac33aefe8975(writeToLogger:230)] I have been disassociated from job #3
2017-11-02 00:44:59,988 INFO  (pool-2-thread-1) [instancei-0abccac33aefe8975(writeToLogger:230)] I have been disassociated from job #3
2017-11-02 00:45:00,138 INFO  (pool-2-thread-1) [instancei-0abccac33aefe8975(writeToLogger:230)] I have been disassociated from job #3
2017-11-02 00:45:00,281 INFO  (pool-2-thread-1) [instancei-0abccac33aefe8975(writeToLogger:230)] I have been disassociated from job #3
2017-11-02 00:45:00,429 INFO  (pool-2-thread-1) [instancei-0abccac33aefe8975(writeToLogger:230)] I have been disassociated from job #3
2017-11-02 00:45:00,580 INFO  (pool-2-thread-1) [instancei-0abccac33aefe8975(writeToLogger:230)] I have been disassociated from job #3
2017-11-02 00:45:01,255 INFO  (pool-2-thread-1) [instancei-0abccac33aefe8975(writeToLogger:230)] I have been disassociated from job #3
2017-11-02 00:45:01,435 INFO  (pool-2-thread-1) [instancei-0abccac33aefe8975(writeToLogger:230)] I have been disassociated from job #3
2017-11-02 00:45:01,594 INFO  (pool-2-thread-1) [instancei-0abccac33aefe8975(writeToLogger:230)] I have been disassociated from job #3
2017-11-02 00:45:01,775 INFO  (pool-2-thread-1) [instancei-0abccac33aefe8975(writeToLogger:230)] I have been disassociated from job #3
2017-11-02 00:45:01,930 INFO  (pool-2-thread-1) [instancei-0abccac33aefe8975(writeToLogger:230)] I have been disassociated from job #3
2017-11-02 00:45:02,071 INFO  (pool-2-thread-1) [instancei-0abccac33aefe8975(writeToLogger:230)] I have been disassociated from job #3
2017-11-02 00:45:02,206 INFO  (pool-2-thread-1) [instancei-0abccac33aefe8975(writeToLogger:230)] I have been disassociated from job #3
2017-11-02 00:45:02,344 INFO  (pool-2-thread-1) [instancei-0abccac33aefe8975(writeToLogger:230)] I have been disassociated from job #3
2017-11-02 00:46:11,788 INFO  (Thread-1) [instancei-0abccac33aefe8975(terminateThisInstance:158)] Closing the SSH connection
2017-11-02 00:46:11,802 INFO  (Thread-1) [instancei-0abccac33aefe8975(terminateThisInstance:160)] SSH Connection closed
2017-11-02 00:46:11,802 INFO  (Thread-1) [instancei-0abccac33aefe8975(terminateThisInstance:165)] Releasing the ElasticIP
2017-11-02 00:46:12,837 INFO  (Thread-1) [instancei-0abccac33aefe8975(terminateThisInstance:168)] ElasticIP release succesfully
2017-11-02 00:46:12,837 INFO  (Thread-1) [instancei-0abccac33aefe8975(terminateThisInstance:173)] Terminating the EC2 instance
2017-11-02 00:46:13,207 INFO  (Thread-1) [instancei-0abccac33aefe8975(terminateThisInstance:188)] EC2 instance terminated
2017-11-02 00:46:13,207 INFO  (Thread-1) [instancei-0abccac33aefe8975(terminateThisInstance:189)] Terminating Instance
 - Instance: i-0abccac33aefe8975
 - Current State: {Code: 32,Name: shutting-down}

2017-11-02 00:46:13,207 INFO  (Thread-1) [instancei-0abccac33aefe8975(terminateThisInstance:201)] My total runtime was: 648263
My active runtime was: 480940
Fractino active: 0.741890
2017-11-02 00:46:13,207 INFO  (Thread-1) [instancei-0abccac33aefe8975(terminateThisInstance:213)] Removing this instance from the resource pool
