2017-11-02 20:49:41,117 INFO  (pool-1-thread-2) [instancei-06a379c2ce9ba1cc0(writeToLogger:232)] Instance started, waiting to enter a running state
2017-11-02 20:50:02,642 INFO  (pool-1-thread-2) [instancei-06a379c2ce9ba1cc0(writeToLogger:232)] Instance has started. Will add an IP to it.
2017-11-02 20:50:06,800 INFO  (pool-1-thread-2) [instancei-06a379c2ce9ba1cc0(writeToLogger:232)] Have paired the ElasticIP to this instance. Creating an SSH connecton object for it.
2017-11-02 20:50:31,391 INFO  (pool-1-thread-2) [instancei-06a379c2ce9ba1cc0(writeToLogger:232)] SSH object attached successfully. Instance successfully created.
2017-11-02 20:50:31,391 INFO  (pool-1-thread-2) [instancei-06a379c2ce9ba1cc0(writeToLogger:232)] Adding VM instance #i-06a379c2ce9ba1cc0 to the Resource Manager
2017-11-02 20:50:31,391 INFO  (pool-1-thread-2) [instancei-06a379c2ce9ba1cc0(writeToLogger:232)] VM instance #i-06a379c2ce9ba1cc0 has been successfully added to the Resource Manager
2017-11-02 20:51:50,048 INFO  (pool-2-thread-3) [instancei-06a379c2ce9ba1cc0(writeToLogger:232)] I have been disassociated from job #8
2017-11-02 20:52:55,119 INFO  (pool-2-thread-3) [instancei-06a379c2ce9ba1cc0(writeToLogger:232)] I have been disassociated from job #12
2017-11-02 20:54:11,226 INFO  (pool-2-thread-3) [instancei-06a379c2ce9ba1cc0(writeToLogger:232)] I have been disassociated from job #16
2017-11-02 20:55:14,257 INFO  (pool-2-thread-5) [instancei-06a379c2ce9ba1cc0(writeToLogger:232)] I have been disassociated from job #19
2017-11-02 20:56:52,032 INFO  (pool-2-thread-1) [instancei-06a379c2ce9ba1cc0(writeToLogger:232)] I have been disassociated from job #26
2017-11-02 20:57:45,678 INFO  (pool-2-thread-1) [instancei-06a379c2ce9ba1cc0(writeToLogger:232)] I have been disassociated from job #30
