2017-11-03 00:31:20,040 INFO  (pool-1-thread-6) [instancei-07b87c2a89112b047(writeToLogger:232)] Instance started, waiting to enter a running state
2017-11-03 00:31:42,362 INFO  (pool-1-thread-6) [instancei-07b87c2a89112b047(writeToLogger:232)] Instance has started. Will add an IP to it.
2017-11-03 00:31:42,513 INFO  (pool-1-thread-6) [instancei-07b87c2a89112b047(writeToLogger:232)] Have paired the ElasticIP to this instance. Creating an SSH connecton object for it.
2017-11-03 00:32:07,422 INFO  (pool-1-thread-6) [instancei-07b87c2a89112b047(writeToLogger:232)] SSH object attached successfully. Instance successfully created.
2017-11-03 00:32:07,422 INFO  (pool-1-thread-6) [instancei-07b87c2a89112b047(writeToLogger:232)] Adding VM instance #i-07b87c2a89112b047 to the Resource Manager
2017-11-03 00:32:07,423 INFO  (pool-1-thread-6) [instancei-07b87c2a89112b047(writeToLogger:232)] VM instance #i-07b87c2a89112b047 has been successfully added to the Resource Manager
2017-11-03 00:33:26,519 INFO  (pool-2-thread-9) [instancei-07b87c2a89112b047(writeToLogger:232)] I have been disassociated from job #30
2017-11-03 00:34:37,120 INFO  (pool-2-thread-9) [instancei-07b87c2a89112b047(writeToLogger:232)] I have been disassociated from job #30
2017-11-03 00:35:35,541 INFO  (pool-2-thread-9) [instancei-07b87c2a89112b047(writeToLogger:232)] I have been disassociated from job #30
2017-11-03 00:35:41,306 INFO  (Thread-1) [instancei-07b87c2a89112b047(terminateThisInstance:160)] Closing the SSH connection
2017-11-03 00:35:41,307 INFO  (Thread-1) [instancei-07b87c2a89112b047(terminateThisInstance:162)] SSH Connection closed
2017-11-03 00:35:41,307 INFO  (Thread-1) [instancei-07b87c2a89112b047(terminateThisInstance:175)] Terminating the EC2 instance
2017-11-03 00:35:41,521 INFO  (Thread-1) [instancei-07b87c2a89112b047(terminateThisInstance:190)] EC2 instance terminated
2017-11-03 00:35:41,521 INFO  (Thread-1) [instancei-07b87c2a89112b047(terminateThisInstance:191)] Terminating Instance
 - Instance: i-07b87c2a89112b047
 - Current State: {Code: 32,Name: shutting-down}

2017-11-03 00:35:41,522 INFO  (Thread-1) [instancei-07b87c2a89112b047(terminateThisInstance:203)] My total runtime was: 1509665527423
My active runtime was: 199386
Fractino active: 0.000000
2017-11-03 00:35:41,522 INFO  (Thread-1) [instancei-07b87c2a89112b047(terminateThisInstance:215)] Removing this instance from the resource pool
