2017-11-02 19:15:53,767 INFO  (pool-1-thread-4) [instancei-08f4d8bacc2916fd5(writeToLogger:232)] Instance started, waiting to enter a running state
2017-11-02 19:16:14,840 INFO  (pool-1-thread-4) [instancei-08f4d8bacc2916fd5(writeToLogger:232)] Instance has started. Will add an IP to it.
2017-11-02 19:16:16,331 INFO  (pool-1-thread-4) [instancei-08f4d8bacc2916fd5(writeToLogger:232)] Have paired the ElasticIP to this instance. Creating an SSH connecton object for it.
2017-11-02 19:16:26,417 INFO  (pool-1-thread-4) [instancei-08f4d8bacc2916fd5(writeToLogger:232)] SSH object attached successfully. Instance successfully created.
2017-11-02 19:16:26,417 INFO  (pool-1-thread-4) [instancei-08f4d8bacc2916fd5(writeToLogger:232)] Adding VM instance #i-08f4d8bacc2916fd5 to the Resource Manager
2017-11-02 19:16:26,417 INFO  (pool-1-thread-4) [instancei-08f4d8bacc2916fd5(writeToLogger:232)] VM instance #i-08f4d8bacc2916fd5 has been successfully added to the Resource Manager
2017-11-02 19:16:26,620 INFO  (pool-2-thread-1) [instancei-08f4d8bacc2916fd5(writeToLogger:232)] I have been disassociated from job #2
2017-11-02 19:21:37,899 INFO  (pool-2-thread-1) [instancei-08f4d8bacc2916fd5(writeToLogger:232)] I have been disassociated from job #19
2017-11-02 19:24:56,474 INFO  (pool-2-thread-1) [instancei-08f4d8bacc2916fd5(writeToLogger:232)] I have been disassociated from job #36
2017-11-02 19:25:01,435 INFO  (pool-2-thread-1) [instancei-08f4d8bacc2916fd5(writeToLogger:232)] I have been disassociated from job #36
2017-11-02 19:28:14,526 INFO  (pool-2-thread-1) [instancei-08f4d8bacc2916fd5(writeToLogger:232)] I have been disassociated from job #40
2017-11-02 19:28:21,604 INFO  (pool-2-thread-1) [instancei-08f4d8bacc2916fd5(writeToLogger:232)] I have been disassociated from job #40
2017-11-02 19:31:48,038 INFO  (pool-2-thread-2) [instancei-08f4d8bacc2916fd5(writeToLogger:232)] I have been disassociated from job #40
2017-11-02 19:31:49,197 INFO  (pool-2-thread-2) [instancei-08f4d8bacc2916fd5(writeToLogger:232)] I have been disassociated from job #40
2017-11-02 19:31:49,488 INFO  (pool-2-thread-2) [instancei-08f4d8bacc2916fd5(writeToLogger:232)] I have been disassociated from job #40
2017-11-02 19:31:49,781 INFO  (pool-2-thread-2) [instancei-08f4d8bacc2916fd5(writeToLogger:232)] I have been disassociated from job #40
2017-11-02 19:31:50,079 INFO  (pool-2-thread-2) [instancei-08f4d8bacc2916fd5(writeToLogger:232)] I have been disassociated from job #40
2017-11-02 19:31:50,366 INFO  (pool-2-thread-2) [instancei-08f4d8bacc2916fd5(writeToLogger:232)] I have been disassociated from job #40
2017-11-02 19:31:50,655 INFO  (pool-2-thread-2) [instancei-08f4d8bacc2916fd5(writeToLogger:232)] I have been disassociated from job #40
2017-11-02 19:31:50,946 INFO  (pool-2-thread-2) [instancei-08f4d8bacc2916fd5(writeToLogger:232)] I have been disassociated from job #40
2017-11-02 19:31:51,237 INFO  (pool-2-thread-2) [instancei-08f4d8bacc2916fd5(writeToLogger:232)] I have been disassociated from job #40
2017-11-02 19:31:51,547 INFO  (pool-2-thread-2) [instancei-08f4d8bacc2916fd5(writeToLogger:232)] I have been disassociated from job #40
2017-11-02 19:31:51,844 INFO  (pool-2-thread-2) [instancei-08f4d8bacc2916fd5(writeToLogger:232)] I have been disassociated from job #40
2017-11-02 19:31:52,148 INFO  (pool-2-thread-2) [instancei-08f4d8bacc2916fd5(writeToLogger:232)] I have been disassociated from job #40
2017-11-02 19:31:52,444 INFO  (pool-2-thread-2) [instancei-08f4d8bacc2916fd5(writeToLogger:232)] I have been disassociated from job #40
2017-11-02 19:31:52,740 INFO  (pool-2-thread-2) [instancei-08f4d8bacc2916fd5(writeToLogger:232)] I have been disassociated from job #40
2017-11-02 19:31:53,034 INFO  (pool-2-thread-2) [instancei-08f4d8bacc2916fd5(writeToLogger:232)] I have been disassociated from job #40
2017-11-02 19:31:53,319 INFO  (pool-2-thread-2) [instancei-08f4d8bacc2916fd5(writeToLogger:232)] I have been disassociated from job #40
2017-11-02 19:31:53,616 INFO  (pool-2-thread-2) [instancei-08f4d8bacc2916fd5(writeToLogger:232)] I have been disassociated from job #40
2017-11-02 19:31:54,521 INFO  (pool-2-thread-2) [instancei-08f4d8bacc2916fd5(writeToLogger:232)] I have been disassociated from job #40
2017-11-02 19:31:54,814 INFO  (pool-2-thread-2) [instancei-08f4d8bacc2916fd5(writeToLogger:232)] I have been disassociated from job #40
2017-11-02 19:31:55,218 INFO  (pool-2-thread-2) [instancei-08f4d8bacc2916fd5(writeToLogger:232)] I have been disassociated from job #40
2017-11-02 19:31:55,506 INFO  (pool-2-thread-2) [instancei-08f4d8bacc2916fd5(writeToLogger:232)] I have been disassociated from job #40
2017-11-02 19:31:55,817 INFO  (pool-2-thread-2) [instancei-08f4d8bacc2916fd5(writeToLogger:232)] I have been disassociated from job #40
2017-11-02 19:31:56,116 INFO  (pool-2-thread-2) [instancei-08f4d8bacc2916fd5(writeToLogger:232)] I have been disassociated from job #40
2017-11-02 19:31:56,411 INFO  (pool-2-thread-2) [instancei-08f4d8bacc2916fd5(writeToLogger:232)] I have been disassociated from job #40
2017-11-02 19:31:56,713 INFO  (pool-2-thread-2) [instancei-08f4d8bacc2916fd5(writeToLogger:232)] I have been disassociated from job #40
2017-11-02 19:31:57,103 INFO  (pool-2-thread-2) [instancei-08f4d8bacc2916fd5(writeToLogger:232)] I have been disassociated from job #40
2017-11-02 19:31:57,412 INFO  (pool-2-thread-2) [instancei-08f4d8bacc2916fd5(writeToLogger:232)] I have been disassociated from job #40
2017-11-02 19:31:57,697 INFO  (pool-2-thread-2) [instancei-08f4d8bacc2916fd5(writeToLogger:232)] I have been disassociated from job #40
2017-11-02 19:31:57,982 INFO  (pool-2-thread-2) [instancei-08f4d8bacc2916fd5(writeToLogger:232)] I have been disassociated from job #40
2017-11-02 19:31:58,284 INFO  (pool-2-thread-2) [instancei-08f4d8bacc2916fd5(writeToLogger:232)] I have been disassociated from job #40
2017-11-02 19:31:58,577 INFO  (pool-2-thread-2) [instancei-08f4d8bacc2916fd5(writeToLogger:232)] I have been disassociated from job #40
2017-11-02 19:31:58,872 INFO  (pool-2-thread-2) [instancei-08f4d8bacc2916fd5(writeToLogger:232)] I have been disassociated from job #40
2017-11-02 19:31:59,164 INFO  (pool-2-thread-2) [instancei-08f4d8bacc2916fd5(writeToLogger:232)] I have been disassociated from job #40
2017-11-02 19:31:59,513 INFO  (pool-2-thread-2) [instancei-08f4d8bacc2916fd5(writeToLogger:232)] I have been disassociated from job #40
2017-11-02 19:31:59,803 INFO  (pool-2-thread-2) [instancei-08f4d8bacc2916fd5(writeToLogger:232)] I have been disassociated from job #40
2017-11-02 19:32:00,119 INFO  (pool-2-thread-2) [instancei-08f4d8bacc2916fd5(writeToLogger:232)] I have been disassociated from job #40
2017-11-02 19:32:00,455 INFO  (pool-2-thread-2) [instancei-08f4d8bacc2916fd5(writeToLogger:232)] I have been disassociated from job #40
2017-11-02 19:32:00,752 INFO  (pool-2-thread-2) [instancei-08f4d8bacc2916fd5(writeToLogger:232)] I have been disassociated from job #40
2017-11-02 19:32:01,062 INFO  (pool-2-thread-2) [instancei-08f4d8bacc2916fd5(writeToLogger:232)] I have been disassociated from job #40
2017-11-02 19:32:01,354 INFO  (pool-2-thread-2) [instancei-08f4d8bacc2916fd5(writeToLogger:232)] I have been disassociated from job #40
2017-11-02 19:32:01,661 INFO  (pool-2-thread-2) [instancei-08f4d8bacc2916fd5(writeToLogger:232)] I have been disassociated from job #40
2017-11-02 19:32:01,977 INFO  (pool-2-thread-2) [instancei-08f4d8bacc2916fd5(writeToLogger:232)] I have been disassociated from job #40
2017-11-02 19:32:02,304 INFO  (pool-2-thread-2) [instancei-08f4d8bacc2916fd5(writeToLogger:232)] I have been disassociated from job #40
2017-11-02 19:32:02,601 INFO  (pool-2-thread-2) [instancei-08f4d8bacc2916fd5(writeToLogger:232)] I have been disassociated from job #40
2017-11-02 19:32:02,896 INFO  (pool-2-thread-2) [instancei-08f4d8bacc2916fd5(writeToLogger:232)] I have been disassociated from job #40
2017-11-02 19:32:03,210 INFO  (pool-2-thread-2) [instancei-08f4d8bacc2916fd5(writeToLogger:232)] I have been disassociated from job #40
2017-11-02 19:32:03,508 INFO  (pool-2-thread-2) [instancei-08f4d8bacc2916fd5(writeToLogger:232)] I have been disassociated from job #40
2017-11-02 19:32:03,811 INFO  (pool-2-thread-2) [instancei-08f4d8bacc2916fd5(writeToLogger:232)] I have been disassociated from job #40
2017-11-02 19:32:04,104 INFO  (pool-2-thread-2) [instancei-08f4d8bacc2916fd5(writeToLogger:232)] I have been disassociated from job #40
2017-11-02 19:32:04,400 INFO  (pool-2-thread-2) [instancei-08f4d8bacc2916fd5(writeToLogger:232)] I have been disassociated from job #40
2017-11-02 19:32:04,695 INFO  (pool-2-thread-2) [instancei-08f4d8bacc2916fd5(writeToLogger:232)] I have been disassociated from job #40
2017-11-02 19:32:05,471 INFO  (pool-2-thread-2) [instancei-08f4d8bacc2916fd5(writeToLogger:232)] I have been disassociated from job #40
2017-11-02 19:32:05,764 INFO  (pool-2-thread-2) [instancei-08f4d8bacc2916fd5(writeToLogger:232)] I have been disassociated from job #40
2017-11-02 19:32:06,062 INFO  (pool-2-thread-2) [instancei-08f4d8bacc2916fd5(writeToLogger:232)] I have been disassociated from job #40
2017-11-02 19:32:06,629 INFO  (pool-2-thread-2) [instancei-08f4d8bacc2916fd5(writeToLogger:232)] I have been disassociated from job #40
2017-11-02 19:32:06,924 INFO  (pool-2-thread-2) [instancei-08f4d8bacc2916fd5(writeToLogger:232)] I have been disassociated from job #40
2017-11-02 19:32:07,227 INFO  (pool-2-thread-2) [instancei-08f4d8bacc2916fd5(writeToLogger:232)] I have been disassociated from job #40
2017-11-02 19:32:07,551 INFO  (pool-2-thread-2) [instancei-08f4d8bacc2916fd5(writeToLogger:232)] I have been disassociated from job #40
2017-11-02 19:32:07,857 INFO  (pool-2-thread-2) [instancei-08f4d8bacc2916fd5(writeToLogger:232)] I have been disassociated from job #40
2017-11-02 19:32:08,168 INFO  (pool-2-thread-2) [instancei-08f4d8bacc2916fd5(writeToLogger:232)] I have been disassociated from job #40
2017-11-02 19:32:08,470 INFO  (pool-2-thread-2) [instancei-08f4d8bacc2916fd5(writeToLogger:232)] I have been disassociated from job #40
2017-11-02 19:32:08,757 INFO  (pool-2-thread-2) [instancei-08f4d8bacc2916fd5(writeToLogger:232)] I have been disassociated from job #40
2017-11-02 19:32:09,048 INFO  (pool-2-thread-2) [instancei-08f4d8bacc2916fd5(writeToLogger:232)] I have been disassociated from job #40
2017-11-02 19:32:09,342 INFO  (pool-2-thread-2) [instancei-08f4d8bacc2916fd5(writeToLogger:232)] I have been disassociated from job #40
2017-11-02 19:32:09,634 INFO  (pool-2-thread-2) [instancei-08f4d8bacc2916fd5(writeToLogger:232)] I have been disassociated from job #40
2017-11-02 19:32:09,928 INFO  (pool-2-thread-2) [instancei-08f4d8bacc2916fd5(writeToLogger:232)] I have been disassociated from job #40
2017-11-02 19:32:10,224 INFO  (pool-2-thread-2) [instancei-08f4d8bacc2916fd5(writeToLogger:232)] I have been disassociated from job #40
2017-11-02 19:32:10,511 INFO  (pool-2-thread-2) [instancei-08f4d8bacc2916fd5(writeToLogger:232)] I have been disassociated from job #40
2017-11-02 19:32:10,802 INFO  (pool-2-thread-2) [instancei-08f4d8bacc2916fd5(writeToLogger:232)] I have been disassociated from job #40
2017-11-02 19:32:11,092 INFO  (pool-2-thread-2) [instancei-08f4d8bacc2916fd5(writeToLogger:232)] I have been disassociated from job #40
2017-11-02 19:32:11,395 INFO  (pool-2-thread-2) [instancei-08f4d8bacc2916fd5(writeToLogger:232)] I have been disassociated from job #40
2017-11-02 19:32:11,692 INFO  (pool-2-thread-2) [instancei-08f4d8bacc2916fd5(writeToLogger:232)] I have been disassociated from job #40
2017-11-02 19:32:11,984 INFO  (pool-2-thread-2) [instancei-08f4d8bacc2916fd5(writeToLogger:232)] I have been disassociated from job #40
2017-11-02 19:32:12,277 INFO  (pool-2-thread-2) [instancei-08f4d8bacc2916fd5(writeToLogger:232)] I have been disassociated from job #40
2017-11-02 19:32:12,604 INFO  (pool-2-thread-2) [instancei-08f4d8bacc2916fd5(writeToLogger:232)] I have been disassociated from job #40
2017-11-02 19:32:12,897 INFO  (pool-2-thread-2) [instancei-08f4d8bacc2916fd5(writeToLogger:232)] I have been disassociated from job #40
2017-11-02 19:32:13,184 INFO  (pool-2-thread-2) [instancei-08f4d8bacc2916fd5(writeToLogger:232)] I have been disassociated from job #40
2017-11-02 19:32:13,484 INFO  (pool-2-thread-2) [instancei-08f4d8bacc2916fd5(writeToLogger:232)] I have been disassociated from job #40
2017-11-02 19:32:13,808 INFO  (pool-2-thread-2) [instancei-08f4d8bacc2916fd5(writeToLogger:232)] I have been disassociated from job #40
2017-11-02 19:32:14,156 INFO  (pool-2-thread-2) [instancei-08f4d8bacc2916fd5(writeToLogger:232)] I have been disassociated from job #40
2017-11-02 19:32:14,445 INFO  (pool-2-thread-2) [instancei-08f4d8bacc2916fd5(writeToLogger:232)] I have been disassociated from job #40
2017-11-02 19:32:14,725 INFO  (pool-2-thread-2) [instancei-08f4d8bacc2916fd5(writeToLogger:232)] I have been disassociated from job #40
2017-11-02 19:32:15,026 INFO  (pool-2-thread-2) [instancei-08f4d8bacc2916fd5(writeToLogger:232)] I have been disassociated from job #40
2017-11-02 19:32:15,504 INFO  (pool-2-thread-2) [instancei-08f4d8bacc2916fd5(writeToLogger:232)] I have been disassociated from job #40
2017-11-02 19:32:15,805 INFO  (pool-2-thread-2) [instancei-08f4d8bacc2916fd5(writeToLogger:232)] I have been disassociated from job #40
2017-11-02 19:32:16,119 INFO  (pool-2-thread-2) [instancei-08f4d8bacc2916fd5(writeToLogger:232)] I have been disassociated from job #40
2017-11-02 19:32:16,408 INFO  (pool-2-thread-2) [instancei-08f4d8bacc2916fd5(writeToLogger:232)] I have been disassociated from job #40
2017-11-02 19:32:16,701 INFO  (pool-2-thread-2) [instancei-08f4d8bacc2916fd5(writeToLogger:232)] I have been disassociated from job #40
2017-11-02 19:32:16,995 INFO  (pool-2-thread-2) [instancei-08f4d8bacc2916fd5(writeToLogger:232)] I have been disassociated from job #40
2017-11-02 19:32:17,302 INFO  (pool-2-thread-2) [instancei-08f4d8bacc2916fd5(writeToLogger:232)] I have been disassociated from job #40
2017-11-02 19:32:17,602 INFO  (pool-2-thread-2) [instancei-08f4d8bacc2916fd5(writeToLogger:232)] I have been disassociated from job #40
2017-11-02 19:32:17,899 INFO  (pool-2-thread-2) [instancei-08f4d8bacc2916fd5(writeToLogger:232)] I have been disassociated from job #40
2017-11-02 19:32:18,226 INFO  (pool-2-thread-2) [instancei-08f4d8bacc2916fd5(writeToLogger:232)] I have been disassociated from job #40
2017-11-02 19:32:18,527 INFO  (pool-2-thread-2) [instancei-08f4d8bacc2916fd5(writeToLogger:232)] I have been disassociated from job #40
2017-11-02 19:32:18,818 INFO  (pool-2-thread-2) [instancei-08f4d8bacc2916fd5(writeToLogger:232)] I have been disassociated from job #40
2017-11-02 19:32:19,115 INFO  (pool-2-thread-2) [instancei-08f4d8bacc2916fd5(writeToLogger:232)] I have been disassociated from job #40
2017-11-02 19:32:19,405 INFO  (pool-2-thread-2) [instancei-08f4d8bacc2916fd5(writeToLogger:232)] I have been disassociated from job #40
2017-11-02 19:32:19,697 INFO  (pool-2-thread-2) [instancei-08f4d8bacc2916fd5(writeToLogger:232)] I have been disassociated from job #40
2017-11-02 19:32:20,005 INFO  (pool-2-thread-2) [instancei-08f4d8bacc2916fd5(writeToLogger:232)] I have been disassociated from job #40
2017-11-02 19:32:20,288 INFO  (pool-2-thread-2) [instancei-08f4d8bacc2916fd5(writeToLogger:232)] I have been disassociated from job #40
2017-11-02 19:32:20,578 INFO  (pool-2-thread-2) [instancei-08f4d8bacc2916fd5(writeToLogger:232)] I have been disassociated from job #40
2017-11-02 19:32:21,402 INFO  (pool-2-thread-2) [instancei-08f4d8bacc2916fd5(writeToLogger:232)] I have been disassociated from job #40
2017-11-02 19:32:21,896 INFO  (pool-2-thread-2) [instancei-08f4d8bacc2916fd5(writeToLogger:232)] I have been disassociated from job #40
2017-11-02 19:32:22,226 INFO  (pool-2-thread-2) [instancei-08f4d8bacc2916fd5(writeToLogger:232)] I have been disassociated from job #40
2017-11-02 19:32:22,527 INFO  (pool-2-thread-2) [instancei-08f4d8bacc2916fd5(writeToLogger:232)] I have been disassociated from job #40
2017-11-02 19:32:22,823 INFO  (pool-2-thread-2) [instancei-08f4d8bacc2916fd5(writeToLogger:232)] I have been disassociated from job #40
2017-11-02 19:32:23,123 INFO  (pool-2-thread-2) [instancei-08f4d8bacc2916fd5(writeToLogger:232)] I have been disassociated from job #40
2017-11-02 19:32:23,424 INFO  (pool-2-thread-2) [instancei-08f4d8bacc2916fd5(writeToLogger:232)] I have been disassociated from job #40
2017-11-02 19:32:23,762 INFO  (pool-2-thread-2) [instancei-08f4d8bacc2916fd5(writeToLogger:232)] I have been disassociated from job #40
2017-11-02 19:32:24,062 INFO  (pool-2-thread-2) [instancei-08f4d8bacc2916fd5(writeToLogger:232)] I have been disassociated from job #40
2017-11-02 19:32:24,368 INFO  (pool-2-thread-2) [instancei-08f4d8bacc2916fd5(writeToLogger:232)] I have been disassociated from job #40
2017-11-02 19:32:24,675 INFO  (pool-2-thread-2) [instancei-08f4d8bacc2916fd5(writeToLogger:232)] I have been disassociated from job #40
2017-11-02 19:32:24,968 INFO  (pool-2-thread-2) [instancei-08f4d8bacc2916fd5(writeToLogger:232)] I have been disassociated from job #40
2017-11-02 19:32:25,281 INFO  (pool-2-thread-2) [instancei-08f4d8bacc2916fd5(writeToLogger:232)] I have been disassociated from job #40
2017-11-02 19:32:25,586 INFO  (pool-2-thread-2) [instancei-08f4d8bacc2916fd5(writeToLogger:232)] I have been disassociated from job #40
2017-11-02 19:32:25,888 INFO  (pool-2-thread-2) [instancei-08f4d8bacc2916fd5(writeToLogger:232)] I have been disassociated from job #40
2017-11-02 19:32:26,212 INFO  (pool-2-thread-2) [instancei-08f4d8bacc2916fd5(writeToLogger:232)] I have been disassociated from job #40
2017-11-02 19:32:26,506 INFO  (pool-2-thread-2) [instancei-08f4d8bacc2916fd5(writeToLogger:232)] I have been disassociated from job #40
2017-11-02 19:32:26,818 INFO  (pool-2-thread-2) [instancei-08f4d8bacc2916fd5(writeToLogger:232)] I have been disassociated from job #40
2017-11-02 19:32:27,145 INFO  (pool-2-thread-2) [instancei-08f4d8bacc2916fd5(writeToLogger:232)] I have been disassociated from job #40
